…
## Getting started

## Generic table interface

All fishbase tables can be accessed by name using the `fb_tbl()`
function:

``` r
fb_tbl("ecosystem")
```

    # A tibble: 155,792 × 18
       autoctr E_CODE EcosystemRefno Speccode Stockcode Status CurrentPresence
         <int>  <int>          <int>    <int>     <int> <chr>  <chr>          
     1       1      1          50628      549       565 native Present        
     2       2      1            189      552       568 native Present        
     3       3      1            189      554       570 native Present        
     4       4      1          79732      873       889 native Present        
     5       5      1           5217      948       964 native Present        
     6       7      1          39852      956       972 native Present        
     7       8      1          39852      957       973 native Present        
     8       9      1          39852      958       974 native Present        
     9      10      1            188     1526      1719 native Present        
    10      11      1            188     1626      1819 native Present        
    # … with 155,782 more rows, and 11 more variables: Abundance <chr>,
    #   LifeStage <chr>, Remarks <chr>, Entered <int>, Dateentered <dttm>,
    #   Modified <int>, Datemodified <dttm>, Expert <int>, Datechecked <dttm>,
    #   WebURL <chr>, TS <dttm>
…
## SeaLifeBase

SeaLifeBase.org is maintained by the same organization and largely
parallels the database structure of Fishbase. As such, almost all
`rfishbase` functions can instead be instructed to address the

``` r
fb_tbl("species", "sealifebase")
```

    # A tibble: 97,220 × 109
       SpecCode Genus  Species Author  SpeciesRefNo FBname FamCode Subfamily GenCode
          <int> <chr>  <chr>   <chr>          <int> <chr>    <int> <chr>       <int>
     1    32307 Aapto… americ… (Pilsb…           19 <NA>       815 <NA>        27838
     2    32306 Aapto… brinto… Newman…        81749 <NA>       815 <NA>        27838
     3    32308 Aapto… callis… (Pilsb…           19 <NA>       815 <NA>        27838
     4    32304 Aapto… leptod… Newman…           19 <NA>       815 <NA>        27838
     5    32305 Aapto… trider… Newman…           19 <NA>       815 <NA>        27838
     6    51720 Aaptos aaptos  (Schmi…           19 <NA>      2630 <NA>         9253
     7   165941 Aaptos bergma… de Lau…       108813 <NA>      2630 <NA>         9253
     8   105687 Aaptos ciliata (Wilso…         3477 <NA>      2630 <NA>         9253
     9   139407 Aaptos duchas… (Topse…        85482 <NA>      2630 <NA>         9253
    10   130070 Aaptos laxosu… (Solla…        81108 <NA>      2630 <NA>         9253
    # … with 97,210 more rows, and 100 more variables: TaxIssue <int>,
    #   Remark <chr>, PicPreferredName <chr>, PicPreferredNameM <chr>,
    #   PicPreferredNameF <chr>, PicPreferredNameJ <chr>, Source <chr>,
    #   AuthorRef <int>, SubGenCode <int>, Fresh <int>, Brack <int>,
    #   Saltwater <int>, Land <int>, BodyShapeI <chr>, DemersPelag <chr>,
    #   AnaCat <chr>, MigratRef <int>, DepthRangeShallow <int>,
    #   DepthRangeDeep <int>, DepthRangeRef <int>, DepthRangeComShallow <int>, …
…
