…
## COCI methods

OpenCitations Index of Crossref open DOI-to-DOI references

If you don't load `tibble` you get normal data.frame's


```r
library(tibble)
doi1 <- "10.1108/jd-12-2013-0166"
# references
oc_coci_refs(doi1)
#> # A tibble: 37 x 7
#>    journal_sc author_sc timespan citing    oci             cited        creation
#>  * <chr>      <chr>     <chr>    <chr>     <chr>           <chr>        <chr>   
#>  1 no         no        P9Y2M5D  10.1108/… 02001010008361… 10.1001/jam… 2015-03…
#>  2 no         no        P41Y8M   10.1108/… 02001010008361… 10.1002/asi… 2015-03…
#>  3 no         no        P25Y6M   10.1108/… 02001010008361… 10.1002/(si… 2015-03…
#>  4 no         no        P17Y2M   10.1108/… 02001010008361… 10.1007/bf0… 2015-03…
#>  5 no         no        P2Y2M3D  10.1108/… 02001010008361… 10.1007/s10… 2015-03…
#>  6 no         no        P5Y8M27D 10.1108/… 02001010008361… 10.1007/s11… 2015-03…
#>  7 no         no        P2Y3M    10.1108/… 02001010008361… 10.1016/j.w… 2015-03…
#>  8 no         no        P1Y10M   10.1108/… 02001010008361… 10.1016/j.w… 2015-03…
#>  9 no         no        P12Y     10.1108/… 02001010008361… 10.1023/a:1… 2015-03…
#> 10 no         no        P13Y10M  10.1108/… 02001010008361… 10.1038/350… 2015-03…
#> # … with 27 more rows
# citations
oc_coci_cites(doi1)
#> # A tibble: 23 x 7
#>    journal_sc author_sc timespan  citing     oci               cited    creation
#>  * <chr>      <chr>     <chr>     <chr>      <chr>             <chr>    <chr>   
#>  1 no         no        P3Y       10.1145/3… 0200101040536030… 10.1108… 2018    
#>  2 no         no        P2Y5M     10.1057/s… 0200100050736280… 10.1108… 2017-08 
#>  3 no         no        P4Y1M1D   10.3233/d… 0200302030336132… 10.1108… 2019-04…
#>  4 no         no        P4Y5M10D  10.3233/d… 0200302030336132… 10.1108… 2019-08…
#>  5 no         no        P1Y0M14D  10.3233/s… 0200302030336283… 10.1108… 2016-03…
#>  6 no         no        P3Y10M12D 10.3233/s… 0200302030336283… 10.1108… 2019-01…
#>  7 no         no        P3Y6M     10.1142/s… 0200101040236280… 10.1108… 2018-09 
#>  8 no         no        P2Y11M20D 10.7554/e… 0200705050436142… 10.1108… 2018-03…
#>  9 no         no        P0Y       10.3346/j… 0200303040636192… 10.1108… 2015    
#> 10 no         no        P3Y       10.1007/9… 0200100000736090… 10.1108… 2018    
#> # … with 13 more rows
…
