…
daily_single_ag
#> NASA/POWER CERES/MERRA2 Native Resolution Daily Data  
#>  Dates (month/day/year): 01/01/1985 through 01/31/1985  
#>  Location: Latitude  -27.48   Longitude 151.81  
#>  Elevation from MERRA-2: Average for 0.5 x 0.625 degree lat/lon region = 442.77 meters 
#>  Value for missing model data cannot be computed or out of model availability range: NA  
#>  Parameter(s):  
#>  
#>  Parameters: 
#>  RH2M            MERRA-2 Relative Humidity at 2 Meters (%) ;
#>  T2M             MERRA-2 Temperature at 2 Meters (C) ;
#>  PRECTOTCORR     MERRA-2 Precipitation Corrected (mm/day)  
#>  
#> # A tibble: 31 × 10
#>      LON   LAT  YEAR    MM    DD   DOY YYYYMMDD    RH2M   T2M
#>    <dbl> <dbl> <dbl> <int> <int> <int> <date>     <dbl> <dbl>
#>  1  152. -27.5  1985     1     1     1 1985-01-01  54.7  24.9
#>  2  152. -27.5  1985     1     2     2 1985-01-02  42.1  28.6
#>  3  152. -27.5  1985     1     3     3 1985-01-03  43.4  27.4
#>  4  152. -27.5  1985     1     4     4 1985-01-04  48.9  24.3
#>  5  152. -27.5  1985     1     5     5 1985-01-05  55.3  26.5
#>  6  152. -27.5  1985     1     6     6 1985-01-06  60.2  27.0
#>  7  152. -27.5  1985     1     7     7 1985-01-07  63.1  27.2
#>  8  152. -27.5  1985     1     8     8 1985-01-08  70.6  24.9
#>  9  152. -27.5  1985     1     9     9 1985-01-09  60    26.1
#> 10  152. -27.5  1985     1    10    10 1985-01-10  45.2  27.0
#> # … with 21 more rows, and 1 more variable: PRECTOTCORR <dbl>
```
…
daily_region_ag
#> NASA/POWER CERES/MERRA2 Native Resolution Daily Data  
#>  Dates (month/day/year): 01/01/1985 through 01/02/1985  
#>  Location: Regional  
#>  Elevation from MERRA-2: Average for 0.5 x 0.625 degree lat/lon region = na meters 
#>  Value for missing model data cannot be computed or out of model availability range: NA  
#>  Parameter(s):  
#>  
#>  Parameters: 
#>  RH2M     MERRA-2 Relative Humidity at 2 Meters (%) ;
#>  T2M      MERRA-2 Temperature at 2 Meters (C)  
#>  
#> # A tibble: 72 × 9
#>      LAT   LON  YEAR    MM    DD   DOY YYYYMMDD    RH2M   T2M
#>    <dbl> <dbl> <dbl> <int> <int> <int> <date>     <dbl> <dbl>
#>  1 -28.2  151.  1985     1     1     1 1985-01-01  43.6  26.5
#>  2 -28.2  151.  1985     1     1     1 1985-01-01  44.4  25.8
#>  3 -28.2  152.  1985     1     1     1 1985-01-01  52.6  24.0
#>  4 -28.2  152.  1985     1     1     1 1985-01-01  57.7  23.9
#>  5 -28.2  153.  1985     1     1     1 1985-01-01  61.4  24.9
#>  6 -28.2  153.  1985     1     1     1 1985-01-01  66.1  26.0
#>  7 -27.8  151.  1985     1     1     1 1985-01-01  45.8  26.5
#>  8 -27.8  151.  1985     1     1     1 1985-01-01  47.9  26.0
#>  9 -27.8  152.  1985     1     1     1 1985-01-01  53.4  24.8
#> 10 -27.8  152.  1985     1     1     1 1985-01-01  56.7  25.1
#> # … with 62 more rows
```
…
interannual_re
#> NASA/POWER CERES/MERRA2 Native Resolution Monthly and Annual  
#>  Dates (month/day/year): 01/01/1984 through 12/31/1985  
#>  Location: Regional  
#>  Elevation from MERRA-2: Average for 0.5 x 0.625 degree lat/lon region = na meters 
#>  Value for missing model data cannot be computed or out of model availability range: NA  
#>  Parameter(s):  
#>  
#>  Parameters: 
#>  ALLSKY_SFC_SW_DWN     CERES SYN1deg All Sky Surface Shortwave Downward Irradiance (kW-hr/m^2/day) ;
#>  CLRSKY_SFC_SW_DWN     CERES SYN1deg Clear Sky Surface Shortwave Downward Irradiance (kW-hr/m^2/day)  
#>  
#> # A tibble: 144 × 17
#>    PARAMETER    YEAR   LAT   LON   JAN   FEB   MAR   APR   MAY
#>    <chr>       <dbl> <dbl> <dbl> <dbl> <dbl> <dbl> <dbl> <dbl>
#>  1 ALLSKY_SFC…  1984 -25.8  151.  6.01  6.49  5.79  4.67  4.12
#>  2 ALLSKY_SFC…  1984 -25.8  151.  5.92  5.97  5.64  4.37  4.01
#>  3 ALLSKY_SFC…  1984 -25.8  152.  5.92  5.97  5.64  4.37  4.01
#>  4 ALLSKY_SFC…  1984 -25.8  152.  5.96  5.85  5.56  4.26  3.92
#>  5 ALLSKY_SFC…  1984 -25.8  153.  5.96  5.85  5.56  4.26  3.92
#>  6 ALLSKY_SFC…  1984 -25.8  153.  6.23  6.05  5.88  4.26  3.81
#>  7 ALLSKY_SFC…  1984 -26.2  151.  5.97  6.65  6     4.66  4.02
#>  8 ALLSKY_SFC…  1984 -26.2  151.  6     6.38  5.71  4.38  4.01
#>  9 ALLSKY_SFC…  1984 -26.2  152.  6     6.38  5.71  4.38  4.01
#> 10 ALLSKY_SFC…  1984 -26.2  152.  5.75  5.96  5.37  4.13  3.8 
#> # … with 134 more rows, and 8 more variables: JUN <dbl>,
#> #   JUL <dbl>, AUG <dbl>, SEP <dbl>, OCT <dbl>, NOV <dbl>,
#> #   DEC <dbl>, ANN <dbl>
```
…
