…
```r
library("worrms")
```

## Get records

WoRMS 'records' are taxa, not specimen occurrences or something else.

by date


```r
wm_records_date('2016-12-23T05:59:45+00:00')
#> # A tibble: 50 x 27
#>    AphiaID url   scientificname authority status unacceptreason taxonRankID
#>      <int> <chr> <chr>          <chr>     <chr>  <lgl>                <int>
#>  1  894302 http… Paleopolymorp… Vasilenk… accep… NA                     220
#>  2  894296 http… Parapachyphlo… Miklukho… accep… NA                     220
#>  3  894298 http… Parapachyphlo… Miklukho… accep… NA                     220
#>  4  894301 http… Ovulina radia… Seguenza… accep… NA                     220
#>  5  894299 http… Parafissurina… Petri, 1… accep… NA                     220
#>  6  894297 http… Parapachyphlo… Miklukho… accep… NA                     220
#>  7  919684 http… Flintina serr… Cuvillie… accep… NA                     220
#>  8  906465 http… Verneuilinoid… Bartenst… accep… NA                     220
#>  9  903640 http… Quinqueloculi… Hussey, … accep… NA                     220
#> 10  917580 http… Orbitolina ra… Sahni & … accep… NA                     220
#> # … with 40 more rows, and 20 more variables: rank <chr>, valid_AphiaID <int>,
#> #   valid_name <chr>, valid_authority <chr>, parentNameUsageID <int>,
#> #   kingdom <chr>, phylum <chr>, class <chr>, order <chr>, family <chr>,
#> #   genus <chr>, citation <chr>, lsid <chr>, isMarine <int>, isBrackish <lgl>,
#> #   isFreshwater <lgl>, isTerrestrial <lgl>, isExtinct <int>, match_type <chr>,
#> #   modified <chr>
```
…
```r
wm_attr_def(id = 1)
#> # A tibble: 1 x 4
#>   measurementTypeID measurementType        CategoryID children        
#>               <int> <chr>                       <int> <list>          
#> 1                 1 IUCN Red List Category          1 <df[,4] [2 × 4]>
```

attribute data by AphiaID


```r
wm_attr_data(id = 127160)
#> # A tibble: 24 x 10
#>    AphiaID measurementType… measurementType measurementValue source_id reference
#>    <chr>              <int> <chr>           <chr>                <int> <chr>    
#>  1 127160                23 Species import… FAO-ASFIS: Spec…    197354 "FAO Fis…
#>  2 127160                23 Species import… MSFD indicators     197546 "Daniel …
#>  3 127160                23 Species import… MSFD indicators     197549 "ICES. 2…
#>  4 127160                23 Species import… MSFD indicators     197615 "List of…
#>  5 127160                23 Species import… MSFD indicators     197615 "List of…
#>  6 127160                23 Species import… MSFD indicators     197615 "List of…
#>  7 127160                23 Species import… MSFD indicators     197615 "List of…
#>  8 127160                23 Species import… MSFD indicators     197616 "List of…
#>  9 127160                23 Species import… MSFD indicators     197616 "List of…
#> 10 127160                23 Species import… MSFD indicators     197549 "ICES. 2…
#> # … with 14 more rows, and 4 more variables: qualitystatus <chr>,
#> #   AphiaID_Inherited <int>, CategoryID <int>, children <list>
```
…
AphiaIDs by attribute definition ID


```r
wm_attr_aphia(id = 4)
#> # A tibble: 50 x 2
#>    AphiaID Attributes        
#>      <int> <list>            
#>  1      11 <df[,10] [1 × 10]>
#>  2      55 <df[,10] [2 × 10]>
#>  3      57 <df[,10] [2 × 10]>
#>  4      58 <df[,10] [2 × 10]>
#>  5      59 <df[,10] [2 × 10]>
#>  6      63 <df[,10] [2 × 10]>
#>  7      64 <df[,10] [2 × 10]>
#>  8      69 <df[,10] [2 × 10]>
#>  9      90 <df[,10] [2 × 10]>
#> 10      91 <df[,10] [2 × 10]>
#> # … with 40 more rows
```
…
