…
## List repositories for a collection



```r
bs_repositories(coll = "ceu")
#> # A tibble: 3,056 x 2
#>    name                                                            internal_name
#>    <chr>                                                           <chr>        
#>  1 Gornye nauki i tekhnologii (E-Journal)                          ftjmst       
#>  2 Hanser (Carl Hanser Verlag - via Crossref)                      crhanserverl…
#>  3 Università della Calabria: Archivio Institutionale delle Tesi … ftunivcalabr…
#>  4 hogrefe (via Crossref)                                          crhogrefe    
#>  5 Iberoamericana Vervuert (via Crossref)                          crvervuert   
#>  6 Manchester University Press (via Crossref)                      crmanchestupr
#>  7 Bezmialem Vakıf Üniversitesi Kurumsal Akademik Arşiv            ftbezmialem  
#>  8 ForAP - Forschungsergebnisse von Absolventen und Promovierende… ftjforap     
#>  9 Movement and Nutrition in Health and Disease (E-Journal)        ftjmnhd      
#> 10 Radcliffe Group (via Crossref)                                  crradcliffe  
#> # … with 3,046 more rows
```
…
