…
From the output of `cr_works` we can get full text links if we know where to look:


```r
do.call("rbind", out$data$link)
#> # A tibble: 55 × 4
#>    URL                           content.type  content.version intended.applica…
#>    <chr>                         <chr>         <chr>           <chr>            
#>  1 http://downloads.hindawi.com… application/… vor             text-mining      
#>  2 http://downloads.hindawi.com… unspecified   vor             similarity-check…
#>  3 https://api.elsevier.com/con… text/xml      vor             text-mining      
#>  4 https://api.elsevier.com/con… text/plain    vor             text-mining      
#>  5 https://api.elsevier.com/con… text/xml      vor             text-mining      
#>  6 https://api.elsevier.com/con… text/plain    vor             text-mining      
#>  7 http://downloads.hindawi.com… application/… vor             text-mining      
#>  8 http://downloads.hindawi.com… unspecified   vor             similarity-check…
#>  9 https://api.elsevier.com/con… text/xml      vor             text-mining      
#> 10 https://api.elsevier.com/con… text/plain    vor             text-mining      
#> # … with 45 more rows
```
…
