…
      -- Classification ($higher_taxa): ----------------------------------------------
      # A tibble: 1 x 6
        id    kingdom  phylum   class    order       family      
        <chr> <chr>    <chr>    <chr>    <chr>       <chr>       
      1 4521  Animalia Chordata Mammalia Proboscidea Elephantidae
      
      -- Synonyms ($synonyms): -------------------------------------------------------
      # A tibble: 1 x 4
           id full_name          author_year      rank   
        <int> <chr>              <chr>            <chr>  
      1 37069 Loxodonta cyclotis (Matschie, 1900) SPECIES
      
      -- Common names ($common_names): -----------------------------------------------
      # A tibble: 37 x 3
            id name               language
         <int> <chr>              <chr>   
       1  4521 Ndovo              SW      
       2  4521 Tembo              SW      
       3  4521 Haathi             UR      
       4  4521 Elefante           PT      
       5  4521 Slon               RU      
       6  4521 Elefant            NO      
       7  4521 Olifant            NL      
       8  4521 Afrikaanse olifant NL      
       9  4521 Elefante africano  ES      
      10  4521 afrikansk elefant  SV      
      # ... with 27 more rows
…
      -- Cites quotas ($cites_quotas): -----------------------------------------------
      # A tibble: 38 x 10
         id    taxon_concept_id quota publication_date public_display is_current unit 
         <chr> <chr>            <chr> <chr>            <lgl>          <lgl>      <chr>
       1 25337 4521             0     2021-02-03       TRUE           TRUE       <NA> 
       2 25348 4521             0     2021-02-03       TRUE           TRUE       <NA> 
       3 25355 4521             0     2021-02-03       TRUE           TRUE       <NA> 
       4 25358 4521             0     2021-02-03       TRUE           TRUE       <NA> 
       5 25375 4521             0     2021-02-03       TRUE           TRUE       <NA> 
       6 25390 4521             0     2021-02-03       TRUE           TRUE       <NA> 
       7 25414 4521             0     2021-02-03       TRUE           TRUE       <NA> 
       8 25431 4521             0     2021-02-03       TRUE           TRUE       <NA> 
       9 25554 4521             100   2021-02-03       TRUE           TRUE       <NA> 
      10 25555 4521             300   2021-02-03       TRUE           TRUE       <NA> 
      # ... with 28 more rows, and 3 more variables: geo_entity.iso_code2 <chr>,
      #   geo_entity.name <chr>, geo_entity.type <chr>
…
# spp_distributions() defaults work

    Code
      print(res)
    Output
      
      -- Distributions ($distributions): ---------------------------------------------
      # A tibble: 42 x 5
            id iso_code2 name              type    tags 
         <int> <chr>     <chr>             <chr>   <chr>
       1  1778 ML        Mali              COUNTRY ""   
       2  1923 GQ        Equatorial Guinea COUNTRY ""   
       3  4429 RW        Rwanda            COUNTRY ""   
       4  4491 GH        Ghana             COUNTRY ""   
       5  5628 SD        Sudan             COUNTRY ""   
       6  6724 ET        Ethiopia          COUNTRY ""   
       7  8995 GA        Gabon             COUNTRY ""   
       8 12983 AO        Angola            COUNTRY ""   
       9 15554 CM        Cameroon          COUNTRY ""   
      10 17060 BJ        Benin             COUNTRY ""   
      # ... with 32 more rows
      
      -- References ($references): ---------------------------------------------------
      # A tibble: 146 x 2
            id reference                       
         <int> <chr>                           
       1  1778 Kingdon, J., Happold [truncated]
       2  1923 Basilio, A. 1962. La [truncated]
       3  4429 Jackson, P. 1982. El [truncated]
       4  4429 Monfort, A. 1992. Pr [truncated]
       5  4491 Grubb, P., Jones, T. [truncated]
       6  4491 Jackson, P. 1982. El [truncated]
       7  5628 Hameed, S.M.A. and E [truncated]
       8  6724 Bolton, M. 1973. Not [truncated]
       9  6724 Largen, M. J. and Ya [truncated]
      10  6724 Meester, J. and Setz [truncated]
      # ... with 136 more rows
…
