…
## Coordinate based cleaning


```r
data("sampledata1")
```

Remove impossible coordinates (using sample data included in the pkg)


```r
# coord_impossible(dframe(sample_data_1)) # w/o pipe
dframe(sample_data_1) %>% coord_impossible()
#> # A tibble: 1,500 x 5
#>    name             longitude latitude date                       key
#>  * <chr>                <dbl>    <dbl> <dttm>                   <int>
#>  1 Ursus americanus     -79.7     38.4 2015-01-14 16:36:45 1065590124
#>  2 Ursus americanus     -82.4     35.7 2015-01-13 00:25:39 1065588899
#>  3 Ursus americanus     -99.1     23.7 2015-02-20 23:00:00 1098894889
#>  4 Ursus americanus     -72.8     43.9 2015-02-13 16:16:41 1065611122
#>  5 Ursus americanus     -72.3     43.9 2015-03-01 20:20:45 1088908315
#>  6 Ursus americanus    -109.      32.7 2015-03-29 17:06:54 1088932238
#>  7 Ursus americanus    -109.      32.7 2015-03-29 17:12:50 1088932273
#>  8 Ursus americanus    -124.      40.1 2015-03-28 23:00:00 1132403409
#>  9 Ursus americanus     -78.3     36.9 2015-03-20 21:11:24 1088923534
#> 10 Ursus americanus     -76.8     35.5 2015-04-05 23:00:00 1088954559
#> # … with 1,490 more rows
```

Remove incomplete coordinates


```r
# coord_incomplete(dframe(sample_data_1)) # w/o pipe
dframe(sample_data_1) %>% coord_incomplete()
#> # A tibble: 1,306 x 5
#>    name             longitude latitude date                       key
#>  * <chr>                <dbl>    <dbl> <dttm>                   <int>
#>  1 Ursus americanus     -79.7     38.4 2015-01-14 16:36:45 1065590124
#>  2 Ursus americanus     -82.4     35.7 2015-01-13 00:25:39 1065588899
#>  3 Ursus americanus     -99.1     23.7 2015-02-20 23:00:00 1098894889
#>  4 Ursus americanus     -72.8     43.9 2015-02-13 16:16:41 1065611122
#>  5 Ursus americanus     -72.3     43.9 2015-03-01 20:20:45 1088908315
#>  6 Ursus americanus    -109.      32.7 2015-03-29 17:06:54 1088932238
#>  7 Ursus americanus    -109.      32.7 2015-03-29 17:12:50 1088932273
#>  8 Ursus americanus    -124.      40.1 2015-03-28 23:00:00 1132403409
#>  9 Ursus americanus     -78.3     36.9 2015-03-20 21:11:24 1088923534
#> 10 Ursus americanus     -76.8     35.5 2015-04-05 23:00:00 1088954559
#> # … with 1,296 more rows
```

Remove unlikely coordinates (e.g., those at 0,0)


```r
# coord_unlikely(dframe(sample_data_1)) # w/o pipe
dframe(sample_data_1) %>% coord_unlikely()
#> # A tibble: 1,488 x 5
#>    name             longitude latitude date                       key
#>  * <chr>                <dbl>    <dbl> <dttm>                   <int>
#>  1 Ursus americanus     -79.7     38.4 2015-01-14 16:36:45 1065590124
#>  2 Ursus americanus     -82.4     35.7 2015-01-13 00:25:39 1065588899
#>  3 Ursus americanus     -99.1     23.7 2015-02-20 23:00:00 1098894889
#>  4 Ursus americanus     -72.8     43.9 2015-02-13 16:16:41 1065611122
#>  5 Ursus americanus     -72.3     43.9 2015-03-01 20:20:45 1088908315
#>  6 Ursus americanus    -109.      32.7 2015-03-29 17:06:54 1088932238
#>  7 Ursus americanus    -109.      32.7 2015-03-29 17:12:50 1088932273
#>  8 Ursus americanus    -124.      40.1 2015-03-28 23:00:00 1132403409
#>  9 Ursus americanus     -78.3     36.9 2015-03-20 21:11:24 1088923534
#> 10 Ursus americanus     -76.8     35.5 2015-04-05 23:00:00 1088954559
#> # … with 1,478 more rows
```

Do all three


```r
dframe(sample_data_1) %>%
  coord_impossible() %>%
  coord_incomplete() %>%
  coord_unlikely()
#> # A tibble: 1,294 x 5
#>    name             longitude latitude date                       key
#>  * <chr>                <dbl>    <dbl> <dttm>                   <int>
#>  1 Ursus americanus     -79.7     38.4 2015-01-14 16:36:45 1065590124
#>  2 Ursus americanus     -82.4     35.7 2015-01-13 00:25:39 1065588899
#>  3 Ursus americanus     -99.1     23.7 2015-02-20 23:00:00 1098894889
#>  4 Ursus americanus     -72.8     43.9 2015-02-13 16:16:41 1065611122
#>  5 Ursus americanus     -72.3     43.9 2015-03-01 20:20:45 1088908315
#>  6 Ursus americanus    -109.      32.7 2015-03-29 17:06:54 1088932238
#>  7 Ursus americanus    -109.      32.7 2015-03-29 17:12:50 1088932273
#>  8 Ursus americanus    -124.      40.1 2015-03-28 23:00:00 1132403409
#>  9 Ursus americanus     -78.3     36.9 2015-03-20 21:11:24 1088923534
#> 10 Ursus americanus     -76.8     35.5 2015-04-05 23:00:00 1088954559
#> # … with 1,284 more rows
```
…
## Dates

Standardize/convert dates


```r
df <- sample_data_1
# date_standardize(dframe(df), "%d%b%Y") # w/o pipe
dframe(df) %>% date_standardize("%d%b%Y")
#> # A tibble: 1,500 x 5
#>    name             longitude latitude date             key
#>    <chr>                <dbl>    <dbl> <chr>          <int>
#>  1 Ursus americanus     -79.7     38.4 14Jan2015 1065590124
#>  2 Ursus americanus     -82.4     35.7 13Jan2015 1065588899
#>  3 Ursus americanus     -99.1     23.7 20Feb2015 1098894889
#>  4 Ursus americanus     -72.8     43.9 13Feb2015 1065611122
#>  5 Ursus americanus     -72.3     43.9 01Mar2015 1088908315
#>  6 Ursus americanus    -109.      32.7 29Mar2015 1088932238
#>  7 Ursus americanus    -109.      32.7 29Mar2015 1088932273
#>  8 Ursus americanus    -124.      40.1 28Mar2015 1132403409
#>  9 Ursus americanus     -78.3     36.9 20Mar2015 1088923534
#> 10 Ursus americanus     -76.8     35.5 05Apr2015 1088954559
#> # … with 1,490 more rows
```
…
```r
NROW(df)
#> [1] 1500
NROW(dframe(df) %>% date_missing())
#> [1] 1498
```

Create date field from other fields


```r
dframe(sample_data_2) %>% date_create(year, month, day)
#> # A tibble: 1,500 x 8
#>    name             longitude latitude        key year  month day   date      
#>    <chr>                <dbl>    <dbl>      <int> <chr> <chr> <chr> <chr>     
#>  1 Ursus americanus     -79.7     38.4 1065590124 2015  01    14    2015-01-14
#>  2 Ursus americanus     -82.4     35.7 1065588899 2015  01    13    2015-01-13
#>  3 Ursus americanus     -99.1     23.7 1098894889 2015  02    20    2015-02-20
#>  4 Ursus americanus     -72.8     43.9 1065611122 2015  02    13    2015-02-13
#>  5 Ursus americanus     -72.3     43.9 1088908315 2015  03    01    2015-03-01
#>  6 Ursus americanus    -109.      32.7 1088932238 2015  03    29    2015-03-29
#>  7 Ursus americanus    -109.      32.7 1088932273 2015  03    29    2015-03-29
#>  8 Ursus americanus    -124.      40.1 1132403409 2015  03    28    2015-03-28
#>  9 Ursus americanus     -78.3     36.9 1088923534 2015  03    20    2015-03-20
#> 10 Ursus americanus     -76.8     35.5 1088954559 2015  04    05    2015-04-05
#> # … with 1,490 more rows
```
…
`dframe()` is a utility function to create a compact data.frame representation. You 
don't have to use it. If you do, you can work with `scrubr` functions with a compact
data.frame, making it easier to see the data quickly. If you don't use `dframe()`
we just use your regular data.frame. Problem is with large data.frame's you deal with 
lots of stuff printed to the screen, making it hard to quickly wrangle data.

## Coordinate based cleaning

Remove impossible coordinates (using sample data included in the pkg)


```r
# coord_impossible(dframe(sample_data_1)) # w/o pipe
dframe(sample_data_1) %>% coord_impossible()
#> # A tibble: 1,500 x 5
#>    name             longitude latitude date                       key
#>  * <chr>                <dbl>    <dbl> <dttm>                   <int>
#>  1 Ursus americanus     -79.7     38.4 2015-01-14 16:36:45 1065590124
#>  2 Ursus americanus     -82.4     35.7 2015-01-13 00:25:39 1065588899
#>  3 Ursus americanus     -99.1     23.7 2015-02-20 23:00:00 1098894889
#>  4 Ursus americanus     -72.8     43.9 2015-02-13 16:16:41 1065611122
#>  5 Ursus americanus     -72.3     43.9 2015-03-01 20:20:45 1088908315
#>  6 Ursus americanus    -109.      32.7 2015-03-29 17:06:54 1088932238
#>  7 Ursus americanus    -109.      32.7 2015-03-29 17:12:50 1088932273
#>  8 Ursus americanus    -124.      40.1 2015-03-28 23:00:00 1132403409
#>  9 Ursus americanus     -78.3     36.9 2015-03-20 21:11:24 1088923534
#> 10 Ursus americanus     -76.8     35.5 2015-04-05 23:00:00 1088954559
#> # … with 1,490 more rows
```

Remove incomplete coordinates


```r
# coord_incomplete(dframe(sample_data_1)) # w/o pipe
dframe(sample_data_1) %>% coord_incomplete()
#> # A tibble: 1,306 x 5
#>    name             longitude latitude date                       key
#>  * <chr>                <dbl>    <dbl> <dttm>                   <int>
#>  1 Ursus americanus     -79.7     38.4 2015-01-14 16:36:45 1065590124
#>  2 Ursus americanus     -82.4     35.7 2015-01-13 00:25:39 1065588899
#>  3 Ursus americanus     -99.1     23.7 2015-02-20 23:00:00 1098894889
#>  4 Ursus americanus     -72.8     43.9 2015-02-13 16:16:41 1065611122
#>  5 Ursus americanus     -72.3     43.9 2015-03-01 20:20:45 1088908315
#>  6 Ursus americanus    -109.      32.7 2015-03-29 17:06:54 1088932238
#>  7 Ursus americanus    -109.      32.7 2015-03-29 17:12:50 1088932273
#>  8 Ursus americanus    -124.      40.1 2015-03-28 23:00:00 1132403409
#>  9 Ursus americanus     -78.3     36.9 2015-03-20 21:11:24 1088923534
#> 10 Ursus americanus     -76.8     35.5 2015-04-05 23:00:00 1088954559
#> # … with 1,296 more rows
```

Remove unlikely coordinates (e.g., those at 0,0)


```r
# coord_unlikely(dframe(sample_data_1)) # w/o pipe
dframe(sample_data_1) %>% coord_unlikely()
#> # A tibble: 1,488 x 5
#>    name             longitude latitude date                       key
#>  * <chr>                <dbl>    <dbl> <dttm>                   <int>
#>  1 Ursus americanus     -79.7     38.4 2015-01-14 16:36:45 1065590124
#>  2 Ursus americanus     -82.4     35.7 2015-01-13 00:25:39 1065588899
#>  3 Ursus americanus     -99.1     23.7 2015-02-20 23:00:00 1098894889
#>  4 Ursus americanus     -72.8     43.9 2015-02-13 16:16:41 1065611122
#>  5 Ursus americanus     -72.3     43.9 2015-03-01 20:20:45 1088908315
#>  6 Ursus americanus    -109.      32.7 2015-03-29 17:06:54 1088932238
#>  7 Ursus americanus    -109.      32.7 2015-03-29 17:12:50 1088932273
#>  8 Ursus americanus    -124.      40.1 2015-03-28 23:00:00 1132403409
#>  9 Ursus americanus     -78.3     36.9 2015-03-20 21:11:24 1088923534
#> 10 Ursus americanus     -76.8     35.5 2015-04-05 23:00:00 1088954559
#> # … with 1,478 more rows
```

Do all three


```r
dframe(sample_data_1) %>%
  coord_impossible() %>%
  coord_incomplete() %>%
  coord_unlikely()
#> # A tibble: 1,294 x 5
#>    name             longitude latitude date                       key
#>  * <chr>                <dbl>    <dbl> <dttm>                   <int>
#>  1 Ursus americanus     -79.7     38.4 2015-01-14 16:36:45 1065590124
#>  2 Ursus americanus     -82.4     35.7 2015-01-13 00:25:39 1065588899
#>  3 Ursus americanus     -99.1     23.7 2015-02-20 23:00:00 1098894889
#>  4 Ursus americanus     -72.8     43.9 2015-02-13 16:16:41 1065611122
#>  5 Ursus americanus     -72.3     43.9 2015-03-01 20:20:45 1088908315
#>  6 Ursus americanus    -109.      32.7 2015-03-29 17:06:54 1088932238
#>  7 Ursus americanus    -109.      32.7 2015-03-29 17:12:50 1088932273
#>  8 Ursus americanus    -124.      40.1 2015-03-28 23:00:00 1132403409
#>  9 Ursus americanus     -78.3     36.9 2015-03-20 21:11:24 1088923534
#> 10 Ursus americanus     -76.8     35.5 2015-04-05 23:00:00 1088954559
#> # … with 1,284 more rows
```
…
## Dates

Standardize/convert dates


```r
# date_standardize(dframe(df), "%d%b%Y") # w/o pipe
dframe(sample_data_1) %>% date_standardize("%d%b%Y")
#> # A tibble: 1,500 x 5
#>    name             longitude latitude date             key
#>    <chr>                <dbl>    <dbl> <chr>          <int>
#>  1 Ursus americanus     -79.7     38.4 14Jan2015 1065590124
#>  2 Ursus americanus     -82.4     35.7 13Jan2015 1065588899
#>  3 Ursus americanus     -99.1     23.7 20Feb2015 1098894889
#>  4 Ursus americanus     -72.8     43.9 13Feb2015 1065611122
#>  5 Ursus americanus     -72.3     43.9 01Mar2015 1088908315
#>  6 Ursus americanus    -109.      32.7 29Mar2015 1088932238
#>  7 Ursus americanus    -109.      32.7 29Mar2015 1088932273
#>  8 Ursus americanus    -124.      40.1 28Mar2015 1132403409
#>  9 Ursus americanus     -78.3     36.9 20Mar2015 1088923534
#> 10 Ursus americanus     -76.8     35.5 05Apr2015 1088954559
#> # … with 1,490 more rows
```
…
```r
NROW(sample_data_1)
#> [1] 1500
NROW(dframe(sample_data_1) %>% date_missing())
#> [1] 1498
```

Create date field from other fields


```r
dframe(sample_data_2) %>% date_create(year, month, day)
#> # A tibble: 1,500 x 8
#>    name             longitude latitude        key year  month day   date      
#>    <chr>                <dbl>    <dbl>      <int> <chr> <chr> <chr> <chr>     
#>  1 Ursus americanus     -79.7     38.4 1065590124 2015  01    14    2015-01-14
#>  2 Ursus americanus     -82.4     35.7 1065588899 2015  01    13    2015-01-13
#>  3 Ursus americanus     -99.1     23.7 1098894889 2015  02    20    2015-02-20
#>  4 Ursus americanus     -72.8     43.9 1065611122 2015  02    13    2015-02-13
#>  5 Ursus americanus     -72.3     43.9 1088908315 2015  03    01    2015-03-01
#>  6 Ursus americanus    -109.      32.7 1088932238 2015  03    29    2015-03-29
#>  7 Ursus americanus    -109.      32.7 1088932273 2015  03    29    2015-03-29
#>  8 Ursus americanus    -124.      40.1 1132403409 2015  03    28    2015-03-28
#>  9 Ursus americanus     -78.3     36.9 1088923534 2015  03    20    2015-03-20
#> 10 Ursus americanus     -76.8     35.5 1088954559 2015  04    05    2015-04-05
#> # … with 1,490 more rows
```
…
