…
Full hierarchy for a TSN


```r
hierarchy_full(tsn = 37906)
#> # A tibble: 60 x 5
#>    parentname        parenttsn rankname      taxonname       tsn   
#>    <chr>             <chr>     <chr>         <chr>           <chr> 
#>  1 ""                ""        Kingdom       Plantae         202422
#>  2 "Plantae"         "202422"  Subkingdom    Viridiplantae   954898
#>  3 "Viridiplantae"   "954898"  Infrakingdom  Streptophyta    846494
#>  4 "Streptophyta"    "846494"  Superdivision Embryophyta     954900
#>  5 "Embryophyta"     "954900"  Division      Tracheophyta    846496
#>  6 "Tracheophyta"    "846496"  Subdivision   Spermatophytina 846504
#>  7 "Spermatophytina" "846504"  Class         Magnoliopsida   18063 
#>  8 "Magnoliopsida"   "18063"   Superorder    Asteranae       846535
#>  9 "Asteranae"       "846535"  Order         Asterales       35419 
#> 10 "Asterales"       "35419"   Family        Asteraceae      35420 
#> # … with 50 more rows
```
…
