…
The [europepmc](https://github.com/ropensci/europepmc) package includes
additional functions to search PMC and download full text. Be sure to
include the `OPEN_ACCESS` field in the search since these are the only
articles with full text XML available.

``` r
library(europepmc)
yp <- epmc_search("title:(Yersinia pestis virulence) OPEN_ACCESS:Y")
#  19 records found, returning 19
select(yp, pmcid, pubYear, title) %>%
  print(n=5)
#  # A tibble: 19 x 3
#    pmcid      pubYear title                                                                          
#    <chr>      <chr>   <chr>                                                                          
#  1 PMC5505154 2017    Crystal structure of Yersinia pestis virulence factor YfeA reveals two polyspe…
#  2 PMC3521224 2012    Omics strategies for revealing Yersinia pestis virulence.                      
#  3 PMC2704395 2009    Involvement of the post-transcriptional regulator Hfq in Yersinia pestis virul…
#  4 PMC2736372 2009    The NlpD lipoprotein is a novel Yersinia pestis virulence factor essential for…
#  5 PMC3109262 2011    A comprehensive study on the role of the Yersinia pestis virulence markers in …
#  # … with 14 more rows
```
…
The `pmc_text` function uses the
[tokenizers](https://lincolnmullen.com/software/tokenizers/) package to
split section paragraphs into sentences. The function also removes any
tables, figures or formulas that are nested within paragraph tags,
replaces superscripted references with brackets, adds carets and
underscores to other superscripts and subscripts and includes the full
path to the subsection title.

``` r
txt <- pmc_text(doc)
#  Note: removing disp-formula nested in sec/p tag
txt
#  # A tibble: 194 x 4
#     section    paragraph sentence text                                                                         
#     <chr>          <int>    <int> <chr>                                                                        
#   1 Title              1        1 Comparative transcriptomics in Yersinia pestis: a global view of environment…
#   2 Abstract           1        1 Environmental modulation of gene expression in Yersinia pestis is critical f…
#   3 Abstract           1        2 Using cDNA microarray technology, we have analyzed the global gene expressio…
#   4 Abstract           2        1 To provide us with a comprehensive view of environmental modulation of globa…
#   5 Abstract           2        2 Almost all known virulence genes of Y. pestis were differentially regulated …
#   6 Abstract           2        3 Clustering enabled us to functionally classify co-expressed genes, including…
#   7 Abstract           2        4 Collections of operons were predicted from the microarray data, and some of …
#   8 Abstract           2        5 Several regulatory DNA motifs, probably recognized by the regulatory protein…
#   9 Abstract           3        1 The comparative transcriptomics analysis we present here not only benefits o…
#  10 Background         1        1 Yersinia pestis is the etiological agent of plague, alternatively growing in…
#  # … with 184 more rows
count(txt, section, sort=TRUE)
#  # A tibble: 21 x 2
#     section                                                                                                   n
#     <chr>                                                                                                 <int>
#   1 Results and Discussion; Clustering analysis and functional classification of co-expressed gene clust…    22
#   2 Background                                                                                               20
#   3 Results and Discussion; Virulence genes in response to multiple environmental stresses                   20
#   4 Methods; Collection of microarray expression data                                                        17
#   5 Results and Discussion; Computational discovery of regulatory DNA motifs                                 16
#   6 Methods; Gel mobility shift analysis of Fur binding                                                      13
#   7 Results and Discussion; Verification of predicted operons by RT-PCR                                      10
#   8 Abstract                                                                                                  8
#   9 Methods; Discovery of regulatory DNA motifs                                                               8
#  10 Methods; Clustering analysis                                                                              7
#  # … with 11 more rows
```

Load the [tidytext](https://www.tidytextmining.com/) package for further
text processing.

``` r
library(tidytext)
x1 <- unnest_tokens(txt, word, text) %>%
  anti_join(stop_words) %>%
  filter(!word %in% 1:100)
#  Joining, by = "word"
filter(x1, str_detect(section, "^Results"))
#  # A tibble: 1,269 x 4
#     section                paragraph sentence word         
#     <chr>                      <int>    <int> <chr>        
#   1 Results and Discussion         1        1 comprehensive
#   2 Results and Discussion         1        1 analysis     
#   3 Results and Discussion         1        1 sets         
#   4 Results and Discussion         1        1 microarray   
#   5 Results and Discussion         1        1 expression   
#   6 Results and Discussion         1        1 data         
#   7 Results and Discussion         1        1 dissect      
#   8 Results and Discussion         1        1 bacterial    
#   9 Results and Discussion         1        1 adaptation   
#  10 Results and Discussion         1        1 environments 
#  # … with 1,259 more rows
filter(x1, str_detect(section, "^Results")) %>%
  count(word, sort = TRUE)
#  # A tibble: 595 x 2
#     word           n
#     <chr>      <int>
#   1 genes         45
#   2 cluster       24
#   3 expression    21
#   4 pestis        21
#   5 data          19
#   6 dna           15
#   7 gene          15
#   8 figure        13
#   9 fur           12
#  10 operons       12
#  # … with 585 more rows
```

The `pmc_table` function formats tables by collapsing multiline headers,
expanding rowspan and colspan attributes and adding subheadings into a
new column.

``` r
tbls <- pmc_table(doc)
#  Parsing 4 tables
#  Adding footnotes to Table 1
map_int(tbls, nrow)
#  Table 1 Table 2 Table 3 Table 4 
#       39      23       4      34
tbls[[1]]
#  # A tibble: 39 x 5
#     subheading              `Potential operon (r va… `Gene ID`   `Putative or predicted functi… `Reference (s)`
#     <chr>                   <chr>                    <chr>       <chr>                          <chr>          
#   1 Iron uptake or heme sy… yfeABCD operon* (r > 0.… YPO2439-24… Transport/binding chelated ir… yfeABCD [54]   
#   2 Iron uptake or heme sy… hmuRSTUV operon (r > 0.… YPO0279-02… Transport/binding hemin        hmuRSTUV [55]  
#   3 Iron uptake or heme sy… ysuJIHG* (r > 0.95)      YPO1529-15… Iron uptake                    -              
#   4 Iron uptake or heme sy… sufABCDS* (r > 0.90)     YPO2400-24… Iron-regulated Fe-S cluster a… -              
#   5 Iron uptake or heme sy… YPO1854-1856* (r > 0.97) YPO1854-18… Iron uptake or heme synthesis? -              
#   6 Sulfur metabolism       tauABCD operon (r > 0.9… YPO0182-01… Transport/binding taurine      tauABCD [56]   
#   7 Sulfur metabolism       ssuEADCB operon (r > 0.… YPO3623-36… Sulphur metabolism             ssu operon [57]
#   8 Sulfur metabolism       cys operon (r > 0.92)    YPO3010-30… Cysteine synthesis             -              
#   9 Sulfur metabolism       YPO1317-1319 (r > 0.97)  YPO1317-13… Sulfur metabolism?             -              
#  10 Sulfur metabolism       YPO4109-4111 (r > 0.90)  YPO4109-41… Sulfur metabolism?             -              
#  # … with 29 more rows
```

Use `collapse_rows` to join column names and cell values in a semi-colon
delimited string (and then search using functions in the next section).

``` r
collapse_rows(tbls, na.string="-")
#  # A tibble: 100 x 3
#     table     row text                                                                                         
#     <chr>   <int> <chr>                                                                                        
#   1 Table 1     1 subheading=Iron uptake or heme synthesis; Potential operon (r value)=yfeABCD operon* (r > 0.…
#   2 Table 1     2 subheading=Iron uptake or heme synthesis; Potential operon (r value)=hmuRSTUV operon (r > 0.…
#   3 Table 1     3 subheading=Iron uptake or heme synthesis; Potential operon (r value)=ysuJIHG* (r > 0.95); Ge…
#   4 Table 1     4 subheading=Iron uptake or heme synthesis; Potential operon (r value)=sufABCDS* (r > 0.90); G…
#   5 Table 1     5 subheading=Iron uptake or heme synthesis; Potential operon (r value)=YPO1854-1856* (r > 0.97…
#   6 Table 1     6 subheading=Sulfur metabolism; Potential operon (r value)=tauABCD operon (r > 0.90); Gene ID=…
#   7 Table 1     7 subheading=Sulfur metabolism; Potential operon (r value)=ssuEADCB operon (r > 0.97); Gene ID…
#   8 Table 1     8 subheading=Sulfur metabolism; Potential operon (r value)=cys operon (r > 0.92); Gene ID=YPO3…
#   9 Table 1     9 subheading=Sulfur metabolism; Potential operon (r value)=YPO1317-1319 (r > 0.97); Gene ID=YP…
#  10 Table 1    10 subheading=Sulfur metabolism; Potential operon (r value)=YPO4109-4111 (r > 0.90); Gene ID=YP…
#  # … with 90 more rows
```
…
A few wrappers search pre-defined patterns and add an extra step to
expand matched ranges. `separate_refs` matches references within
brackets using `\\[[0-9, -]+\\]` and expands ranges like `[7-9]`.

``` r
separate_refs(txt)
#  # A tibble: 93 x 6
#        id match section   paragraph sentence text                                                              
#     <dbl> <chr> <chr>         <int>    <int> <chr>                                                             
#   1     1 [1]   Backgrou…         1        1 Yersinia pestis is the etiological agent of plague, alternatively…
#   2     2 [2]   Backgrou…         1        3 To produce a transmissible infection, Y. pestis colonizes the fle…
#   3     3 [3]   Backgrou…         1        9 However, a few bacilli are taken up by tissue macrophages, provid…
#   4     4 [4,5] Backgrou…         1       10 Residence in this niche also facilitates the bacteria's resistanc…
#   5     5 [4,5] Backgrou…         1       10 Residence in this niche also facilitates the bacteria's resistanc…
#   6     6 [6]   Backgrou…         2        1 A DNA microarray is able to determine simultaneous changes in all…
#   7     7 [7-9] Backgrou…         2        2 We and others have measured the gene expression profiles of Y. pe…
#   8     8 [7-9] Backgrou…         2        2 We and others have measured the gene expression profiles of Y. pe…
#   9     9 [7-9] Backgrou…         2        2 We and others have measured the gene expression profiles of Y. pe…
#  10    10 [10]  Backgrou…         2        2 We and others have measured the gene expression profiles of Y. pe…
#  # … with 83 more rows
```
…
`pmc_text` splits paragraphs into sentences and removes any tables,
figures or formulas that are nested within paragraph tags, replaces
superscripted references with brackets, adds carets and underscores to
other superscripts and subscripts and includes the full path to the
subsection title.

``` r
library(dplyr)
txt <- pmc_text(doc)
txt
#  # A tibble: 194 x 4
#     section    paragraph sentence text                                                               
#     <chr>          <int>    <int> <chr>                                                              
#   1 Title              1        1 Comparative transcriptomics in Yersinia pestis: a global view of e…
#   2 Abstract           1        1 Environmental modulation of gene expression in Yersinia pestis is …
#   3 Abstract           1        2 Using cDNA microarray technology, we have analyzed the global gene…
#   4 Abstract           2        1 To provide us with a comprehensive view of environmental modulatio…
#   5 Abstract           2        2 Almost all known virulence genes of Y. pestis were differentially …
#   6 Abstract           2        3 Clustering enabled us to functionally classify co-expressed genes,…
#   7 Abstract           2        4 Collections of operons were predicted from the microarray data, an…
#   8 Abstract           2        5 Several regulatory DNA motifs, probably recognized by the regulato…
#   9 Abstract           3        1 The comparative transcriptomics analysis we present here not only …
#  10 Background         1        1 Yersinia pestis is the etiological agent of plague, alternatively …
#  # … with 184 more rows
count(txt, section)
#  # A tibble: 21 x 2
#     section                                                  n
#     <chr>                                                <int>
#   1 Abstract                                                 8
#   2 Authors' contributions                                   6
#   3 Background                                              20
#   4 Conclusion                                               3
#   5 Methods; Clustering analysis                             7
#   6 Methods; Collection of microarray expression data       17
#   7 Methods; Discovery of regulatory DNA motifs              8
#   8 Methods; Gel mobility shift analysis of Fur binding     13
#   9 Methods; Operon prediction                               5
#  10 Methods; Verification of predicted operons by RT-PCR     7
#  # … with 11 more rows
```
…
`pmc_table` formats tables by collapsing multiline headers, expanding
rowspan and colspan attributes and adding subheadings into a new column.

``` r
tab1 <- pmc_table(doc)
#  Parsing 4 tables
#  Adding footnotes to Table 1
sapply(tab1, nrow)
#  Table 1 Table 2 Table 3 Table 4 
#       39      23       4      34
tab1[[1]]
#  # A tibble: 39 x 5
#     subheading           `Potential operon (r … `Gene ID`  `Putative or predicted fu… `Reference (s)`
#     <chr>                <chr>                  <chr>      <chr>                      <chr>          
#   1 Iron uptake or heme… yfeABCD operon* (r > … YPO2439-2… Transport/binding chelate… yfeABCD [54]   
#   2 Iron uptake or heme… hmuRSTUV operon (r > … YPO0279-0… Transport/binding hemin    hmuRSTUV [55]  
#   3 Iron uptake or heme… ysuJIHG* (r > 0.95)    YPO1529-1… Iron uptake                -              
#   4 Iron uptake or heme… sufABCDS* (r > 0.90)   YPO2400-2… Iron-regulated Fe-S clust… -              
#   5 Iron uptake or heme… YPO1854-1856* (r > 0.… YPO1854-1… Iron uptake or heme synth… -              
#   6 Sulfur metabolism    tauABCD operon (r > 0… YPO0182-0… Transport/binding taurine  tauABCD [56]   
#   7 Sulfur metabolism    ssuEADCB operon (r > … YPO3623-3… Sulphur metabolism         ssu operon [57]
#   8 Sulfur metabolism    cys operon (r > 0.92)  YPO3010-3… Cysteine synthesis         -              
#   9 Sulfur metabolism    YPO1317-1319 (r > 0.9… YPO1317-1… Sulfur metabolism?         -              
#  10 Sulfur metabolism    YPO4109-4111 (r > 0.9… YPO4109-4… Sulfur metabolism?         -              
#  # … with 29 more rows
```
…
Use `collapse_rows` to join column names and cell values in a semi-colon
delimited string (and then search using functions in the next section).

``` r
collapse_rows(tab1, na.string="-")
#  # A tibble: 100 x 3
#     table     row text                                                                               
#     <chr>   <int> <chr>                                                                              
#   1 Table 1     1 subheading=Iron uptake or heme synthesis; Potential operon (r value)=yfeABCD opero…
#   2 Table 1     2 subheading=Iron uptake or heme synthesis; Potential operon (r value)=hmuRSTUV oper…
#   3 Table 1     3 subheading=Iron uptake or heme synthesis; Potential operon (r value)=ysuJIHG* (r >…
#   4 Table 1     4 subheading=Iron uptake or heme synthesis; Potential operon (r value)=sufABCDS* (r …
#   5 Table 1     5 subheading=Iron uptake or heme synthesis; Potential operon (r value)=YPO1854-1856*…
#   6 Table 1     6 subheading=Sulfur metabolism; Potential operon (r value)=tauABCD operon (r > 0.90)…
#   7 Table 1     7 subheading=Sulfur metabolism; Potential operon (r value)=ssuEADCB operon (r > 0.97…
#   8 Table 1     8 subheading=Sulfur metabolism; Potential operon (r value)=cys operon (r > 0.92); Ge…
#   9 Table 1     9 subheading=Sulfur metabolism; Potential operon (r value)=YPO1317-1319 (r > 0.97); …
#  10 Table 1    10 subheading=Sulfur metabolism; Potential operon (r value)=YPO4109-4111 (r > 0.90); …
#  # … with 90 more rows
```

`pmc_reference` extracts the id, pmid, authors, year, title, journal,
volume, pages, and DOIs from reference tags.

``` r
ref1 <- pmc_reference(doc)
#  Found 76 citation tags
ref1
#  # A tibble: 76 x 9
#        id pmid   authors                  year title                 journal   volume pages doi      
#     <int> <chr>  <chr>                   <int> <chr>                 <chr>     <chr>  <chr> <chr>    
#   1     1 89938… Perry RD, Fetherston JD  1997 Yersinia pestis--eti… Clin Mic… 10     35-66 <NA>     
#   2     2 16053… Hinnebusch BJ            2005 The evolution of fle… Curr Iss… 7      197-… <NA>     
#   3     3 64693… Straley SC, Harmon PA    1984 Yersinia pestis grow… Infect I… 45     655-… <NA>     
#   4     4 15557… Huang XZ, Lindler LE     2004 The pH 6 antigen is … Infect I… 72     7212… 10.1128/…
#   5     5 15721… Pujol C, Bliska JB       2005 Turning Yersinia pat… Clin Imm… 114    216-… 10.1016/…
#   6     6 12732… Rhodius VA, LaRossa RA   2003 Uses and pitfalls of… Curr Opi… 6      114-… 10.1016/…
#   7     7 15342… Motin VL, Georgescu AM…  2004 Temporal global chan… J Bacter… 186    6298… 10.1128/…
#   8     8 15557… Han Y, Zhou D, Pang X,…  2004 Microarray analysis … Microbio… 48     791-… <NA>     
#   9     9 15777… Han Y, Zhou D, Pang X,…  2005 DNA microarray analy… Microbes… 7      335-… 10.1016/…
#  10    10 15808… Han Y, Zhou D, Pang X,…  2005 Comparative transcri… Res Micr… 156    403-… 10.1016/…
#  # … with 66 more rows
```
…
A few wrappers search pre-defined patterns and add an extra step to
expand matched ranges. `separate_refs` matches references within
brackets using `\\[[0-9, -]+\\]` and expands ranges like `[7-9]`.

``` r
x <- separate_refs(txt)
x
#  # A tibble: 93 x 6
#        id match section   paragraph sentence text                                                    
#     <dbl> <chr> <chr>         <int>    <int> <chr>                                                   
#   1     1 [1]   Backgrou…         1        1 Yersinia pestis is the etiological agent of plague, alt…
#   2     2 [2]   Backgrou…         1        3 To produce a transmissible infection, Y. pestis coloniz…
#   3     3 [3]   Backgrou…         1        9 However, a few bacilli are taken up by tissue macrophag…
#   4     4 [4,5] Backgrou…         1       10 Residence in this niche also facilitates the bacteria's…
#   5     5 [4,5] Backgrou…         1       10 Residence in this niche also facilitates the bacteria's…
#   6     6 [6]   Backgrou…         2        1 A DNA microarray is able to determine simultaneous chan…
#   7     7 [7-9] Backgrou…         2        2 We and others have measured the gene expression profile…
#   8     8 [7-9] Backgrou…         2        2 We and others have measured the gene expression profile…
#   9     9 [7-9] Backgrou…         2        2 We and others have measured the gene expression profile…
#  10    10 [10]  Backgrou…         2        2 We and others have measured the gene expression profile…
#  # … with 83 more rows
…
