…
    #> [1] 518 518
    #> [1] "2,019,513"

During the specified time period there were just over 2 million trips
between 518 bicycle docking stations. Note that the associated databases
can be very large, particularly in the absence of `dates` restrictions,
and extracting these data can take quite some time.

Data can also be aggregated as daily time series with

``` r
bike_daily_trips (bikedb = 'bikedb')
```

    #> # A tibble: 87 x 2
    #>    date       numtrips
    #>    <chr>         <dbl>
    #>  1 2016-01-01    11172
    #>  2 2016-01-02    14794
    #>  3 2016-01-03    15775
    #>  4 2016-01-04    19879
    #>  5 2016-01-05    18326
    #>  6 2016-01-06    24922
    #>  7 2016-01-07    28215
    #>  8 2016-01-08    29131
    #>  9 2016-01-08    21140
    #> 10 2016-01-10    14481
    #> # … with 77 more rows
…
