…
Congratulations\! You now have your own local copy of your chosen data
set. This particular example is fairly small (about 10MB), so it should
not take too long to download. Details of the files in this data set are
given in the `status$files` object:

``` r
status$files
## [[1]]
## # A tibble: 47 × 3
##    url                                file                               note   
##    <chr>                              <chr>                              <chr>  
##  1 http://results.aec.gov.au/20499/W… /tmp/data/results.aec.gov.au/2049… downlo…
##  2 http://results.aec.gov.au/20499/W… /tmp/data/results.aec.gov.au/2049… downlo…
##  3 http://results.aec.gov.au/20499/W… /tmp/data/results.aec.gov.au/2049… downlo…
##  4 http://results.aec.gov.au/20499/W… /tmp/data/results.aec.gov.au/2049… downlo…
##  5 http://results.aec.gov.au/20499/W… /tmp/data/results.aec.gov.au/2049… downlo…
##  6 http://results.aec.gov.au/20499/W… /tmp/data/results.aec.gov.au/2049… downlo…
##  7 http://results.aec.gov.au/20499/W… /tmp/data/results.aec.gov.au/2049… downlo…
##  8 http://results.aec.gov.au/20499/W… /tmp/data/results.aec.gov.au/2049… downlo…
##  9 http://results.aec.gov.au/20499/W… /tmp/data/results.aec.gov.au/2049… downlo…
## 10 http://results.aec.gov.au/20499/W… /tmp/data/results.aec.gov.au/2049… downlo…
## # … with 37 more rows
```
…
