…
```r
ch_generate('job', 'phone_number', n = 30)
#> # A tibble: 30 x 2
#>    job                                         phone_number      
#>    <chr>                                       <chr>             
#>  1 Armed forces training and education officer 1-673-556-2393x997
#>  2 Soil scientist                              1-296-630-3970    
#>  3 Optician, dispensing                        1-678-990-8871    
#>  4 Learning disability nurse                   461.171.6544      
#>  5 Editor, commissioning                       05011328685       
#>  6 Designer, exhibition/display                +26(6)2762788230  
#>  7 Financial risk analyst                      1-636-012-0957x508
#>  8 Scientist, biomedical                       719.524.4489      
#>  9 Teacher, English as a foreign language      +54(0)1232453568  
#> 10 Lecturer, higher education                  (853)580-9291x3186
#> # … with 20 more rows
```
…
