…
## Search Orcid

Get a list of names and Orcid IDs matching a name query


```r
orcid(query = "carl boettiger")
#> # A tibble: 1,000 x 3
#>    `orcid-identifier.uri`            `orcid-identifier.pa… `orcid-identifier.ho…
#>  * <chr>                             <chr>                 <chr>                
#>  1 https://orcid.org/0000-0002-1642… 0000-0002-1642-628X   orcid.org            
#>  2 https://orcid.org/0000-0002-5951… 0000-0002-5951-4503   orcid.org            
#>  3 https://orcid.org/0000-0002-3554… 0000-0002-3554-5196   orcid.org            
#>  4 https://orcid.org/0000-0003-1853… 0000-0003-1853-1574   orcid.org            
#>  5 https://orcid.org/0000-0002-7462… 0000-0002-7462-1956   orcid.org            
#>  6 https://orcid.org/0000-0002-7790… 0000-0002-7790-5102   orcid.org            
#>  7 https://orcid.org/0000-0003-1021… 0000-0003-1021-5374   orcid.org            
#>  8 https://orcid.org/0000-0001-8899… 0000-0001-8899-7850   orcid.org            
#>  9 https://orcid.org/0000-0001-7084… 0000-0001-7084-5402   orcid.org            
#> 10 https://orcid.org/0000-0003-0241… 0000-0003-0241-3557   orcid.org            
#> # … with 990 more rows
```

You can string together many search terms


```r
orcid(query = "johnson cardiology houston")
#> # A tibble: 1,000 x 3
#>    `orcid-identifier.uri`            `orcid-identifier.pa… `orcid-identifier.ho…
#>  * <chr>                             <chr>                 <chr>                
#>  1 https://orcid.org/0000-0002-0897… 0000-0002-0897-2301   orcid.org            
#>  2 https://orcid.org/0000-0002-5281… 0000-0002-5281-4466   orcid.org            
#>  3 https://orcid.org/0000-0001-8188… 0000-0001-8188-0078   orcid.org            
#>  4 https://orcid.org/0000-0002-2862… 0000-0002-2862-4160   orcid.org            
#>  5 https://orcid.org/0000-0002-0682… 0000-0002-0682-9982   orcid.org            
#>  6 https://orcid.org/0000-0002-4334… 0000-0002-4334-4001   orcid.org            
#>  7 https://orcid.org/0000-0002-6401… 0000-0002-6401-4597   orcid.org            
#>  8 https://orcid.org/0000-0003-4792… 0000-0003-4792-0149   orcid.org            
#>  9 https://orcid.org/0000-0001-9667… 0000-0001-9667-1615   orcid.org            
#> 10 https://orcid.org/0000-0003-0945… 0000-0003-0945-6138   orcid.org            
#> # … with 990 more rows
```
…
Function is vectorized, search for many DOIs


```r
dois <- c("10.1371/journal.pone.0025995","10.1371/journal.pone.0053712",
       "10.1371/journal.pone.0054608","10.1371/journal.pone.0055937")
res <- orcid_doi(dois = dois, fuzzy = TRUE)
res[[1]]
#> # A tibble: 1,000 x 3
#>    `orcid-identifier.uri`            `orcid-identifier.pa… `orcid-identifier.ho…
#>  * <chr>                             <chr>                 <chr>                
#>  1 https://orcid.org/0000-0002-0051… 0000-0002-0051-973X   orcid.org            
#>  2 https://orcid.org/0000-0001-7767… 0000-0001-7767-3500   orcid.org            
#>  3 https://orcid.org/0000-0001-6577… 0000-0001-6577-5526   orcid.org            
#>  4 https://orcid.org/0000-0001-9637… 0000-0001-9637-4127   orcid.org            
#>  5 https://orcid.org/0000-0002-3461… 0000-0002-3461-9990   orcid.org            
#>  6 https://orcid.org/0000-0002-0153… 0000-0002-0153-9708   orcid.org            
#>  7 https://orcid.org/0000-0003-1403… 0000-0003-1403-7093   orcid.org            
#>  8 https://orcid.org/0000-0002-5591… 0000-0002-5591-5721   orcid.org            
#>  9 https://orcid.org/0000-0003-0551… 0000-0003-0551-2550   orcid.org            
#> 10 https://orcid.org/0000-0003-4410… 0000-0003-4410-6539   orcid.org            
#> # … with 990 more rows
```
…
