…
Since we see that it has `gutenberg_id` 768, we can download it with the `gutenberg_download()` function:


```r
wuthering_heights <- gutenberg_download(768)
#>                                          768 
#> "http://aleph.gutenberg.org/7/6/768/768.zip"
wuthering_heights
#> # A tibble: 12,085 x 2
#>    gutenberg_id text                                                                     
#>           <int> <chr>                                                                    
#>  1          768 "WUTHERING HEIGHTS"                                                      
#>  2          768 ""                                                                       
#>  3          768 ""                                                                       
#>  4          768 "CHAPTER I"                                                              
#>  5          768 ""                                                                       
#>  6          768 ""                                                                       
#>  7          768 "1801.--I have just returned from a visit to my landlord--the solitary"  
#>  8          768 "neighbour that I shall be troubled with.  This is certainly a beautiful"
#>  9          768 "country!  In all England, I do not believe that I could have fixed on a"
#> 10          768 "situation so completely removed from the stir of society.  A perfect"   
#> # … with 12,075 more rows
```

`gutenberg_download` can download multiple books when given multiple IDs. It also takes a `meta_fields` argument that will add variables from the metadata.


```r
# 1260 is the ID of Jane Eyre
books <- gutenberg_download(c(768, 1260), meta_fields = "title")
#>                                              768                                             1260 
#>     "http://aleph.gutenberg.org/7/6/768/768.zip" "http://aleph.gutenberg.org/1/2/6/1260/1260.zip"
books
#> # A tibble: 32,744 x 3
#>    gutenberg_id text                                                                     
#>           <int> <chr>                                                                    
#>  1          768 "WUTHERING HEIGHTS"                                                      
#>  2          768 ""                                                                       
#>  3          768 ""                                                                       
#>  4          768 "CHAPTER I"                                                              
#>  5          768 ""                                                                       
#>  6          768 ""                                                                       
#>  7          768 "1801.--I have just returned from a visit to my landlord--the solitary"  
#>  8          768 "neighbour that I shall be troubled with.  This is certainly a beautiful"
#>  9          768 "country!  In all England, I do not believe that I could have fixed on a"
#> 10          768 "situation so completely removed from the stir of society.  A perfect"   
#>    title            
#>    <chr>            
#>  1 Wuthering Heights
#>  2 Wuthering Heights
#>  3 Wuthering Heights
#>  4 Wuthering Heights
#>  5 Wuthering Heights
#>  6 Wuthering Heights
#>  7 Wuthering Heights
#>  8 Wuthering Heights
#>  9 Wuthering Heights
#> 10 Wuthering Heights
#> # … with 32,734 more rows
…
aristotle_books
#> # A tibble: 39,950 x 3
#>    gutenberg_id text                                                                    
#>           <int> <chr>                                                                   
#>  1         1974 "THE POETICS OF ARISTOTLE"                                              
#>  2         1974 ""                                                                      
#>  3         1974 "By Aristotle"                                                          
#>  4         1974 ""                                                                      
#>  5         1974 "A Translation By S. H. Butcher"                                        
#>  6         1974 ""                                                                      
#>  7         1974 ""                                                                      
#>  8         1974 "[Transcriber's Annotations and Conventions: the translator left"       
#>  9         1974 "intact some Greek words to illustrate a specific point of the original"
#> 10         1974 "discourse. In this transcription, in order to retain the accuracy of"  
#>    title                   
#>    <chr>                   
#>  1 The Poetics of Aristotle
#>  2 The Poetics of Aristotle
#>  3 The Poetics of Aristotle
#>  4 The Poetics of Aristotle
#>  5 The Poetics of Aristotle
#>  6 The Poetics of Aristotle
#>  7 The Poetics of Aristotle
#>  8 The Poetics of Aristotle
#>  9 The Poetics of Aristotle
#> 10 The Poetics of Aristotle
#> # … with 39,940 more rows
```
…
