…
</p>
</details>
<details>
<summary>
Data: <b>c14</b>
</summary>
<p>

``` r
c14 
```

    ## # A tibble: 393 × 5
    ##       id        x       y     z period
    ##    <int>    <dbl>   <dbl> <int> <chr> 
    ##  1     1 1284303. 450340.  1920 EIA   
    ##  2     2 1101276. 321798.  2340 EIA   
    ##  3     3 1101276. 321798.  2520 LSA   
    ##  4     4 1093159. 264311.  2000 <NA>  
    ##  5     5 1132077. 340034.  1670 <NA>  
    ##  6     6 1101276. 321798.  2200 <NA>  
    ##  7     7 1101276. 321798.  2030 <NA>  
    ##  8     8 1101276. 321798.  1760 EIA   
    ##  9     9 1093159. 264311.  1710 <NA>  
    ## 10    10 1093159. 264311.  1940 <NA>  
    ## # … with 383 more rows
…
