…
choose a wikipedia language


```r
# French
wt_wikipedia(name = "Malus domestica", wiki = "fr")
#> $langlinks
#> # A tibble: 60 x 5
#>    lang   url                                   langname   autonym    `*`       
#>    <chr>  <chr>                                 <chr>      <chr>      <chr>     
#>  1 als    https://als.wikipedia.org/wiki/Kultu… Alemannis… Alemannis… Kulturapf…
#>  2 am     https://am.wikipedia.org/wiki/%E1%89… amharique  አማርኛ       ቱፋሕ       
#>  3 ast    https://ast.wikipedia.org/wiki/Malus… asturien   asturianu  Malus dom…
#>  4 az     https://az.wikipedia.org/wiki/M%C9%9… azéri      azərbayca… Mədəni al…
#>  5 bat-s… https://bat-smg.wikipedia.org/wiki/V… Samogitian žemaitėška Vuobelės  
#>  6 bg     https://bg.wikipedia.org/wiki/%D0%94… bulgare    български  Домашна я…
#>  7 bpy    https://bpy.wikipedia.org/wiki/%E0%A… bishnupri… বিষ্ণুপ্র…    আপেল      
#>  8 ca     https://ca.wikipedia.org/wiki/Pomera… catalan    català     Pomera co…
#>  9 cs     https://cs.wikipedia.org/wiki/Jablo%… tchèque    čeština    Jabloň do…
#> 10 csb    https://csb.wikipedia.org/wiki/Dom%C… kachoube   kaszëbsczi Domôcô ja…
#> # … with 50 more rows
…
#> $common_names
#> # A tibble: 1 x 2
#>   name               language
#>   <chr>              <chr>   
#> 1 Pommier domestique fr      
#> 
#> $classification
#> # A tibble: 0 x 0
#> 
#> $synonyms
#> list()
# Slovak
wt_wikipedia(name = "Malus domestica", wiki = "sk")
#> $langlinks
#> # A tibble: 60 x 5
#>    lang   url                               langname        autonym    `*`      
#>    <chr>  <chr>                             <chr>           <chr>      <chr>    
#>  1 als    https://als.wikipedia.org/wiki/K… Alemannisch     Alemannis… Kulturap…
#>  2 am     https://am.wikipedia.org/wiki/%E… amharčina       አማርኛ       ቱፋሕ      
#>  3 ast    https://ast.wikipedia.org/wiki/M… astúrčina       asturianu  Malus do…
#>  4 az     https://az.wikipedia.org/wiki/M%… azerbajdžančina azərbayca… Mədəni a…
#>  5 bat-s… https://bat-smg.wikipedia.org/wi… Samogitian      žemaitėška Vuobelės 
#>  6 bg     https://bg.wikipedia.org/wiki/%D… bulharčina      български  Домашна …
#>  7 bpy    https://bpy.wikipedia.org/wiki/%… bišnuprijskoma… বিষ্ণুপ্র…    আপেল     
#>  8 ca     https://ca.wikipedia.org/wiki/Po… katalánčina     català     Pomera c…
#>  9 cs     https://cs.wikipedia.org/wiki/Ja… čeština         čeština    Jabloň d…
#> 10 csb    https://csb.wikipedia.org/wiki/D… kašubčina       kaszëbsczi Domôcô j…
#> # … with 50 more rows
…
#> $common_names
#> # A tibble: 1 x 2
#>   name          language
#>   <chr>         <chr>   
#> 1 Jabloň domáca sk      
#> 
#> $classification
#> # A tibble: 0 x 0
#> 
#> $synonyms
#> list()
# Vietnamese
wt_wikipedia(name = "Malus domestica", wiki = "vi")
#> $langlinks
#> # A tibble: 60 x 5
#>    lang     url                                 langname    autonym   `*`       
#>    <chr>    <chr>                               <chr>       <chr>     <chr>     
#>  1 als      https://als.wikipedia.org/wiki/Kul… Alemannisch Alemanni… Kulturapf…
#>  2 am       https://am.wikipedia.org/wiki/%E1%… Tiếng Amha… አማርኛ      ቱፋሕ       
#>  3 ast      https://ast.wikipedia.org/wiki/Mal… Tiếng Astu… asturianu Malus dom…
#>  4 az       https://az.wikipedia.org/wiki/M%C9… Tiếng Azer… azərbayc… Mədəni al…
#>  5 zh-min-… https://zh-min-nan.wikipedia.org/w… Chinese (M… Bân-lâm-… Phōng-kó-…
#>  6 bg       https://bg.wikipedia.org/wiki/%D0%… Tiếng Bulg… български Домашна я…
#>  7 ca       https://ca.wikipedia.org/wiki/Pome… Tiếng Cata… català    Pomera co…
#>  8 cs       https://cs.wikipedia.org/wiki/Jabl… Tiếng Séc   čeština   Jabloň do…
#>  9 da       https://da.wikipedia.org/wiki/Almi… Tiếng Đan … dansk     Almindeli…
#> 10 de       https://de.wikipedia.org/wiki/Kult… Tiếng Đức   Deutsch   Kulturapf…
#> # … with 50 more rows
…
res <- wt_wikispecies("Malus domestica")
res$classification
#> # A tibble: 8 x 2
#>   rank        name         
#>   <chr>       <chr>        
#> 1 Superregnum Eukaryota    
#> 2 Regnum      Plantae      
#> 3 Cladus      Angiosperms  
#> 4 Cladus      Eudicots     
#> 5 Cladus      Core eudicots
#> 6 Cladus      Rosids       
#> 7 Cladus      Eurosids I   
#> 8 Ordo        Rosales
res$common_names
#> # A tibble: 22 x 2
#>    name          language  
#>    <chr>         <chr>     
#>  1 Ябълка        български 
#>  2 Poma, pomera  català    
#>  3 jabloň domácí čeština   
#>  4 Apfel         Deutsch   
#>  5 Μηλιά         Ελληνικά  
#>  6 Apple         English   
#>  7 Manzano       español   
#>  8 Aed-õunapuu   eesti     
#>  9 Tarhaomenapuu suomi     
#> 10 Aapel         Nordfriisk
#> # … with 12 more rows
```
…
