…
philoctetes <- perseus_catalog %>% 
  filter(group_name == "Sophocles",
         label == "Philoctetes",
         language == "grc") %>% 
  pull(urn) %>%
  get_perseus_text()

philoctetes %>% 
  unnest_tokens(word, text) %>% 
  count(word, sort = TRUE) %>% 
  anti_join(greek_stop_words)
#> Joining, by = "word"
#> # A tibble: 3,514 x 2
#>           word     n
#>          <chr> <int>
#>  1 νεοπτόλεμος   164
#>  2  φιλοκτήτης   141
#>  3           ὦ   119
#>  4          μʼ    74
#>  5    ὀδυσσεύς    56
#>  6      τέκνον    47
#>  7          τʼ    43
#>  8       χορός    41
#>  9          γʼ    40
#> 10         νῦν    39
#> # ... with 3,504 more rows
```
…
