…
``` r
library(citesdb)
library(dplyr)

start <- Sys.time()

cites_shipments() %>%
  group_by(Year) %>%
  summarize(n_records = n()) %>%
  arrange(desc(Year)) %>%
  collect()
#> # A tibble: 45 x 2
#>     Year n_records
#>    <int>     <dbl>
#>  1  2019     12610
#>  2  2018   1143044
#>  3  2017   1246684
#>  4  2016   1293178
#>  5  2015   1299183
#>  6  2014   1109877
#>  7  2013   1127377
#>  8  2012   1096664
#>  9  2011    950148
#> 10  2010    894115
#> # … with 35 more rows
…
