…
### Real-time

To download real-time data using the datamart we can use approximately
the same conventions discussed above. Using `realtime_dd()` we can
easily select specific stations by supplying a station of interest:

    realtime_dd(station_number = "08LG006")
    #>   Queried on: 2021-12-16 18:51:26 (UTC)
    #>   Date range: 2021-11-15 to 2021-11-15 
    #> # A tibble: 248 x 8
    #>    STATION_NUMBER PROV_TERR_STATE_LOC Date                Parameter Value Grade
    #>    <chr>          <chr>               <dttm>              <chr>     <dbl> <chr>
    #>  1 08LG006        BC                  2021-11-15 08:00:00 Flow        162 <NA> 
    #>  2 08LG006        BC                  2021-11-15 08:05:00 Flow        164 <NA> 
    #>  3 08LG006        BC                  2021-11-15 08:10:00 Flow        165 <NA> 
    #>  4 08LG006        BC                  2021-11-15 08:15:00 Flow        167 <NA> 
    #>  5 08LG006        BC                  2021-11-15 08:20:00 Flow        169 <NA> 
    #>  6 08LG006        BC                  2021-11-15 08:25:00 Flow        171 <NA> 
    #>  7 08LG006        BC                  2021-11-15 08:30:00 Flow        172 <NA> 
    #>  8 08LG006        BC                  2021-11-15 08:35:00 Flow        174 <NA> 
    #>  9 08LG006        BC                  2021-11-15 08:40:00 Flow        174 <NA> 
    #> 10 08LG006        BC                  2021-11-15 08:45:00 Flow        176 <NA> 
    #> # ... with 238 more rows, and 2 more variables: Symbol <chr>, Code <chr>
…
This data structure clearly violates the principles of tidy data - this is messy data. For example, column headers (e.g. `FLOW1`) contain the day number - a value. HYDAT is structured like this for very reasonable historical reasons. It does, however, significantly limit a hydrologists ability to efficiently use hydrometric data. 

`tidyhydat` aims to make interacting with WSC data sources simpler. I have applied tidy data principles so that users can avoid thinking about the basic data process of importing and tidying and focus on the iterative process of visualizing and modelling their data [@wickham2016r]. After loading `tidyhydat` itself, we simply need to supply a `station_number` argument to the `hy_daily_flows()` function:


```r
library(tidyhydat)
hy_daily_flows(station_number = "08MF005")
```

```
## # A tibble: 37,561 x 5
##    STATION_NUMBER       Date Parameter Value Symbol
##             <chr>     <date>     <chr> <dbl>  <chr>
##  1        08MF005 1912-03-01      FLOW   538   <NA>
##  2        08MF005 1912-03-02      FLOW   538   <NA>
##  3        08MF005 1912-03-03      FLOW   538   <NA>
##  4        08MF005 1912-03-04      FLOW   538   <NA>
##  5        08MF005 1912-03-05      FLOW   538   <NA>
##  6        08MF005 1912-03-06      FLOW   538   <NA>
##  7        08MF005 1912-03-07      FLOW   479   <NA>
##  8        08MF005 1912-03-08      FLOW   479   <NA>
##  9        08MF005 1912-03-09      FLOW   459   <NA>
## 10        08MF005 1912-03-10      FLOW   459   <NA>
## # ... with 37,551 more rows
```
…
