…
To visualise the data we need to tidy it up so that we can group by S, E, I and R.

.. code-block:: R

   > results <- results %>%
        pivot_longer(c("S", "E", "I", "R"),
        names_to = "stage", values_to = "count")
   > print(results)
   # A tibble: 304 x 8
      fingerprint repeat.   day date          IW SCALE_UV stage count
      <chr>         <int> <int> <chr>      <int>    <dbl> <chr> <int>
    1 REPEAT            1     0 2020-07-20     0        1 S     10000
    2 REPEAT            1     0 2020-07-20     0        1 E         0
    3 REPEAT            1     0 2020-07-20     0        1 I         0
    4 REPEAT            1     0 2020-07-20     0        1 R         0
    5 REPEAT            1     1 2020-07-21     1        1 S      9900
    6 REPEAT            1     1 2020-07-21     1        1 E        57
    7 REPEAT            1     1 2020-07-21     1        1 I        43
    8 REPEAT            1     1 2020-07-21     1        1 R         0
    9 REPEAT            1     2 2020-07-22     1        1 S      9859
   10 REPEAT            1     2 2020-07-22     1        1 E        66
   #  with 294 more rows
…
