…
            ... and so on for each data source

```

If you only request data from gbif, like `from = 'gbif'`, then the other four source slots are present in the response object, but have no data.

You can quickly get just the GBIF data by indexing to it, like


```r
df$gbif
#> Species [Accipiter striatus (500)] 
#> First 10 rows of [Accipiter_striatus]
#> 
#> # A tibble: 500 x 83
#>    name  longitude latitude prov  issues key   scientificName datasetKey
#>    <chr>     <dbl>    <dbl> <chr> <chr>  <chr> <chr>          <chr>     
#>  1 Acci…    -107.      35.1 gbif  cdrou… 2542… Accipiter str… 50c9509d-…
#>  2 Acci…     -90.0     37.1 gbif  cdrou… 2543… Accipiter str… 50c9509d-…
#>  3 Acci…     -99.3     36.5 gbif  cdrou… 2543… Accipiter str… 50c9509d-…
#>  4 Acci…     -76.0     39.6 gbif  cdrou… 2543… Accipiter str… 50c9509d-…
#>  5 Acci…     -73.5     40.7 gbif  gass8… 2543… Accipiter str… 50c9509d-…
#>  6 Acci…    -118.      34.6 gbif  cdrou… 2549… Accipiter str… 50c9509d-…
#>  7 Acci…    -121.      36.6 gbif  cdrou… 2550… Accipiter str… 50c9509d-…
#>  8 Acci…     -97.3     27.6 gbif  cdrou… 2550… Accipiter str… 50c9509d-…
#>  9 Acci…     -88.9     30.5 gbif  cdrou… 2550… Accipiter str… 50c9509d-…
#> 10 Acci…     -96.9     33.1 gbif  cdrou… 2550… Accipiter str… 50c9509d-…
#> # … with 490 more rows, and 75 more variables: publishingOrgKey <chr>,
#> #   installationKey <chr>, publishingCountry <chr>, protocol <chr>,
#> #   lastCrawled <chr>, lastParsed <chr>, crawlId <int>,
#> #   hostingOrganizationKey <chr>, basisOfRecord <chr>, occurrenceStatus <chr>,
#> #   taxonKey <int>, kingdomKey <int>, phylumKey <int>, classKey <int>,
#> #   orderKey <int>, familyKey <int>, genusKey <int>, speciesKey <int>,
#> #   acceptedTaxonKey <int>, acceptedScientificName <chr>, kingdom <chr>,
#> #   phylum <chr>, order <chr>, family <chr>, genus <chr>, species <chr>,
#> #   genericName <chr>, specificEpithet <chr>, taxonRank <chr>,
…
When you get data from multiple providers, the fields returned are slightly different because each data provider uses different formats for their data; different arrangements of data and different variable names for the same thing (e.g., one data provider may call latitude "latitude", while another may call it "lat"). For example:


```r
df <- occ(query = 'Accipiter striatus', from = c('gbif', 'bison'), limit = 25)
df$gbif$data$Accipiter_striatus
#> # A tibble: 25 x 74
#>    name  longitude latitude issues prov  key   scientificName datasetKey
#>    <chr>     <dbl>    <dbl> <chr>  <chr> <chr> <chr>          <chr>     
#>  1 Acci…    -107.      35.1 cdrou… gbif  2542… Accipiter str… 50c9509d-…
#>  2 Acci…     -90.0     37.1 cdrou… gbif  2543… Accipiter str… 50c9509d-…
#>  3 Acci…     -99.3     36.5 cdrou… gbif  2543… Accipiter str… 50c9509d-…
#>  4 Acci…     -76.0     39.6 cdrou… gbif  2543… Accipiter str… 50c9509d-…
#>  5 Acci…     -73.5     40.7 gass8… gbif  2543… Accipiter str… 50c9509d-…
#>  6 Acci…    -118.      34.6 cdrou… gbif  2549… Accipiter str… 50c9509d-…
#>  7 Acci…    -121.      36.6 cdrou… gbif  2550… Accipiter str… 50c9509d-…
#>  8 Acci…     -97.3     27.6 cdrou… gbif  2550… Accipiter str… 50c9509d-…
#>  9 Acci…     -88.9     30.5 cdrou… gbif  2550… Accipiter str… 50c9509d-…
#> 10 Acci…     -96.9     33.1 cdrou… gbif  2550… Accipiter str… 50c9509d-…
#> # … with 15 more rows, and 66 more variables: publishingOrgKey <chr>,
#> #   installationKey <chr>, publishingCountry <chr>, protocol <chr>,
#> #   lastCrawled <chr>, lastParsed <chr>, crawlId <int>,
#> #   hostingOrganizationKey <chr>, basisOfRecord <chr>, occurrenceStatus <chr>,
#> #   taxonKey <int>, kingdomKey <int>, phylumKey <int>, classKey <int>,
#> #   orderKey <int>, familyKey <int>, genusKey <int>, speciesKey <int>,
#> #   acceptedTaxonKey <int>, acceptedScientificName <chr>, kingdom <chr>,
#> #   phylum <chr>, order <chr>, family <chr>, genus <chr>, species <chr>,
#> #   genericName <chr>, specificEpithet <chr>, taxonRank <chr>,
#> #   taxonomicStatus <chr>, dateIdentified <chr>,
#> #   coordinateUncertaintyInMeters <dbl>, stateProvince <chr>, year <int>,
#> #   month <int>, day <int>, eventDate <date>, modified <chr>,
#> #   lastInterpreted <chr>, references <chr>, license <chr>, isInCluster <lgl>,
#> #   geodeticDatum <chr>, class <chr>, countryCode <chr>, country <chr>,
#> #   rightsHolder <chr>, identifier <chr>, `http://unknown.org/nick` <chr>,
#> #   verbatimEventDate <chr>, datasetName <chr>, gbifID <chr>,
#> #   verbatimLocality <chr>, collectionCode <chr>, occurrenceID <chr>,
#> #   taxonID <chr>, catalogNumber <chr>, recordedBy <chr>,
#> #   `http://unknown.org/occurrenceDetails` <chr>, institutionCode <chr>,
#> #   rights <chr>, eventTime <chr>, identifiedBy <chr>, identificationID <chr>,
#> #   informationWithheld <chr>, occurrenceRemarks <chr>
df$bison$data$Accipiter_striatus
#> # A tibble: 25 x 35
#>    date       providedScienti…  year countryCode ambiguous latlon
#>    <date>     <chr>            <int> <chr>       <lgl>     <chr> 
#>  1 2001-10-10 Accipiter stria…  2001 US          FALSE     -83.2…
#>  2 1980-09-21 Accipiter stria…  1980 US          FALSE     -75.7…
#>  3 1980-10-04 Accipiter stria…  1980 US          FALSE     -75.7…
#>  4 1966-10-13 Accipiter stria…  1966 US          FALSE     -75.9…
#>  5 1987-10-10 Accipiter stria…  1987 US          FALSE     -74.2…
#>  6 1990-10-03 Accipiter stria…  1990 US          FALSE     -75.7…
#>  7 1994-10-05 Accipiter stria…  1994 US          FALSE     -75.7…
#>  8 1976-09-18 Accipiter stria…  1976 US          FALSE     -75.7…
#>  9 1979-10-07 Accipiter stria…  1979 US          FALSE     -75.7…
#> 10 1980-10-01 Accipiter stria…  1980 US          FALSE     -75.7…
#> # … with 15 more rows, and 29 more variables: computedCountyFips <chr>,
#> #   occurrenceID <chr>, longitude <dbl>, basisOfRecord <chr>,
#> #   providedCommonName <chr>, collectionID <chr>,
#> #   ownerInstitutionCollectionCode <chr>, name <chr>, institutionID <chr>,
#> #   computedStateFips <chr>, license <chr>, TSNs <chr>, providerID <int>,
#> #   stateProvince <chr>, higherGeographyID <chr>, latitude <dbl>, geo <chr>,
#> #   provider <chr>, calculatedCounty <chr>, ITISscientificName <chr>,
#> #   pointPath <chr>, kingdom <chr>, calculatedState <chr>,
#> #   hierarchy_homonym_string <chr>, centroid <chr>, ITIScommonName <chr>,
#> #   resourceID <chr>, ITIStsn <chr>, prov <chr>
```

We provide a function `occ2df` that pulls out a few key columns needed for making maps:


```r
occ2df(df)
#> # A tibble: 50 x 6
#>    name                            longitude latitude prov  date       key      
#>    <chr>                               <dbl>    <dbl> <chr> <date>     <chr>    
#>  1 Accipiter striatus Vieillot, 1…    -107.      35.1 gbif  2020-01-02 25429665…
#>  2 Accipiter striatus Vieillot, 1…     -90.0     37.1 gbif  2020-01-01 25430843…
#>  3 Accipiter striatus Vieillot, 1…     -99.3     36.5 gbif  2020-01-01 25430853…
#>  4 Accipiter striatus Vieillot, 1…     -76.0     39.6 gbif  2020-01-01 25430927…
#>  5 Accipiter striatus Vieillot, 1…     -73.5     40.7 gbif  2020-01-01 25430953…
#>  6 Accipiter striatus Vieillot, 1…    -118.      34.6 gbif  2020-01-03 25499936…
#>  7 Accipiter striatus Vieillot, 1…    -121.      36.6 gbif  2020-01-04 25500018…
#>  8 Accipiter striatus Vieillot, 1…     -97.3     27.6 gbif  2020-01-04 25500046…
#>  9 Accipiter striatus Vieillot, 1…     -88.9     30.5 gbif  2020-01-04 25500173…
#> 10 Accipiter striatus Vieillot, 1…     -96.9     33.1 gbif  2020-01-05 25500177…
#> # … with 40 more rows
```
…
