…
This only download data to your machine - it does not read it into R.
You can now move on to importing into R.

## Import data into R

Pass the output of `occ_download_get` directly to `occ_download_import` -
they can be piped together if you like.


```r
occ_download_get("0000796-171109162308116") %>% occ_download_import()
# OR
dat <- occ_download_get("0000796-171109162308116")
occ_download_import(dat)
#> # A tibble: 1,425 x 235
#>        gbifID abstract accessRights accrualMethod accrualPeriodicity
#>         <int>    <lgl>        <chr>         <lgl>              <lgl>
#>  1 1667184715       NA                         NA                 NA
#>  2 1667182218       NA                         NA                 NA
#>  3 1667179996       NA                         NA                 NA
#>  4 1667179527       NA                         NA                 NA
#>  5 1667171607       NA                         NA                 NA
#>  6 1667165448       NA                         NA                 NA
#>  7 1667163154       NA                         NA                 NA
#>  8 1667162324       NA                         NA                 NA
#>  9 1667162162       NA                         NA                 NA
#> 10 1667161552       NA                         NA                 NA
#> # ... with 1,415 more rows, and 230 more variables: accrualPolicy <lgl>,
#> #   alternative <lgl>, audience <lgl>, available <lgl>,
#> #   bibliographicCitation <lgl>, conformsTo <lgl>, contributor <lgl>,
#> #   coverage <lgl>, created <lgl>, creator <lgl>, date <lgl>,
#> #   dateAccepted <lgl>, dateCopyrighted <lgl>, dateSubmitted <lgl>,
#> #   description <lgl>, educationLevel <lgl>, extent <lgl>, format <lgl>,
#> #   hasFormat <lgl>, hasPart <lgl>, hasVersion <lgl>, identifier <chr>,
…
```r
out$names[2]
#> $<NA>
#> NULL
```

Search for a genus


```r
z <- name_lookup(query='Cnaemidophorus', rank="genus")
z$data
#> # A tibble: 28 x 37
#>        key scientificName datasetKey      nubKey parentKey parent kingdom phylum
#>      <int> <chr>          <chr>            <int>     <int> <chr>  <chr>   <chr> 
#>  1  1.59e8 Cnaemidophorus 23905003-5ee5… 1858636 159439401 Ptero… Animal… Arthr…
#>  2  1.58e8 Cnaemidophorus 4cec8fef-f129… 1858636 157904443 Ptero… Animal… Arthr…
#>  3  1.69e8 Cnaemidophorus 4b3e4a71-704a… 1858636 168525701 Ptero… Animal… Arthr…
#>  4  1.83e8 Cnaemidophorus 848271aa-6a4f… 1858636 182646345 Lepid… Animal… <NA>  
#>  5  1.24e8 Cnaemidophorus fab88965-e69d…      NA 104446806 Ptero… Metazoa Arthr…
#>  6  1.78e8 Cnaemidophorus 6b6b2923-0a10… 1858636 177881660 Ptero… Metazoa Arthr…
#>  7  1.82e8 Cnaemidophorus 16c3f9cb-4b19… 1858636 100557623 Ptero… <NA>    <NA>  
#>  8  1.82e8 Cnaemidophorus cbb6498e-8927… 1858636 182338678 Ptero… Animal… Arthr…
#>  9  1.83e8 Cnaemidophorus 4dd32523-a3a3… 1858636 182545750 Ptero… Animal… Arthr…
#> 10  1.80e8 Cnaemidophorus dbaa27eb-29e7… 1858636    161750 Ptero… Animal… <NA>  
#> # … with 18 more rows, and 29 more variables: order <chr>, family <chr>,
#> #   genus <chr>, kingdomKey <int>, phylumKey <int>, classKey <int>,
#> #   orderKey <int>, familyKey <int>, genusKey <int>, canonicalName <chr>,
#> #   authorship <chr>, nameType <chr>, taxonomicStatus <chr>, rank <chr>,
#> #   origin <chr>, numDescendants <int>, numOccurrences <int>, habitats <chr>,
#> #   nomenclaturalStatus <chr>, threatStatuses <chr>, synonym <lgl>,
#> #   class <chr>, taxonID <chr>, acceptedKey <int>, accepted <chr>,
#> #   constituentKey <chr>, publishedIn <chr>, extinct <lgl>, accordingTo <chr>
```

Search for the class mammalia


```r
w <- name_lookup(query='mammalia')
w$data
#> # A tibble: 100 x 26
#>        key scientificName datasetKey      nubKey parentKey parent kingdom phylum
#>      <int> <chr>          <chr>            <int>     <int> <chr>  <chr>   <chr> 
#>  1  1.60e8 Mammalia       677a9818-ca48-…    359 159534408 Chord… Animal… Chord…
#>  2  1.77e8 Mammalia       a364ceb5-1864-…    359 176575081 Chord… Animal… Chord…
#>  3  1.47e8 Mammalia       a4e57579-9638-…    359 147439639 Chord… Animal… Chord…
#>  4  1.47e8 Mammalia       be44f76b-73cf-…    359 147440318 Chord… Animal… Chord…
#>  5  1.64e8 Mammalia       c383b17f-e3bc-…    359 164285181 Chord… Animal… Chord…
#>  6  1.64e8 Mammalia       00e791be-36ae-…    359 164302487 Chord… Animal… Chord…
#>  7  1.68e8 Mammalia       6b64ef7e-82f7-…    359 168337497 Chord… Animal… Chord…
#>  8  1.76e8 Mammalia       cd8ba8a5-8504-…    359 176085130 Chord… Animal… Chord…
#>  9  1.77e8 Mammalia       8901e0e4-c1b9-…    359 176574743 Chord… Animal… Chord…
#> 10  1.52e8 Mammalia       961a3a60-22ec-…    359 152056194 Chord… Animal… Chord…
#> # … with 90 more rows, and 18 more variables: kingdomKey <int>,
#> #   phylumKey <int>, classKey <int>, canonicalName <chr>, authorship <chr>,
#> #   nameType <chr>, taxonomicStatus <chr>, rank <chr>, origin <chr>,
#> #   numDescendants <int>, numOccurrences <int>, habitats <chr>,
#> #   nomenclaturalStatus <lgl>, threatStatuses <chr>, synonym <lgl>,
#> #   class <chr>, constituentKey <chr>, extinct <lgl>
```

Look up the species Helianthus annuus


```r
m <- name_lookup(query = 'Helianthus annuus', rank="species")
m$data
#> # A tibble: 100 x 41
#>        key scientificName  datasetKey     nubKey parentKey parent kingdom phylum
#>      <int> <chr>           <chr>           <int>     <int> <chr>  <chr>   <chr> 
#>  1  1.35e8 Helianthus ann… f82a4f7f-6f8… 9206251 180663995 Aster… Plantae Trach…
#>  2  1.15e8 Helianthus ann… ee2aac07-de9… 9206251 144238801 Helia… Plantae Trach…
#>  3  1.46e8 Helianthus ann… 3f5e930b-52a… 9206251 157140516 Helia… Plantae Angio…
#>  4  1.35e8 Helianthus ann… 29d2d5a6-db2… 9206251 181005136 Aster… Plantae Trach…
#>  5  1.63e8 Helianthus ann… 88217638-274… 9206251 163398972 Aster… Plantae Trach…
#>  6  1.03e8 Helianthus ann… fab88965-e69…      NA 103340270 Helia… Viridi… Strep…
#>  7  1.79e8 Helianthus ann… 6b6b2923-0a1… 9206251 178978795 Helia… Viridi… Strep…
#>  8  1.28e8 Helianthus ann… 41c06f1a-23d… 9206251 146770884 Amara… Plantae <NA>  
#>  9  1.35e8 Helianthus ann… 83ca3188-af1… 9206251 180784910 Aster… Plantae Trach…
#> 10  1.35e8 Helianthus ann… 3cabcf37-db1… 9206251 168335901 Aster… Plantae Trach…
#> # … with 90 more rows, and 33 more variables: order <chr>, family <chr>,
#> #   species <chr>, kingdomKey <int>, phylumKey <int>, classKey <int>,
#> #   orderKey <int>, familyKey <int>, speciesKey <int>, canonicalName <chr>,
#> #   nameType <chr>, taxonomicStatus <chr>, rank <chr>, origin <chr>,
#> #   numDescendants <int>, numOccurrences <int>, taxonID <chr>, habitats <chr>,
#> #   nomenclaturalStatus <chr>, threatStatuses <chr>, synonym <lgl>,
#> #   class <chr>, genus <chr>, genusKey <int>, authorship <chr>,
#> #   acceptedKey <int>, accepted <chr>, publishedIn <chr>, accordingTo <chr>,
#> #   basionymKey <int>, basionym <chr>, constituentKey <chr>, extinct <lgl>
```
…
The function `name_suggest()` is optimized for speed, and gives back suggested names based on query parameters.


```r
head( name_suggest(q='Puma concolor') )
#> $data
#> # A tibble: 32 x 3
#>        key canonicalName                rank      
#>      <int> <chr>                        <chr>     
#>  1 2435099 Puma concolor                SPECIES   
#>  2 8860878 Puma concolor capricornensis SUBSPECIES
#>  3 6164618 Puma concolor browni         SUBSPECIES
#>  4 7193927 Puma concolor concolor       SUBSPECIES
#>  5 6164623 Puma concolor cabrerae       SUBSPECIES
#>  6 8944801 Puma concolor acrocodia      SUBSPECIES
#>  7 9104297 Puma concolor greeni         SUBSPECIES
#>  8 9045222 Puma concolor araucanus      SUBSPECIES
#>  9 6164608 Puma concolor californica    SUBSPECIES
#> 10 6164594 Puma concolor vancouverensis SUBSPECIES
#> # … with 22 more rows
…
Then pass to `occ_search()`


```r
(res <- occ_search(taxonKey=key, limit=100))
#> Records found [87309] 
#> Records returned [100] 
#> No. unique hierarchies [1] 
#> No. media records [100] 
#> No. facets [0] 
#> Args [limit=100, offset=0, taxonKey=9206251, fields=all] 
#> # A tibble: 100 x 101
#>    key    scientificName  decimalLatitude decimalLongitude issues  datasetKey   
#>    <chr>  <chr>                     <dbl>            <dbl> <chr>   <chr>        
#>  1 30179… Helianthus ann…           29.4            -98.5  cdroun… 50c9509d-22c…
#>  2 30181… Helianthus ann…          -29.6             30.4  cdroun… 50c9509d-22c…
#>  3 30181… Helianthus ann…           50.8              4.10 cdroun… 50c9509d-22c…
#>  4 30316… Helianthus ann…           34.3           -118.   cdroun… 50c9509d-22c…
#>  5 30316… Helianthus ann…            3.04           102.   cdroun… 50c9509d-22c…
#>  6 30318… Helianthus ann…           35.1           -107.   cdroun… 50c9509d-22c…
#>  7 30319… Helianthus ann…           33.9           -117.   cdroun… 50c9509d-22c…
#>  8 30319… Helianthus ann…          -38.0            -59.2  cdroun… 50c9509d-22c…
#>  9 30320… Helianthus ann…            8.60           -83.4  cdroun… 50c9509d-22c…
#> 10 30320… Helianthus ann…           44.3            -78.4  cdroun… 50c9509d-22c…
#> # … with 90 more rows, and 95 more variables: publishingOrgKey <chr>,
#> #   installationKey <chr>, publishingCountry <chr>, protocol <chr>,
#> #   lastCrawled <chr>, lastParsed <chr>, crawlId <int>,
#> #   hostingOrganizationKey <chr>, basisOfRecord <chr>, occurrenceStatus <chr>,
#> #   taxonKey <int>, kingdomKey <int>, phylumKey <int>, classKey <int>,
#> #   orderKey <int>, familyKey <int>, genusKey <int>, speciesKey <int>,
#> #   acceptedTaxonKey <int>, acceptedScientificName <chr>, kingdom <chr>,
#> #   phylum <chr>, order <chr>, family <chr>, genus <chr>, species <chr>,
#> #   genericName <chr>, specificEpithet <chr>, taxonRank <chr>,
…
## Parse data based on issues

Now that we know a bit about GBIF issues, you can parse your data based on issues. Using the data generated above, and using the function `%>%` imported from `magrittr`, we can get only data with the issue `gass84`, or `GEODETIC_DATUM_ASSUMED_WGS84` (Note how the records returned goes down to 98 instead of the initial 100).


```r
res %>%
  occ_issues(gass84)
#> Records found [87309] 
#> Records returned [99] 
#> No. unique hierarchies [1] 
#> No. media records [100] 
#> No. facets [0] 
#> Args [limit=100, offset=0, taxonKey=9206251, fields=all] 
#> # A tibble: 99 x 101
#>    key    scientificName  decimalLatitude decimalLongitude issues  datasetKey   
#>    <chr>  <chr>                     <dbl>            <dbl> <chr>   <chr>        
#>  1 30179… Helianthus ann…           29.4            -98.5  cdroun… 50c9509d-22c…
#>  2 30181… Helianthus ann…          -29.6             30.4  cdroun… 50c9509d-22c…
#>  3 30181… Helianthus ann…           50.8              4.10 cdroun… 50c9509d-22c…
#>  4 30316… Helianthus ann…           34.3           -118.   cdroun… 50c9509d-22c…
#>  5 30316… Helianthus ann…            3.04           102.   cdroun… 50c9509d-22c…
#>  6 30318… Helianthus ann…           35.1           -107.   cdroun… 50c9509d-22c…
#>  7 30319… Helianthus ann…           33.9           -117.   cdroun… 50c9509d-22c…
#>  8 30319… Helianthus ann…          -38.0            -59.2  cdroun… 50c9509d-22c…
#>  9 30320… Helianthus ann…            8.60           -83.4  cdroun… 50c9509d-22c…
#> 10 30320… Helianthus ann…           44.3            -78.4  cdroun… 50c9509d-22c…
#> # … with 89 more rows, and 95 more variables: publishingOrgKey <chr>,
#> #   installationKey <chr>, publishingCountry <chr>, protocol <chr>,
#> #   lastCrawled <chr>, lastParsed <chr>, crawlId <int>,
#> #   hostingOrganizationKey <chr>, basisOfRecord <chr>, occurrenceStatus <chr>,
#> #   taxonKey <int>, kingdomKey <int>, phylumKey <int>, classKey <int>,
#> #   orderKey <int>, familyKey <int>, genusKey <int>, speciesKey <int>,
#> #   acceptedTaxonKey <int>, acceptedScientificName <chr>, kingdom <chr>,
#> #   phylum <chr>, order <chr>, family <chr>, genus <chr>, species <chr>,
#> #   genericName <chr>, specificEpithet <chr>, taxonRank <chr>,
…
Note also that we've set up `occ_issues()` so that you can pass in issue names without having to quote them, thereby speeding up data cleaning.

Next, we can remove data with certain issues just as easily by using a `-` sign in front of the variable, like this, removing data with issues `depunl` and `mdatunl`.


```r
res %>%
  occ_issues(-depunl, -mdatunl)
#> Records found [87309] 
#> Records returned [100] 
#> No. unique hierarchies [1] 
#> No. media records [100] 
#> No. facets [0] 
#> Args [limit=100, offset=0, taxonKey=9206251, fields=all] 
#> # A tibble: 100 x 101
#>    key    scientificName  decimalLatitude decimalLongitude issues  datasetKey   
#>    <chr>  <chr>                     <dbl>            <dbl> <chr>   <chr>        
#>  1 30179… Helianthus ann…           29.4            -98.5  cdroun… 50c9509d-22c…
#>  2 30181… Helianthus ann…          -29.6             30.4  cdroun… 50c9509d-22c…
#>  3 30181… Helianthus ann…           50.8              4.10 cdroun… 50c9509d-22c…
#>  4 30316… Helianthus ann…           34.3           -118.   cdroun… 50c9509d-22c…
#>  5 30316… Helianthus ann…            3.04           102.   cdroun… 50c9509d-22c…
#>  6 30318… Helianthus ann…           35.1           -107.   cdroun… 50c9509d-22c…
#>  7 30319… Helianthus ann…           33.9           -117.   cdroun… 50c9509d-22c…
#>  8 30319… Helianthus ann…          -38.0            -59.2  cdroun… 50c9509d-22c…
#>  9 30320… Helianthus ann…            8.60           -83.4  cdroun… 50c9509d-22c…
#> 10 30320… Helianthus ann…           44.3            -78.4  cdroun… 50c9509d-22c…
#> # … with 90 more rows, and 95 more variables: publishingOrgKey <chr>,
#> #   installationKey <chr>, publishingCountry <chr>, protocol <chr>,
#> #   lastCrawled <chr>, lastParsed <chr>, crawlId <int>,
#> #   hostingOrganizationKey <chr>, basisOfRecord <chr>, occurrenceStatus <chr>,
#> #   taxonKey <int>, kingdomKey <int>, phylumKey <int>, classKey <int>,
#> #   orderKey <int>, familyKey <int>, genusKey <int>, speciesKey <int>,
#> #   acceptedTaxonKey <int>, acceptedScientificName <chr>, kingdom <chr>,
#> #   phylum <chr>, order <chr>, family <chr>, genus <chr>, species <chr>,
#> #   genericName <chr>, specificEpithet <chr>, taxonRank <chr>,
…
