…
And finally coal.


```r
(x <- eia_cats(738))
#> $category
#> # A tibble: 1 x 4
#>   category_id parent_category_id name  notes
#>   <chr>       <chr>              <chr> <chr>
#> 1 738         388                Coal  ""   
#> 
#> $childseries
#> # A tibble: 174 x 5
#>    series_id                     name                                                                           f     units         updated              
#>    <chr>                         <chr>                                                                          <chr> <chr>         <chr>                
#>  1 ELEC.CONS_TOT_BTU.COW-AK-98.A Total consumption (Btu) : coal : Alaska : electric power (total) : annual      A     million MMBtu 27-OCT-20 06.46.54 PM
#>  2 ELEC.CONS_TOT_BTU.COW-AK-98.M Total consumption (Btu) : coal : Alaska : electric power (total) : monthly     M     million MMBtu 27-OCT-20 06.46.54 PM
#>  3 ELEC.CONS_TOT_BTU.COW-AK-98.Q Total consumption (Btu) : coal : Alaska : electric power (total) : quarterly   Q     million MMBtu 27-OCT-20 06.46.54 PM
#>  4 ELEC.CONS_TOT_BTU.COW-AL-98.A Total consumption (Btu) : coal : Alabama : electric power (total) : annual     A     million MMBtu 27-OCT-20 06.46.54 PM
#>  5 ELEC.CONS_TOT_BTU.COW-AL-98.M Total consumption (Btu) : coal : Alabama : electric power (total) : monthly    M     million MMBtu 27-OCT-20 06.46.54 PM
#>  6 ELEC.CONS_TOT_BTU.COW-AL-98.Q Total consumption (Btu) : coal : Alabama : electric power (total) : quarterly  Q     million MMBtu 27-OCT-20 06.46.54 PM
#>  7 ELEC.CONS_TOT_BTU.COW-AR-98.A Total consumption (Btu) : coal : Arkansas : electric power (total) : annual    A     million MMBtu 27-OCT-20 06.46.54 PM
#>  8 ELEC.CONS_TOT_BTU.COW-AR-98.M Total consumption (Btu) : coal : Arkansas : electric power (total) : monthly   M     million MMBtu 27-OCT-20 06.46.54 PM
#>  9 ELEC.CONS_TOT_BTU.COW-AR-98.Q Total consumption (Btu) : coal : Arkansas : electric power (total) : quarterly Q     million MMBtu 27-OCT-20 06.46.54 PM
#> 10 ELEC.CONS_TOT_BTU.COW-AZ-98.A Total consumption (Btu) : coal : Arizona : electric power (total) : annual     A     million MMBtu 27-OCT-20 06.46.54 PM
#> # ... with 164 more rows
```
…
#> # A tibble: 3 x 12
#>   series_id        name                         units    f     description                               copyright source            iso3166 geography start end   updated     
#>   <chr>            <chr>                        <chr>    <chr> <chr>                                     <chr>     <chr>             <chr>   <chr>     <chr> <chr> <chr>       
#> 1 ELEC.CONS_TOT_B~ Total consumption (Btu) : c~ million~ A     "Summation of all types of coal; Power p~ None      EIA, U.S. Energy~ USA-AK  USA-AK    2001  2019  2020-10-27T~
#> 2 ELEC.CONS_TOT_B~ Total consumption (Btu) : c~ million~ M     "Summation of all types of coal; Power p~ None      EIA, U.S. Energy~ USA-AK  USA-AK    2001~ 2020~ 2020-10-27T~
#> 3 ELEC.CONS_TOT_B~ Total consumption (Btu) : c~ million~ Q     "Summation of all types of coal; Power p~ None      EIA, U.S. Energy~ USA-AK  USA-AK    2001~ 2020~ 2020-10-27T~
eia_series_updates(id)
#> # A tibble: 3 x 2
#>   series_id                     updated                 
#>   <chr>                         <chr>                   
#> 1 ELEC.CONS_TOT_BTU.COW-AK-98.A 2020-10-27T18:46:54-0400
#> 2 ELEC.CONS_TOT_BTU.COW-AK-98.M 2020-10-27T18:46:54-0400
#> 3 ELEC.CONS_TOT_BTU.COW-AK-98.Q 2020-10-27T18:46:54-0400
eia_series_dates(id)
#> # A tibble: 333 x 4
#>    series_id                     date       eiadate date_format
#>    <chr>                         <date>     <chr>   <chr>      
#>  1 ELEC.CONS_TOT_BTU.COW-AK-98.A 2001-01-01 2001    A          
#>  2 ELEC.CONS_TOT_BTU.COW-AK-98.A 2002-01-01 2002    A          
#>  3 ELEC.CONS_TOT_BTU.COW-AK-98.A 2003-01-01 2003    A          
#>  4 ELEC.CONS_TOT_BTU.COW-AK-98.A 2004-01-01 2004    A          
#>  5 ELEC.CONS_TOT_BTU.COW-AK-98.A 2005-01-01 2005    A          
#>  6 ELEC.CONS_TOT_BTU.COW-AK-98.A 2006-01-01 2006    A          
#>  7 ELEC.CONS_TOT_BTU.COW-AK-98.A 2007-01-01 2007    A          
#>  8 ELEC.CONS_TOT_BTU.COW-AK-98.A 2008-01-01 2008    A          
#>  9 ELEC.CONS_TOT_BTU.COW-AK-98.A 2009-01-01 2009    A          
#> 10 ELEC.CONS_TOT_BTU.COW-AK-98.A 2010-01-01 2010    A          
#> # ... with 323 more rows
…
In the example below using total electricity generation, get the last two data points for each of and two US states. `dplyr` and `tidyr` are used here to clean up the result a bit for purposes of display. `gpplot2` is used to graph the data after it has been unnested for each state.


```r
id <- c("ELEC.GEN.ALL-99.M") # monthly
region <- c("USA-CA", "USA-NY")
(x <- eia_geoset(id, region, start = "201801", end = "201812"))
#> # A tibble: 2 x 11
#>   geoset_id       setname                             f     units            series_id        name                                       region latlon start end   data        
#>   <chr>           <chr>                               <chr> <chr>            <chr>            <chr>                                      <chr>  <chr>  <chr> <chr> <list>      
#> 1 ELEC.GEN.ALL-9~ Net generation : all fuels : all s~ M     thousand megawa~ ELEC.GEN.ALL-CA~ Net generation : all fuels : California :~ USA-CA <NA>   2001~ 2020~ <tibble [12~
#> 2 ELEC.GEN.ALL-9~ Net generation : all fuels : all s~ M     thousand megawa~ ELEC.GEN.ALL-NY~ Net generation : all fuels : New York : a~ USA-NY <NA>   2001~ 2020~ <tibble [12~

select(x, region, data) %>% unnest(cols = data)
#> # A tibble: 24 x 5
#>    region  value date        year month
#>    <chr>   <dbl> <date>     <int> <int>
#>  1 USA-CA 14364. 2018-12-01  2018    12
#>  2 USA-CA 14605. 2018-11-01  2018    11
#>  3 USA-CA 16864. 2018-10-01  2018    10
#>  4 USA-CA 17592. 2018-09-01  2018     9
#>  5 USA-CA 20994. 2018-08-01  2018     8
#>  6 USA-CA 22356. 2018-07-01  2018     7
#>  7 USA-CA 17514. 2018-06-01  2018     6
#>  8 USA-CA 15932. 2018-05-01  2018     5
#>  9 USA-CA 14811. 2018-04-01  2018     4
#> 10 USA-CA 14039. 2018-03-01  2018     3
#> # ... with 14 more rows
…
region <- "Middle Atlantic"
x <- eia_geoset(id, region, n = 12)
select(x, region, data) %>% unnest(cols = data)
#> # A tibble: 36 x 5
#>    region value date        year month
#>    <chr>  <dbl> <date>     <int> <int>
#>  1 USA-NJ 6639. 2020-08-01  2020     8
#>  2 USA-NJ 7385. 2020-07-01  2020     7
#>  3 USA-NJ 5721. 2020-06-01  2020     6
#>  4 USA-NJ 4169. 2020-05-01  2020     5
#>  5 USA-NJ 4334. 2020-04-01  2020     4
#>  6 USA-NJ 4469. 2020-03-01  2020     3
#>  7 USA-NJ 4912. 2020-02-01  2020     2
#>  8 USA-NJ 5488. 2020-01-01  2020     1
#>  9 USA-NJ 6193. 2019-12-01  2019    12
#> 10 USA-NJ 5510. 2019-11-01  2019    11
#> # ... with 26 more rows
…
## Groups of regions

If you want data for all fifty states for example, you can set `region = "USA"`; you do not need to make a vector of all fifty state IDs. However, if you want certain region subsets, there are other options besides making a vector of these values. For example, the `eia_geoset` accepts shorthand descriptions of specific, popular subsets of states; so popular in fact that their labels ship with R itself in the `datasts` package.

You can provide simple state abbreviations (without the `USA-` prefix), state names, and more to the point, US Census regions and divisions. These are two hierarchical sets of US states.


```r
tibble(state.abb, state.name, state.region, state.division)
#> # A tibble: 50 x 4
#>    state.abb state.name  state.region state.division    
#>    <chr>     <chr>       <fct>        <fct>             
#>  1 AL        Alabama     South        East South Central
#>  2 AK        Alaska      West         Pacific           
#>  3 AZ        Arizona     West         Mountain          
#>  4 AR        Arkansas    South        West South Central
#>  5 CA        California  West         Pacific           
#>  6 CO        Colorado    West         Mountain          
#>  7 CT        Connecticut Northeast    New England       
#>  8 DE        Delaware    South        South Atlantic    
#>  9 FL        Florida     South        South Atlantic    
#> 10 GA        Georgia     South        South Atlantic    
#> # ... with 40 more rows
```
…
region <- "Middle Atlantic"
x <- eia_geoset(id, region, n = 12)
select(x, region, data) %>% unnest(cols = data)
#> # A tibble: 36 x 4
#>    region  value date        year
#>    <chr>   <dbl> <date>     <int>
#>  1 USA-NJ 71019. 2019-01-01  2019
#>  2 USA-NJ 75034. 2018-01-01  2018
#>  3 USA-NJ 75645. 2017-01-01  2017
#>  4 USA-NJ 77611. 2016-01-01  2016
#>  5 USA-NJ 74609. 2015-01-01  2015
#>  6 USA-NJ 68051. 2014-01-01  2014
#>  7 USA-NJ 64751. 2013-01-01  2013
#>  8 USA-NJ 65263. 2012-01-01  2012
#>  9 USA-NJ 64694. 2011-01-01  2011
#> 10 USA-NJ 65682. 2010-01-01  2010
#> # ... with 26 more rows
…
