…
```r
library(tidygraph)
# NB the line below would not work with a mgNetworksCollection (use lapply)
tg_lagoons <-  as_tbl_graph(mg_lagoons[[1]]) %>%
  mutate(centrality_dg = centrality_degree(mode = 'in'))
tg_lagoons %E>% as_tibble
#> # A tibble: 189 × 19
#>     from    to interaction_id date    direction type   method attr_id value public network_id created_at  updated_at  attribute.id
#>    <int> <int>          <int> <chr>   <chr>     <chr>  <lgl>    <int> <dbl> <lgl>       <int> <chr>       <chr>              <int>
#>  1     9     9          48376 2003-0… directed  preda… NA          12 0.026 TRUE           86 2019-02-23… 2019-02-23…           12
#>  2     9    11          48377 2003-0… directed  preda… NA          12 0.025 TRUE           86 2019-02-23… 2019-02-23…           12
#>  3     9    12          48378 2003-0… directed  preda… NA          12 0.003 TRUE           86 2019-02-23… 2019-02-23…           12
#>  4     9    15          48379 2003-0… directed  preda… NA          12 0.009 TRUE           86 2019-02-23… 2019-02-23…           12
#>  5     9    16          48380 2003-0… directed  preda… NA          12 0.009 TRUE           86 2019-02-23… 2019-02-23…           12
#>  6     9    17          48381 2003-0… directed  preda… NA          12 0.016 TRUE           86 2019-02-23… 2019-02-23…           12
#>  7     9    18          48382 2003-0… directed  preda… NA          12 0.284 TRUE           86 2019-02-23… 2019-02-23…           12
#>  8     9    19          48383 2003-0… directed  preda… NA          12 0.231 TRUE           86 2019-02-23… 2019-02-23…           12
#>  9     9    21          48384 2003-0… directed  preda… NA          12 0.079 TRUE           86 2019-02-23… 2019-02-23…           12
#> 10     9    22          48385 2003-0… directed  preda… NA          12 0.09  TRUE           86 2019-02-23… 2019-02-23…           12
#> # … with 179 more rows, and 5 more variables: attribute.name <chr>, attribute.description <chr>, attribute.unit <lgl>,
#> #   attribute.created_at <chr>, attribute.updated_at <chr>
tg_lagoons %N>% as_tibble %>%
  select(original_name, taxonomy.tsn, centrality_dg)
#> # A tibble: 26 × 3
#>    original_name  taxonomy.tsn centrality_dg
#>    <chr>                 <int>         <dbl>
#>  1 Scianids             169237             1
#>  2 Elopids               28630             0
#>  3 Lutjanids            168845             1
#>  4 Carangids            168584             2
#>  5 Centropomids         167642             2
#>  6 Ariids                43998             1
#>  7 Haemulids            169055             4
#>  8 Pleuronectoids       172859             3
#>  9 Callinectes           13951             6
#> 10 Belonoids            165546             4
#> # … with 16 more rows
```
…
