…
(i-iii) corresponds to the output from functions `codify()`,
`classify()` and `index()`, which could be chained explicitly as
`codify() %>% classify() %>% index()`, or implicitly by the
`categorize()` function.

## Usage

Assume we have some patients with surgery at specified dates:

``` r
library(coder)
ex_people
#> # A tibble: 100 x 2
#>    name              surgery   
#>    <chr>             <date>    
#>  1 Chen, Trevor      2021-01-04
#>  2 Graves, Acineth   2020-09-26
#>  3 Trujillo, Yanelly 2020-09-13
#>  4 Simpson, Kenneth  2020-12-16
#>  5 Chin, Nelson      2020-11-29
#>  6 Le, Christina     2020-07-03
#>  7 Kang, Xuan        2020-10-05
#>  8 Shuemaker, Lauren 2020-07-04
#>  9 Boucher, Teresa   2020-12-10
#> 10 Le, Soraiya       2020-11-14
#> # ... with 90 more rows
```

Those patients (among others) were also recorded in a national patient
register with date of hospital admissions and diagnoses codes coded by
the International Classification of Diseases (ICD) version 10:

``` r
ex_icd10
#> # A tibble: 2,376 x 4
#>    name                 admission  icd10 hdia 
#>    <chr>                <date>     <chr> <lgl>
#>  1 Tran, Kenneth        2020-07-18 S134A FALSE
#>  2 Tran, Kenneth        2021-01-01 W3319 FALSE
#>  3 Tran, Kenneth        2020-12-11 Y0262 TRUE 
#>  4 Tran, Kenneth        2020-11-03 X0488 FALSE
#>  5 Sommerville, Dominic 2020-12-23 V8104 FALSE
#>  6 Sommerville, Dominic 2020-08-03 B853  FALSE
#>  7 Sommerville, Dominic 2020-12-18 Q174  FALSE
#>  8 Sommerville, Dominic 2020-08-08 A227  FALSE
#>  9 Sommerville, Dominic 2020-12-13 H702  FALSE
#> 10 Sommerville, Dominic 2020-04-06 X6051 TRUE 
#> # ... with 2,366 more rows
```
…
``` r
ch <- 
  categorize(
    ex_people,                  # patients of interest 
    codedata = ex_icd10,        # Medical codes from national patient register
    cc = "charlson",            # Calculate Charlson comorbidity
    id = "name", code = "icd10" # Specify column names
  )
#> Classification based on: icd10

ch
#> # A tibble: 100 x 25
#>    name  surgery    myocardial.infa~ congestive.hear~ peripheral.vasc~
#>    <chr> <date>     <lgl>            <lgl>            <lgl>           
#>  1 Chen~ 2021-01-04 FALSE            FALSE            FALSE           
#>  2 Grav~ 2020-09-26 FALSE            FALSE            FALSE           
#>  3 Truj~ 2020-09-13 FALSE            FALSE            FALSE           
#>  4 Simp~ 2020-12-16 FALSE            FALSE            FALSE           
#>  5 Chin~ 2020-11-29 FALSE            FALSE            FALSE           
#>  6 Le, ~ 2020-07-03 FALSE            FALSE            FALSE           
#>  7 Kang~ 2020-10-05 FALSE            FALSE            FALSE           
#>  8 Shue~ 2020-07-04 FALSE            FALSE            FALSE           
#>  9 Bouc~ 2020-12-10 FALSE            FALSE            TRUE            
#> 10 Le, ~ 2020-11-14 FALSE            FALSE            FALSE           
#> # ... with 90 more rows, and 20 more variables: cerebrovascular.disease <lgl>,
#> #   dementia <lgl>, chronic.pulmonary.disease <lgl>, rheumatic.disease <lgl>,
#> #   peptic.ulcer.disease <lgl>, mild.liver.disease <lgl>,
#> #   diabetes.without.complication <lgl>, hemiplegia.or.paraplegia <lgl>,
#> #   renal.disease <lgl>, diabetes.complication <lgl>, malignancy <lgl>,
#> #   moderate.or.severe.liver.disease <lgl>, metastatic.solid.tumor <lgl>,
#> #   AIDS.HIV <lgl>, charlson <dbl>, deyo_ramano <dbl>, dhoore <dbl>,
#> #   ghali <dbl>, quan_original <dbl>, quan_updated <dbl>
```
…
