…
Search for class _Aves_, in the state of _Nevada_, with a coordinate uncertainty range (in meters) of less than 25 meters


```r
res <- searchbyterm(class = "Aves", stateprovince = "Nevada", error = "<25", messages = FALSE)
res$data
#> # A tibble: 1,000 x 91
#>    georeferencepro… higherclassific… stateprovince lifestage month decimallongitude phylum verbatimlongitu… year 
#>    <chr>            <chr>            <chr>         <chr>     <chr> <chr>            <chr>  <chr>            <chr>
#>  1 MaNIS/HerpNet/O… Animalia; Chord… Nevada        U-Ad.     3     -117.73567       Chord… -117.7356796°    1886 
#>  2 MaNIS/HerpNet/O… Animalia; Chord… Nevada        U-Ad      12    -119.19015       Chord… -119.1901537°    1912 
#>  3 MaNIS/HerpNet/O… Animalia; Chord… Nevada        Nestling  5     -119.55677       Chord… -119.5567779°    1918 
#>  4 MaNIS/HerpNet/O… Animalia; Chord… Nevada        U-Ad.     9     -119.94328       Chord… -119.9432804°    1924 
#>  5 MaNIS/HerpNet/O… Animalia; Chord… Nevada        U-Ad.     9     -119.94328       Chord… -119.9432804°    1924 
#>  6 MaNIS/HerpNet/O… Animalia; Chord… Nevada        U-Ad.     9     -119.94328       Chord… -119.9432804°    1924 
#>  7 MaNIS/HerpNet/O… Animalia; Chord… Nevada        Downy     6     -119.93907       Chord… -119.9390724°    1936 
#>  8 MaNIS/HerpNet/O… Animalia; Chord… Nevada        U-Ad.     6     -119.93907       Chord… -119.9390724°    1936 
#>  9 MaNIS/HerpNet/O… Animalia; Chord… Nevada        U-Ad.     6     -119.93907       Chord… -119.9390724°    1936 
#> 10 MaNIS/HerpNet/O… Animalia; Chord… Nevada        U-Ad.     6     -119.93907       Chord… -119.9390724°    1936 
#> # … with 990 more rows, and 82 more variables: specificepithet <chr>, bibliographiccitation <chr>,
#> #   verbatimlatitude <chr>, family <chr>, locality <chr>, geodeticdatum <chr>, coordinateuncertaintyinmeters <chr>,
#> #   highergeography <chr>, continent <chr>, scientificnameauthorship <chr>, day <chr>, kingdom <chr>,
#> #   institutioncode <chr>, scientificname <chr>, preparations <chr>, sex <chr>, class <chr>, county <chr>,
#> #   decimallatitude <chr>, occurrenceid <chr>, language <chr>, license <chr>, basisofrecord <chr>, country <chr>,
#> #   collectioncode <chr>, modified <chr>, eventdate <chr>, verbatimeventdate <chr>, references <chr>, genus <chr>,
#> #   order <chr>, catalognumber <chr>, georeferencesources <chr>, recordedby <chr>, occurrenceremarks <chr>,
#> #   infraspecificepithet <chr>, georeferenceremarks <chr>, startdayofyear <chr>, dynamicproperties <chr>,
#> #   enddayofyear <chr>, recordnumber <chr>, minimumelevationinmeters <chr>, othercatalognumbers <chr>,
…
Limit the number of records returned (under 1000)


```r
res <- vertsearch("(kansas state OR KSU)", limit = 200)
res$data
#> # A tibble: 200 x 78
#>    individualcount georeferencepro… recordedby bibliographicci… stateprovince basisofrecord month decimallongitude
#>    <chr>           <chr>            <chr>      <chr>            <chr>         <chr>         <chr> <chr>           
#>  1 8               GEOLocate (Rios… H. W. Rob… Academy of Natu… Oklahoma      PreservedSpe… 10    -94.707552      
#>  2 11              GEOLocate (Rios… H. W. Rob… Academy of Natu… Oklahoma      PreservedSpe… 10    -94.707552      
#>  3 3               GEOLocate (Rios… H. W. Rob… Academy of Natu… Oklahoma      PreservedSpe… 10    -94.707552      
#>  4 <NA>            <NA>             <NA>       California Acad… Kansas        PreservedSpe… 11    -95.4569444444  
#>  5 <NA>            <NA>             <NA>       California Acad… Kansas        PreservedSpe… 5     -96.7475194444  
#>  6 <NA>            <NA>             <NA>       California Acad… Kansas        PreservedSpe… 8     -101.0889700000 
#>  7 1               VertNet Georefe… MCCOY, C … Carnegie Museum… Sonora        PreservedSpe… 8     -112.57         
#>  8 1               VertNet Georefe… MCCOY, C … Carnegie Museum… Sonora        PreservedSpe… 8     -111.37         
#>  9 1               VertNet Georefe… MCCOY, C … Carnegie Museum… Sonora        PreservedSpe… 8     -111.37         
#> 10 1               VertNet Georefe… MCCOY, C … Carnegie Museum… Oklahoma      PreservedSpe… 6     -100.49         
#> # … with 190 more rows, and 70 more variables: phylum <chr>, references <chr>, georeferencedby <chr>, year <chr>,
#> #   taxonrank <chr>, specificepithet <chr>, family <chr>, countrycode <chr>, locality <chr>, geodeticdatum <chr>,
#> #   coordinateuncertaintyinmeters <chr>, highergeography <chr>, continent <chr>, day <chr>, kingdom <chr>,
#> #   georeferenceddate <chr>, footprintwkt <chr>, institutioncode <chr>, scientificname <chr>, preparations <chr>,
#> #   disposition <chr>, class <chr>, identificationremarks <chr>, county <chr>, decimallatitude <chr>,
#> #   occurrenceid <chr>, language <chr>, license <chr>, country <chr>, georeferenceverificationstatus <chr>,
#> #   othercatalognumbers <chr>, infraspecificepithet <chr>, eventdate <chr>, identifiedby <chr>,
#> #   nomenclaturalcode <chr>, fieldnumber <chr>, verbatimeventdate <chr>, genus <chr>, order <chr>,
#> #   catalognumber <chr>, collectioncode <chr>, higherclassification <chr>, lifestage <chr>, startdayofyear <chr>,
…
Search for class _Aves_, in the state of _Nevada_, with a coordinate uncertainty range (in meters) of less than 25 meters


```r
res <- searchbyterm(class = "Aves", stateprovince = "Nevada", error = "<25", messages = FALSE)
res$data
#> # A tibble: 1,000 x 91
#>    georeferencepro… higherclassific… stateprovince lifestage month decimallongitude phylum verbatimlongitu… year 
#>    <chr>            <chr>            <chr>         <chr>     <chr> <chr>            <chr>  <chr>            <chr>
#>  1 MaNIS/HerpNet/O… Animalia; Chord… Nevada        U-Ad.     3     -117.73567       Chord… -117.7356796°    1886 
#>  2 MaNIS/HerpNet/O… Animalia; Chord… Nevada        U-Ad      12    -119.19015       Chord… -119.1901537°    1912 
#>  3 MaNIS/HerpNet/O… Animalia; Chord… Nevada        Nestling  5     -119.55677       Chord… -119.5567779°    1918 
#>  4 MaNIS/HerpNet/O… Animalia; Chord… Nevada        U-Ad.     9     -119.94328       Chord… -119.9432804°    1924 
#>  5 MaNIS/HerpNet/O… Animalia; Chord… Nevada        U-Ad.     9     -119.94328       Chord… -119.9432804°    1924 
#>  6 MaNIS/HerpNet/O… Animalia; Chord… Nevada        U-Ad.     9     -119.94328       Chord… -119.9432804°    1924 
#>  7 MaNIS/HerpNet/O… Animalia; Chord… Nevada        Downy     6     -119.93907       Chord… -119.9390724°    1936 
#>  8 MaNIS/HerpNet/O… Animalia; Chord… Nevada        U-Ad.     6     -119.93907       Chord… -119.9390724°    1936 
#>  9 MaNIS/HerpNet/O… Animalia; Chord… Nevada        U-Ad.     6     -119.93907       Chord… -119.9390724°    1936 
#> 10 MaNIS/HerpNet/O… Animalia; Chord… Nevada        U-Ad.     6     -119.93907       Chord… -119.9390724°    1936 
#> # … with 990 more rows, and 82 more variables: specificepithet <chr>, bibliographiccitation <chr>,
#> #   verbatimlatitude <chr>, family <chr>, locality <chr>, geodeticdatum <chr>, coordinateuncertaintyinmeters <chr>,
#> #   highergeography <chr>, continent <chr>, scientificnameauthorship <chr>, day <chr>, kingdom <chr>,
#> #   institutioncode <chr>, scientificname <chr>, preparations <chr>, sex <chr>, class <chr>, county <chr>,
#> #   decimallatitude <chr>, occurrenceid <chr>, language <chr>, license <chr>, basisofrecord <chr>, country <chr>,
#> #   collectioncode <chr>, modified <chr>, eventdate <chr>, verbatimeventdate <chr>, references <chr>, genus <chr>,
#> #   order <chr>, catalognumber <chr>, georeferencesources <chr>, recordedby <chr>, occurrenceremarks <chr>,
#> #   infraspecificepithet <chr>, georeferenceremarks <chr>, startdayofyear <chr>, dynamicproperties <chr>,
#> #   enddayofyear <chr>, recordnumber <chr>, minimumelevationinmeters <chr>, othercatalognumbers <chr>,
…
Limit the number of records returned (under 1000)


```r
res <- vertsearch("(kansas state OR KSU)", limit = 200)
res$data
#> # A tibble: 200 x 78
#>    individualcount georeferencepro… recordedby bibliographicci… stateprovince basisofrecord month decimallongitude
#>    <chr>           <chr>            <chr>      <chr>            <chr>         <chr>         <chr> <chr>           
#>  1 8               GEOLocate (Rios… H. W. Rob… Academy of Natu… Oklahoma      PreservedSpe… 10    -94.707552      
#>  2 11              GEOLocate (Rios… H. W. Rob… Academy of Natu… Oklahoma      PreservedSpe… 10    -94.707552      
#>  3 3               GEOLocate (Rios… H. W. Rob… Academy of Natu… Oklahoma      PreservedSpe… 10    -94.707552      
#>  4 <NA>            <NA>             <NA>       California Acad… Kansas        PreservedSpe… 11    -95.4569444444  
#>  5 <NA>            <NA>             <NA>       California Acad… Kansas        PreservedSpe… 5     -96.7475194444  
#>  6 <NA>            <NA>             <NA>       California Acad… Kansas        PreservedSpe… 8     -101.0889700000 
#>  7 1               VertNet Georefe… MCCOY, C … Carnegie Museum… Sonora        PreservedSpe… 8     -112.57         
#>  8 1               VertNet Georefe… MCCOY, C … Carnegie Museum… Sonora        PreservedSpe… 8     -111.37         
#>  9 1               VertNet Georefe… MCCOY, C … Carnegie Museum… Sonora        PreservedSpe… 8     -111.37         
#> 10 1               VertNet Georefe… MCCOY, C … Carnegie Museum… Oklahoma      PreservedSpe… 6     -100.49         
#> # … with 190 more rows, and 70 more variables: phylum <chr>, references <chr>, georeferencedby <chr>, year <chr>,
#> #   taxonrank <chr>, specificepithet <chr>, family <chr>, countrycode <chr>, locality <chr>, geodeticdatum <chr>,
#> #   coordinateuncertaintyinmeters <chr>, highergeography <chr>, continent <chr>, day <chr>, kingdom <chr>,
#> #   georeferenceddate <chr>, footprintwkt <chr>, institutioncode <chr>, scientificname <chr>, preparations <chr>,
#> #   disposition <chr>, class <chr>, identificationremarks <chr>, county <chr>, decimallatitude <chr>,
#> #   occurrenceid <chr>, language <chr>, license <chr>, country <chr>, georeferenceverificationstatus <chr>,
#> #   othercatalognumbers <chr>, infraspecificepithet <chr>, eventdate <chr>, identifiedby <chr>,
#> #   nomenclaturalcode <chr>, fieldnumber <chr>, verbatimeventdate <chr>, genus <chr>, order <chr>,
#> #   catalognumber <chr>, collectioncode <chr>, higherclassification <chr>, lifestage <chr>, startdayofyear <chr>,
…
