…
## Get languages


```r
bhl_getlanguages()
#> # A tibble: 80 x 2
#>    LanguageCode LanguageName        
#>    <chr>        <chr>               
#>  1 AFR          Afrikaans           
#>  2 ARA          Arabic              
#>  3 ARC          Aramaic             
#>  4 MAP          Austronesian (Other)
#>  5 BUL          Bulgarian           
#>  6 BUR          Burmese             
#>  7 CAR          Carib               
#>  8 CAT          Catalan             
#>  9 CEL          Celtic (Other)      
#> 10 CHI          Chinese             
#> # … with 70 more rows
```
…
### Get languages

This function gets a list of languages in which materials in BHL have been written. 


```r
bhl_getlanguages()
```

```
#> # A tibble: 75 x 2
#>    LanguageCode LanguageName        
#>    <chr>        <chr>               
#>  1 AFR          Afrikaans           
#>  2 ARA          Arabic              
#>  3 ARC          Aramaic             
#>  4 MAP          Austronesian (Other)
#>  5 BUL          Bulgarian           
#>  6 BUR          Burmese             
#>  7 CAR          Carib               
#>  8 CAT          Catalan             
#>  9 CEL          Celtic (Other)      
#> 10 CHI          Chinese             
#> # … with 65 more rows
```
…
