…
``` r
nrow(crashes)
#> [1] 129982
ncol(crashes)
#> [1] 37
```

Some of the key variables in this dataset include:

``` r
key_column_names = grepl(pattern = "severity|speed|pedestrian|light_conditions", x = names(crashes))
crashes[key_column_names]
#> # A tibble: 129,982 × 5
#>    accident_severity speed_limit pedestrian_crossing… pedestrian_crossing_physi…
#>    <chr>                   <dbl> <chr>                <chr>                     
#>  1 Fatal                      30 None within 50 metr… No physical crossing faci…
#>  2 Slight                     30 None within 50 metr… No physical crossing faci…
#>  3 Slight                     30 None within 50 metr… No physical crossing faci…
#>  4 Slight                     30 None within 50 metr… Pelican, puffin, toucan o…
#>  5 Serious                    20 None within 50 metr… Pedestrian phase at traff…
#>  6 Slight                     30 None within 50 metr… No physical crossing faci…
#>  7 Slight                     40 None within 50 metr… Pelican, puffin, toucan o…
#>  8 Slight                     30 Control by other au… Pedestrian phase at traff…
#>  9 Serious                    50 None within 50 metr… Pelican, puffin, toucan o…
#> 10 Serious                    30 None within 50 metr… No physical crossing faci…
#> # … with 129,972 more rows, and 1 more variable: light_conditions <chr>
```
…
The results show that there were 170,993 casualties reported by the
police in the STATS19 dataset in 2017, and 18 columns (variables).
Values for a sample of these columns are shown below:

``` r
casualties[c(4, 5, 6, 14)]
#> # A tibble: 170,993 × 4
#>    vehicle_reference casualty_reference casualty_class  bus_or_coach_passenger  
#>                <dbl>              <dbl> <chr>           <chr>                   
#>  1                 1                  1 Passenger       Not a bus or coach pass…
#>  2                 2                  2 Driver or rider Not a bus or coach pass…
#>  3                 2                  3 Passenger       Not a bus or coach pass…
#>  4                 1                  1 Passenger       Not a bus or coach pass…
#>  5                 3                  1 Driver or rider Not a bus or coach pass…
#>  6                 1                  1 Passenger       Not a bus or coach pass…
#>  7                 1                  1 Pedestrian      Not a bus or coach pass…
#>  8                 2                  1 Driver or rider Not a bus or coach pass…
#>  9                 1                  1 Driver or rider Not a bus or coach pass…
#> 10                 2                  2 Driver or rider Not a bus or coach pass…
#> # … with 170,983 more rows
```
…
The results show that there were 238,926 vehicles involved in crashes
reported by the police in the STATS19 dataset in 2017, with 27 columns
(variables). Values for a sample of these columns are shown below:

``` r
vehicles[c(3, 14:16)]
#> # A tibble: 238,926 × 4
#>    accident_reference vehicle_leaving_car… hit_object_off_car… first_point_of_i…
#>    <chr>              <chr>                <chr>               <chr>            
#>  1 010001708          Did not leave carri… None                Front            
#>  2 010001708          Did not leave carri… None                Back             
#>  3 010009342          Did not leave carri… None                Back             
#>  4 010009342          Did not leave carri… None                Front            
#>  5 010009344          Did not leave carri… None                Front            
#>  6 010009344          Did not leave carri… None                Front            
#>  7 010009344          Did not leave carri… None                Front            
#>  8 010009348          Did not leave carri… None                Front            
#>  9 010009348          Did not leave carri… None                Offside          
#> 10 010009350          Did not leave carri… None                Offside          
#> # … with 238,916 more rows
```
…
What just happened? We found the subset of casualties that took place in
West Yorkshire with reference to the `accident_index` variable. Then we
used functions from the **tidyverse** package **dplyr** (and `spread()`
from **tidyr**) to create a dataset with a column for each casualty
type. We then joined the updated casualty data onto the `crashes_wy`
dataset. The result is a spatial (`sf`) data frame of crashes in Leeds,
with columns counting how many road users of different types were hurt.
The original and joined data look like this:

``` r
crashes_wy %>%
  select(accident_index, accident_severity) %>% 
  st_drop_geometry()
#> # A tibble: 4,371 × 2
#>    accident_index accident_severity
#>  * <chr>          <chr>            
#>  1 2017120009776  Slight           
#>  2 2017120010412  Slight           
#>  3 2017120111341  Serious          
#>  4 2017120135780  Slight           
#>  5 2017120223550  Slight           
#>  6 2017130086428  Slight           
#>  7 20171333D0295  Slight           
#>  8 2017133AP0313  Serious          
#>  9 2017133BE0850  Slight           
#> 10 2017134110858  Slight           
#> # … with 4,361 more rows
…
