…
```r
whichSST <- ed_search(query = "SST MODIS")
```

still returns 172 responses.  If the simple search doesn't narrow things enough,  look at the advanced search function `ed_search_adv()`.

## Finding the Data You Want

The first way to find a dataset is to browse the builtin web page for a particular <span style="color:red">ERDDAP</span> server.
A list of some of the public available <span style="color:red">ERDDAP</span> servers can be obtained from the `rerddap` command:


```r
servers()
#> # A tibble: 58 × 4
#>    name                                 short_name  url                   public
#>    <chr>                                <chr>       <chr>                 <lgl> 
#>  1 CoastWatch West Coast Node           CSWC        https://coastwatch.p… TRUE  
#>  2 ERDDAP at the Asia-Pacific Data-Res… APDRC       https://apdrc.soest.… TRUE  
#>  3 NOAA's National Centers for Environ… NCEI        https://www.ncei.noa… TRUE  
#>  4 Biological and Chemical Oceanograph… BCODMO      https://erddap.bco-d… TRUE  
#>  5 European Marine Observation and Dat… EMODnet     https://erddap.emodn… TRUE  
#>  6 Marine Institute - Ireland           MII         https://erddap.marin… TRUE  
#>  7 CoastWatch Caribbean/Gulf of Mexico… CSCGOM      https://cwcgom.aoml.… TRUE  
#>  8 NOAA IOOS Sensors ERDDAP             IOOS-Senso… https://erddap.senso… TRUE  
#>  9 NOAA IOOS CeNCOOS (Central and Nort… CeNCOOS     https://erddap.axiom… TRUE  
#> 10 CeNCOOS (Central and Northern Calif… CeNCOOS ER… http://erddap.cencoo… TRUE  
#> # … with 48 more rows
```
…
```r
(res <- griddap(out,
  time = c('2015-01-01','2015-01-03'),
  latitude = c(14, 15),
  longitude = c(125, 126)
))
#> <ERDDAP griddap> erdMBchla1day
#>    Path: [/Users/rmendels/Library/Caches/R/rerddap/4d844aa48552049c3717ac94ced5f9b8.nc]
#>    Last updated: [2021-11-18 15:58:06]
#>    File size:    [0.03 mb]
#>    Dimensions (dims/vars):   [4 X 1]
#>    Dim names: time, altitude, latitude, longitude
#>    Variable names: Chlorophyll Concentration in Sea Water
#>    data.frame (rows/columns):   [5043 X 5]
#> # A tibble: 5,043 × 5
#>    time                   lat   lon altitude chlorophyll
#>    <chr>                <dbl> <dbl>    <dbl>       <dbl>
#>  1 2015-01-01T12:00:00Z    14  125         0          NA
#>  2 2015-01-01T12:00:00Z    14  125.        0          NA
#>  3 2015-01-01T12:00:00Z    14  125.        0          NA
#>  4 2015-01-01T12:00:00Z    14  125.        0          NA
#>  5 2015-01-01T12:00:00Z    14  125.        0          NA
#>  6 2015-01-01T12:00:00Z    14  125.        0          NA
#>  7 2015-01-01T12:00:00Z    14  125.        0          NA
#>  8 2015-01-01T12:00:00Z    14  125.        0          NA
#>  9 2015-01-01T12:00:00Z    14  125.        0          NA
#> 10 2015-01-01T12:00:00Z    14  125.        0          NA
#> # … with 5,033 more rows
```
…
```r
(dat <- tabledap('erdCalCOFIlrvsiz', fields=c('latitude','longitude','larvae_size',
  'scientific_name'), 'time>=2011-01-01', 'time<=2011-12-31'))
#> <ERDDAP tabledap> erdCalCOFIlrvsiz
#>    Path: [/Users/rmendels/Library/Caches/R/rerddap/db7389db5b5b0ed9c426d5c13bc43d18.csv]
#>    Last updated: [2021-11-18 15:58:09]
#>    File size:    [0.05 mb]
#> # A tibble: 1,304 × 4
#>    latitude  longitude  larvae_size scientific_name     
#>    <chr>     <chr>      <chr>       <chr>               
#>  1 32.956665 -117.305   4.5         Engraulis mordax    
#>  2 32.91     -117.4     5.0         Merluccius productus
#>  3 32.511665 -118.21167 2.0         Merluccius productus
#>  4 32.511665 -118.21167 3.0         Merluccius productus
#>  5 32.511665 -118.21167 5.5         Merluccius productus
#>  6 32.511665 -118.21167 6.0         Merluccius productus
#>  7 32.511665 -118.21167 2.8         Merluccius productus
#>  8 32.511665 -118.21167 3.0         Sardinops sagax     
#>  9 32.511665 -118.21167 5.0         Sardinops sagax     
#> 10 32.511665 -118.21167 2.5         Engraulis mordax    
#> # … with 1,294 more rows
```
…
