…
Similar functions `filter_id`, `filter_rank`, and `filter_common` take
IDs, scientific ranks, or common names, respectively. Here, we can get
taxonomic data on all bird names in the Catalogue of Life:

``` r
filter_rank(name = "Aves", rank = "class", provider = "col")
#> # A tibble: 36,336 x 21
#>     sort taxonID   scientificName    acceptedNameUsag… taxonomicStatus taxonRank
#>    <int> <chr>     <chr>             <chr>             <chr>           <chr>    
#>  1     1 COL:3148… Nisaetus nanus    COL:3148416       accepted        species  
#>  2     1 COL:3148… Circaetus beaudo… COL:3148666       accepted        species  
#>  3     1 COL:3148… Cariama cristata  COL:3148731       accepted        species  
#>  4     1 COL:3148… Chunga burmeiste… COL:3148732       accepted        species  
#>  5     1 COL:3148… Eurypyga helias   COL:3148733       accepted        species  
#>  6     1 COL:3148… Rhynochetos juba… COL:3148734       accepted        species  
#>  7     1 COL:3148… Leptosomus disco… COL:3148735       accepted        species  
#>  8     1 COL:3148… Neotis heuglinii  COL:3148736       accepted        species  
#>  9     1 COL:3148… Neotis ludwigii   COL:3148737       accepted        species  
#> 10     1 COL:3148… Neotis denhami    COL:3148738       accepted        species  
#> # … with 36,326 more rows, and 15 more variables: kingdom <chr>, phylum <chr>,
#> #   class <chr>, order <chr>, family <chr>, genus <chr>, specificEpithet <chr>,
#> #   infraspecificEpithet <chr>, taxonConceptID <chr>, isExtinct <chr>,
#> #   nameAccordingTo <chr>, namePublishedIn <chr>,
#> #   scientificNameAuthorship <chr>, vernacularName <chr>, input <chr>
```
…
Similar functions `filter_id`, `filter_rank`, and `filter_common` take IDs, scientific ranks, or common names, respectively.  Here, we can get taxonomic data on all bird names in the Catalogue of Life:



```r
filter_rank(name = "Aves", rank = "class", provider = "col")
#> # A tibble: 35,398 x 21
#>     sort taxonID scientificName acceptedNameUsa… taxonomicStatus taxonRank kingdom phylum class order family genus
#>    <int> <chr>   <chr>          <chr>            <chr>           <chr>     <chr>   <chr>  <chr> <chr> <chr>  <chr>
#>  1     1 COL:35… Sturnella mag… COL:35520416     accepted        species   Animal… Chord… Aves  Pass… Icter… Stur…
#>  2     1 COL:35… Tauraco porph… COL:35530219     accepted        infraspe… Animal… Chord… Aves  Muso… Musop… Taur…
#>  3     1 COL:35… Pyroderus scu… COL:35534370     accepted        infraspe… Animal… Chord… Aves  Pass… Cotin… Pyro…
#>  4     1 COL:35… Dromaius minor COL:35552206     synonym         infraspe… Animal… Chord… Aves  Casu… Droma… Drom…
#>  5     1 COL:35… Lepidocolapte… COL:35525495     accepted        species   Animal… Chord… Aves  Pass… Furna… Lepi…
#>  6     1 COL:35… Casuarius pap… COL:35552204     synonym         infraspe… Animal… Chord… Aves  Casu… Casua… Casu…
#>  7     1 COL:35… Forpus modest… COL:35536431     accepted        species   Animal… Chord… Aves  Psit… Psitt… Forp…
#>  8     1 COL:35… Pterocnemia p… COL:35552203     synonym         infraspe… Animal… Chord… Aves  Rhei… Rheid… Rhea 
#>  9     1 COL:35… Ceyx lepidus … COL:35532279     accepted        infraspe… Animal… Chord… Aves  Cora… Alced… Ceyx 
#> 10     1 COL:35… Rhea tarapace… COL:35552202     synonym         infraspe… Animal… Chord… Aves  Rhei… Rheid… Rhea 
#> # … with 35,388 more rows, and 9 more variables: specificEpithet <chr>, infraspecificEpithet <chr>, taxonConceptID <chr>,
#> #   isExtinct <chr>, nameAccordingTo <chr>, namePublishedIn <chr>, scientificNameAuthorship <chr>, vernacularName <chr>,
#> #   input <chr>
```
…
