…
``` r
normalized_ligand_activities = normalize_single_cell_ligand_activities(ligand_activities)
```

Then, we combine the ligand activities and cell property scores and
perform correlation and regression analysis. We can prioritize ligands
by ranking them based on the pearson correlation between activity scores
and property
scores.

``` r
output_correlation_analysis = single_ligand_activity_score_regression(normalized_ligand_activities,cell_scores_tbl)
output_correlation_analysis %>% arrange(-pearson_regression) %>% select(pearson_regression, ligand)
## # A tibble: 131 x 2
##    pearson_regression ligand  
##                 <dbl> <chr>   
##  1              0.525 TNC     
##  2              0.497 TFPI    
##  3              0.491 SEMA5A  
##  4              0.488 ANXA1   
##  5              0.473 TNFSF13B
##  6              0.462 IBSP    
##  7              0.449 HDGF    
##  8              0.443 HSP90B1 
##  9              0.431 CALM3   
## 10              0.428 CXCL11  
## # ... with 121 more rows
```
…
``` r
ligand_activities = predict_ligand_activities(geneset = geneset_oi, background_expressed_genes = background_expressed_genes, ligand_target_matrix = ligand_target_matrix, potential_ligands = potential_ligands)
```

Now, we want to rank the ligands based on their ligand activity. In our
validation study, we showed that the pearson correlation coefficient
(PCC) between a ligand’s target predictions and the observed
transcriptional response was the most informative measure to define
ligand activity. Therefore, we will rank the ligands based on their
pearson correlation coefficient. This allows us to prioritize
p-EMT-regulating ligands.

``` r
ligand_activities %>% arrange(-pearson) 
## # A tibble: 131 x 4
##    test_ligand auroc   aupr pearson
##    <chr>       <dbl>  <dbl>   <dbl>
##  1 PTHLH       0.667 0.0720   0.128
##  2 CXCL12      0.680 0.0507   0.123
##  3 AGT         0.676 0.0581   0.120
##  4 TGFB3       0.689 0.0454   0.117
##  5 IL6         0.693 0.0510   0.115
##  6 INHBA       0.695 0.0502   0.113
##  7 ADAM17      0.672 0.0526   0.113
##  8 TNC         0.700 0.0444   0.109
##  9 CTGF        0.680 0.0473   0.108
## 10 FN1         0.679 0.0505   0.108
## # ... with 121 more rows
…
### Interpret the NicheNet analysis output

#### Ligand activity analysis results

A first thing NicheNet does, is prioritizing ligands based on predicted
ligand activity. To see the ranking of these ligands, run the following
command:

``` r
nichenet_output$ligand_activities
## # A tibble: 44 x 6
##    test_ligand auroc  aupr pearson  rank bona_fide_ligand
##    <chr>       <dbl> <dbl>   <dbl> <dbl> <lgl>           
##  1 Ebi3        0.638 0.234  0.197      1 FALSE           
##  2 Il15        0.582 0.163  0.0961     2 TRUE            
##  3 Crlf2       0.549 0.163  0.0758     3 FALSE           
##  4 App         0.499 0.141  0.0655     4 TRUE            
##  5 Tgfb1       0.494 0.140  0.0558     5 TRUE            
##  6 Ptprc       0.536 0.149  0.0554     6 TRUE            
##  7 H2-M3       0.525 0.157  0.0528     7 TRUE            
##  8 Icam1       0.543 0.142  0.0486     8 TRUE            
##  9 Cxcl10      0.531 0.141  0.0408     9 TRUE            
## 10 Adam17      0.517 0.137  0.0359    10 TRUE            
## # ... with 34 more rows
```
…
expressed_ligands = intersect(ligands,expressed_genes_sender)
expressed_receptors = intersect(receptors,expressed_genes_receiver)

potential_ligands = lr_network %>% filter(from %in% expressed_ligands & to %in% expressed_receptors) %>% pull(from) %>% unique()
```

## 4) Perform NicheNet ligand activity analysis: rank the potential ligands based on the presence of their target genes in the gene set of interest (compared to the background set of genes)

``` r
ligand_activities = predict_ligand_activities(geneset = geneset_oi, background_expressed_genes = background_expressed_genes, ligand_target_matrix = ligand_target_matrix, potential_ligands = potential_ligands)

ligand_activities = ligand_activities %>% arrange(-pearson) %>% mutate(rank = rank(desc(pearson)))
ligand_activities
## # A tibble: 44 x 5
##    test_ligand auroc  aupr pearson  rank
##    <chr>       <dbl> <dbl>   <dbl> <dbl>
##  1 Ebi3        0.638 0.234  0.197      1
##  2 Il15        0.582 0.163  0.0961     2
##  3 Crlf2       0.549 0.163  0.0758     3
##  4 App         0.499 0.141  0.0655     4
##  5 Tgfb1       0.494 0.140  0.0558     5
##  6 Ptprc       0.536 0.149  0.0554     6
##  7 H2-M3       0.525 0.157  0.0528     7
##  8 Icam1       0.543 0.142  0.0486     8
##  9 Cxcl10      0.531 0.141  0.0408     9
## 10 Adam17      0.517 0.137  0.0359    10
## # ... with 34 more rows
```
…
``` r
ligand_activities = predict_ligand_activities(geneset = pemt_geneset, background_expressed_genes = background_expressed_genes, ligand_target_matrix = ligand_target_matrix, potential_ligands = potential_ligands)
```

Now, we want to rank the ligands based on their ligand activity. In our
validation study, we showed that the pearson correlation between a
ligand’s target predictions and the observed transcriptional response
was the most informative measure to define ligand activity. Therefore,
we will rank the ligands based on their pearson correlation coefficient.

``` r
ligand_activities %>% arrange(-pearson) 
## # A tibble: 154 x 4
##    test_ligand auroc   aupr pearson
##    <chr>       <dbl>  <dbl>   <dbl>
##  1 PTHLH       0.667 0.0720   0.128
##  2 EDN1        0.682 0.0586   0.126
##  3 CXCL12      0.680 0.0507   0.123
##  4 AGT         0.676 0.0581   0.120
##  5 TGFB3       0.689 0.0454   0.117
##  6 IL6         0.693 0.0510   0.115
##  7 INHBA       0.695 0.0502   0.113
##  8 ADAM17      0.672 0.0526   0.113
##  9 TNC         0.700 0.0444   0.109
## 10 VWF         0.685 0.0490   0.109
## # … with 144 more rows
…
### Interpret the NicheNet analysis output

#### Ligand activity analysis results

A first thing NicheNet does, is prioritizing ligands based on predicted
ligand activity. To see the ranking of these ligands, run the following
command:

``` r
nichenet_output$ligand_activities
## # A tibble: 44 x 6
##    test_ligand auroc  aupr pearson  rank bona_fide_ligand
##    <chr>       <dbl> <dbl>   <dbl> <dbl> <lgl>           
##  1 Ebi3        0.638 0.234  0.197      1 FALSE           
##  2 Il15        0.582 0.163  0.0961     2 TRUE            
##  3 Crlf2       0.549 0.163  0.0758     3 FALSE           
##  4 App         0.499 0.141  0.0655     4 TRUE            
##  5 Tgfb1       0.494 0.140  0.0558     5 TRUE            
##  6 Ptprc       0.536 0.149  0.0554     6 TRUE            
##  7 H2-M3       0.525 0.157  0.0528     7 TRUE            
##  8 Icam1       0.543 0.142  0.0486     8 TRUE            
##  9 Cxcl10      0.531 0.141  0.0408     9 TRUE            
## 10 Adam17      0.517 0.137  0.0359    10 TRUE            
## # ... with 34 more rows
```
…
``` r
nichenet_output$ligand_target_df # weight column = regulatory potential
## # A tibble: 155 x 3
##    ligand target  weight
##    <chr>  <chr>    <dbl>
##  1 Ebi3   Cd274  0.00325
##  2 Ebi3   Cd53   0.00321
##  3 Ebi3   Ddit4  0.00335
##  4 Ebi3   Id3    0.00373
##  5 Ebi3   Ifit3  0.00320
##  6 Ebi3   Irf1   0.00692
##  7 Ebi3   Irf7   0.00312
##  8 Ebi3   Irf9   0.00543
##  9 Ebi3   Parp14 0.00336
## 10 Ebi3   Pdcd4  0.00335
## # ... with 145 more rows
```
…
``` r
nichenet_output$ligand_receptor_df # weight column accords to number of data sources that document this interaction
## # A tibble: 61 x 3
##    ligand receptor weight
##    <chr>  <chr>     <dbl>
##  1 Adam17 Notch1    0.482
##  2 Anxa1  Ccr7      0.222
##  3 Anxa1  Ccr9      0.237
##  4 Anxa1  Cxcr6     0.226
##  5 Anxa1  Itga4     0.201
##  6 App    Ccr7      0.222
##  7 App    Ccr9      0.136
##  8 App    Cxcr6     0.226
##  9 App    Notch1    0.354
## 10 App    Tgfbr2    0.441
## # ... with 51 more rows
```
…
``` r
ligand_activities = predict_ligand_activities(geneset = pemt_geneset, background_expressed_genes = background_expressed_genes, ligand_target_matrix = ligand_target_matrix, potential_ligands = potential_ligands)
```

Now, we want to rank the ligands based on their ligand activity. In our
validation study, we showed that the pearson correlation between a
ligand’s target predictions and the observed transcriptional response
was the most informative measure to define ligand activity. Therefore,
we will rank the ligands based on their pearson correlation coefficient.

``` r
ligand_activities %>% arrange(-pearson)
## # A tibble: 131 x 4
##    test_ligand auroc   aupr pearson
##    <chr>       <dbl>  <dbl>   <dbl>
##  1 PTHLH       0.667 0.0720   0.128
##  2 CXCL12      0.680 0.0507   0.123
##  3 AGT         0.676 0.0581   0.120
##  4 TGFB3       0.689 0.0454   0.117
##  5 IL6         0.693 0.0510   0.115
##  6 INHBA       0.695 0.0502   0.113
##  7 ADAM17      0.672 0.0526   0.113
##  8 TNC         0.700 0.0444   0.109
##  9 CTGF        0.680 0.0473   0.108
## 10 FN1         0.679 0.0505   0.108
## # ... with 121 more rows
…
``` r
target_prediction_performances_discrete_fisher = pemt_gene_predictions_top20_list %>% lapply(calculate_fraction_top_predicted_fisher, quantile_cutoff = 0.95) 
target_prediction_performances_discrete_fisher %>% unlist() %>% mean()
## [1] 5.647773e-10
```

Finally, we will look at which p-EMT genes are well-predicted in every
cross-validation round.

``` r
# get top predicted genes
top_predicted_genes = seq(length(pemt_gene_predictions_top20_list)) %>% lapply(get_top_predicted_genes,pemt_gene_predictions_top20_list) %>% reduce(full_join, by = c("gene","true_target"))
top_predicted_genes %>% filter(true_target)
## # A tibble: 28 x 4
##    gene    true_target predicted_top_target_roun~ predicted_top_target_rou~
##    <chr>   <lgl>       <lgl>                      <lgl>                    
##  1 COL1A1  TRUE        TRUE                       TRUE                     
##  2 MMP2    TRUE        TRUE                       TRUE                     
##  3 MMP1    TRUE        TRUE                       TRUE                     
##  4 PLAU    TRUE        TRUE                       TRUE                     
##  5 TIMP3   TRUE        TRUE                       TRUE                     
##  6 MT2A    TRUE        TRUE                       TRUE                     
##  7 INHBA   TRUE        TRUE                       TRUE                     
##  8 COL4A2  TRUE        TRUE                       TRUE                     
##  9 MMP10   TRUE        TRUE                       TRUE                     
## 10 COL17A1 TRUE        TRUE                       TRUE                     
## # ... with 18 more rows
```
…
