…
## Get data


```r
res <- pg_data(doi = '10.1594/PANGAEA.807580')
res[[1]]
#> <Pangaea data> 10.1594/PANGAEA.807580
#>   parent doi: 10.1594/PANGAEA.807580
#>   url:        https://doi.org/10.1594/PANGAEA.807580
#>   citation:   Schiebel, Ralf; Waniek, Joanna J; Bork, Matthias; Hemleben, Christoph (2001): Physical oceanography during METEOR cruise M36/6. PANGAEA, https://doi.org/10.1594/PANGAEA.807580, In supplement to: Schiebel, R et al. (2001): Planktic foraminiferal production stimulated by chlorophyll redistribution and entrainment of nutrients. Deep Sea Research Part I: Oceanographic Research Papers, 48(3), 721-740, https://doi.org/10.1016/S0967-0637(00)00065-0
#>   path:       /Users/sckott/Library/Caches/R/pangaear/10_1594_PANGAEA_807580.txt
#>   data:
#> # A tibble: 32,179 x 13
#>    Event       `Date/Time`   Latitude Longitude `Elevation [m]` `Depth water [m…
#>    <chr>       <chr>            <dbl>     <dbl>           <int>            <dbl>
#>  1 M36/6-CTD-… 1996-10-14T1…     49.0     -16.5           -4802             0   
#>  2 M36/6-CTD-… 1996-10-14T1…     49.0     -16.5           -4802             0.99
#>  3 M36/6-CTD-… 1996-10-14T1…     49.0     -16.5           -4802             1.98
#>  4 M36/6-CTD-… 1996-10-14T1…     49.0     -16.5           -4802             2.97
#>  5 M36/6-CTD-… 1996-10-14T1…     49.0     -16.5           -4802             3.96
#>  6 M36/6-CTD-… 1996-10-14T1…     49.0     -16.5           -4802             4.96
#>  7 M36/6-CTD-… 1996-10-14T1…     49.0     -16.5           -4802             5.95
#>  8 M36/6-CTD-… 1996-10-14T1…     49.0     -16.5           -4802             6.94
#>  9 M36/6-CTD-… 1996-10-14T1…     49.0     -16.5           -4802             7.93
#> 10 M36/6-CTD-… 1996-10-14T1…     49.0     -16.5           -4802             8.92
#> # … with 32,169 more rows, and 7 more variables: Press [dbar] <int>,
#> #   Temp [°C] <dbl>, Sal <dbl>, Tpot [°C] <dbl>, Sigma-theta [kg/m**3] <dbl>,
#> #   Sigma in situ [kg/m**3] <dbl>, Cond [mS/cm] <dbl>
```

Search for data then pass DOI to data function.


```r
res <- pg_search(query = 'water', bbox = c(-124.2, 41.8, -116.8, 46.1), count = 3)
pg_data(res$doi[3])[1:3]
#> [[1]]
#> <Pangaea data> 10.1594/PANGAEA.406110
#>   parent doi: 10.1594/PANGAEA.406110
#>   url:        https://doi.org/10.1594/PANGAEA.406110
#>   citation:   WOCE Surface Velocity Program, SVP (2006): Water temperature and current velocity from surface drifter SVP_9616641. PANGAEA, https://doi.org/10.1594/PANGAEA.406110
#>   path:       /Users/sckott/Library/Caches/R/pangaear/10_1594_PANGAEA_406110.txt
#>   data:
#> # A tibble: 101 x 10
#>    `Date/Time`  Latitude Longitude `Depth water [m… `Temp [°C]` `Cur vel U [cm/…
#>    <chr>           <dbl>     <dbl>            <int>       <dbl>            <dbl>
#>  1 1996-11-11T…     41.6     -125.                0        12.7            NA   
#>  2 1996-11-11T…     41.6     -125.                0        12.5            11.3 
#>  3 1996-11-12T…     41.6     -124.                0        12.4             2.91
#>  4 1996-11-12T…     41.7     -124.                0        12.3             3.64
#>  5 1996-11-12T…     41.7     -124.                0        11.9            23.4 
#>  6 1996-11-12T…     41.7     -124.                0        11.4            21.4 
#>  7 1996-11-13T…     41.8     -124.                0        11.1             0.21
#>  8 1996-11-13T…     41.8     -124.                0        11.2            -0.86
#>  9 1996-11-13T…     41.8     -124.                0        11.1             1.51
#> 10 1996-11-13T…     41.9     -124.                0        11.0            -5.58
#> # … with 91 more rows, and 4 more variables: Cur vel V [cm/s] <dbl>,
#> #   Latitude e <dbl>, Longitude e <dbl>, Code <int>
…
```r
res <- pg_data(doi = '10.1594/PANGAEA.807580')
res[[1]]
```

```
#> <Pangaea data> 10.1594/PANGAEA.807580
#>   parent doi: 10.1594/PANGAEA.807580
#>   url:        https://doi.org/10.1594/PANGAEA.807580
#>   citation:   Schiebel, Ralf; Waniek, Joanna J; Bork, Matthias; Hemleben, Christoph (2001): Physical oceanography during METEOR cruise M36/6. PANGAEA, https://doi.org/10.1594/PANGAEA.807580, In supplement to: Schiebel, R et al. (2001): Planktic foraminiferal production stimulated by chlorophyll redistribution and entrainment of nutrients. Deep Sea Research Part I: Oceanographic Research Papers, 48(3), 721-740, https://doi.org/10.1016/S0967-0637(00)00065-0
#>   path:       /Users/sckott/Library/Caches/R/pangaear/10_1594_PANGAEA_807580.txt
#>   data:
#> # A tibble: 32,179 x 13
#>    Event       `Date/Time`    Latitude Longitude `Elevation [m]` `Depth water [m… `Press [dbar]` `Temp [°C]`   Sal `Tpot [°C]` `Sigma-theta [kg/m… `Sigma in situ [kg… `Cond [mS/cm]`
#>    <chr>       <chr>             <dbl>     <dbl>           <int>            <dbl>          <int>       <dbl> <dbl>       <dbl>               <dbl>               <dbl>          <dbl>
#>  1 M36/6-CTD-… 1996-10-14T12…     49.0     -16.5           -4802             0                 0        15.7  35.7        15.7                26.4                26.4           44.4
#>  2 M36/6-CTD-… 1996-10-14T12…     49.0     -16.5           -4802             0.99              1        15.7  35.7        15.7                26.4                26.4           44.4
#>  3 M36/6-CTD-… 1996-10-14T12…     49.0     -16.5           -4802             1.98              2        15.7  35.7        15.7                26.4                26.4           44.4
#>  4 M36/6-CTD-… 1996-10-14T12…     49.0     -16.5           -4802             2.97              3        15.7  35.7        15.7                26.4                26.4           44.4
#>  5 M36/6-CTD-… 1996-10-14T12…     49.0     -16.5           -4802             3.96              4        15.7  35.7        15.7                26.4                26.4           44.4
#>  6 M36/6-CTD-… 1996-10-14T12…     49.0     -16.5           -4802             4.96              5        15.7  35.7        15.7                26.4                26.4           44.4
#>  7 M36/6-CTD-… 1996-10-14T12…     49.0     -16.5           -4802             5.95              6        15.7  35.7        15.7                26.4                26.4           44.4
#>  8 M36/6-CTD-… 1996-10-14T12…     49.0     -16.5           -4802             6.94              7        15.7  35.7        15.7                26.4                26.4           44.4
#>  9 M36/6-CTD-… 1996-10-14T12…     49.0     -16.5           -4802             7.93              8        15.7  35.7        15.7                26.4                26.4           44.4
#> 10 M36/6-CTD-… 1996-10-14T12…     49.0     -16.5           -4802             8.92              9        15.7  35.7        15.7                26.4                26.4           44.4
#> # … with 32,169 more rows
```
…
```r
res <- pg_search(query = 'water', bbox = c(-124.2, 41.8, -116.8, 46.1), count = 3)
pg_data(res$doi[3])[1:3]
```

```
#> [[1]]
#> <Pangaea data> 10.1594/PANGAEA.405695
#>   parent doi: 10.1594/PANGAEA.405695
#>   url:        https://doi.org/10.1594/PANGAEA.405695
#>   citation:   WOCE Surface Velocity Program, SVP (2006): Water temperature and current velocity from surface drifter SVP_9524470. PANGAEA, https://doi.org/10.1594/PANGAEA.405695
#>   path:       /Users/sckott/Library/Caches/R/pangaear/10_1594_PANGAEA_405695.txt
#>   data:
#> # A tibble: 192 x 10
#>    `Date/Time`      Latitude Longitude `Depth water [m]` `Temp [°C]` `UC [cm/s]` `VC [cm/s]` `Lat e` `Lon e`  Code
#>    <chr>               <dbl>     <dbl>             <int>       <dbl>       <dbl>       <dbl>   <dbl>   <dbl> <int>
#>  1 1995-12-21T18:00     42.9     -125.                 0        12.4       NA          NA     0.0001  0.0001     1
#>  2 1995-12-22T00:00     42.9     -125.                 0        12.4        4.24      -35.2   0       0          1
#>  3 1995-12-22T06:00     42.8     -125.                 0        12.4       -7.8       -38.7   0.0002  0.0001     1
#>  4 1995-12-22T12:00     42.7     -125.                 0        12.4      -12.7       -23.1   0.0001  0.0001     1
#>  5 1995-12-22T18:00     42.7     -125.                 0        12.4      -15.1       -13.7   0       0          1
#>  6 1995-12-23T00:00     42.7     -125.                 0        12.3      -24.1        -9.15  0.0001  0.0001     1
#>  7 1995-12-23T06:00     42.7     -125.                 0        12.3      -38.4         0.65  0.0001  0.0001     1
#>  8 1995-12-23T12:00     42.7     -125.                 0        12.3      -37.2        15.8   0       0          1
#>  9 1995-12-23T18:00     42.7     -125.                 0        12.3      -25.4        29.6   0.0001  0.0001     1
#> 10 1995-12-24T00:00     42.8     -125.                 0        12.4      -18.5        35.1   0.0002  0.0002     1
#> # … with 182 more rows
…
```r
pg_list_identifiers(from = Sys.Date() - 2, until = Sys.Date())
```

### List sets


```r
pg_list_sets()
```

```
#> # A tibble: 282 x 2
#>    setSpec   setName                                        
#>    <chr>     <chr>                                          
#>  1 ACD       PANGAEA set / keyword 'ACD' (2 data sets)      
#>  2 ASPS      PANGAEA set / keyword 'ASPS' (59 data sets)    
#>  3 AWIXRFraw PANGAEA set / keyword 'AWIXRFraw' (1 data sets)
#>  4 BAH1960   PANGAEA set / keyword 'BAH1960' (2 data sets)  
#>  5 BAH1961   PANGAEA set / keyword 'BAH1961' (2 data sets)  
#>  6 BAH1962   PANGAEA set / keyword 'BAH1962' (7 data sets)  
#>  7 BAH1963   PANGAEA set / keyword 'BAH1963' (7 data sets)  
#>  8 BAH1964   PANGAEA set / keyword 'BAH1964' (7 data sets)  
#>  9 BAH1965   PANGAEA set / keyword 'BAH1965' (7 data sets)  
#> 10 BAH1966   PANGAEA set / keyword 'BAH1966' (6 data sets)  
#> # … with 272 more rows
```
…
```r
res <- pg_data(doi = '10.1594/PANGAEA.807580')
res[[1]]
```

```
#> <Pangaea data> 10.1594/PANGAEA.807580
#>   parent doi: 10.1594/PANGAEA.807580
#>   url:        https://doi.org/10.1594/PANGAEA.807580
#>   citation:   Schiebel, Ralf; Waniek, Joanna J; Bork, Matthias; Hemleben, Christoph (2001): Physical oceanography during METEOR cruise M36/6. PANGAEA, https://doi.org/10.1594/PANGAEA.807580, In supplement to: Schiebel, R et al. (2001): Planktic foraminiferal production stimulated by chlorophyll redistribution and entrainment of nutrients. Deep Sea Research Part I: Oceanographic Research Papers, 48(3), 721-740, https://doi.org/10.1016/S0967-0637(00)00065-0
#>   path:       /Users/sckott/Library/Caches/R/pangaear/10_1594_PANGAEA_807580.txt
#>   data:
#> # A tibble: 32,179 x 13
#>    Event       `Date/Time`    Latitude Longitude `Elevation [m]` `Depth water [m… `Press [dbar]` `Temp [°C]`   Sal `Tpot [°C]` `Sigma-theta [kg/m… `Sigma in situ [kg… `Cond [mS/cm]`
#>    <chr>       <chr>             <dbl>     <dbl>           <int>            <dbl>          <int>       <dbl> <dbl>       <dbl>               <dbl>               <dbl>          <dbl>
#>  1 M36/6-CTD-… 1996-10-14T12…     49.0     -16.5           -4802             0                 0        15.7  35.7        15.7                26.4                26.4           44.4
#>  2 M36/6-CTD-… 1996-10-14T12…     49.0     -16.5           -4802             0.99              1        15.7  35.7        15.7                26.4                26.4           44.4
#>  3 M36/6-CTD-… 1996-10-14T12…     49.0     -16.5           -4802             1.98              2        15.7  35.7        15.7                26.4                26.4           44.4
#>  4 M36/6-CTD-… 1996-10-14T12…     49.0     -16.5           -4802             2.97              3        15.7  35.7        15.7                26.4                26.4           44.4
#>  5 M36/6-CTD-… 1996-10-14T12…     49.0     -16.5           -4802             3.96              4        15.7  35.7        15.7                26.4                26.4           44.4
#>  6 M36/6-CTD-… 1996-10-14T12…     49.0     -16.5           -4802             4.96              5        15.7  35.7        15.7                26.4                26.4           44.4
#>  7 M36/6-CTD-… 1996-10-14T12…     49.0     -16.5           -4802             5.95              6        15.7  35.7        15.7                26.4                26.4           44.4
#>  8 M36/6-CTD-… 1996-10-14T12…     49.0     -16.5           -4802             6.94              7        15.7  35.7        15.7                26.4                26.4           44.4
#>  9 M36/6-CTD-… 1996-10-14T12…     49.0     -16.5           -4802             7.93              8        15.7  35.7        15.7                26.4                26.4           44.4
#> 10 M36/6-CTD-… 1996-10-14T12…     49.0     -16.5           -4802             8.92              9        15.7  35.7        15.7                26.4                26.4           44.4
#> # … with 32,169 more rows
```
…
```r
res <- pg_search(query = 'water', bbox = c(-124.2, 41.8, -116.8, 46.1), count = 3)
pg_data(res$doi[3])[1:3]
```

```
#> [[1]]
#> <Pangaea data> 10.1594/PANGAEA.405695
#>   parent doi: 10.1594/PANGAEA.405695
#>   url:        https://doi.org/10.1594/PANGAEA.405695
#>   citation:   WOCE Surface Velocity Program, SVP (2006): Water temperature and current velocity from surface drifter SVP_9524470. PANGAEA, https://doi.org/10.1594/PANGAEA.405695
#>   path:       /Users/sckott/Library/Caches/R/pangaear/10_1594_PANGAEA_405695.txt
#>   data:
#> # A tibble: 192 x 10
#>    `Date/Time`      Latitude Longitude `Depth water [m]` `Temp [°C]` `UC [cm/s]` `VC [cm/s]` `Lat e` `Lon e`  Code
#>    <chr>               <dbl>     <dbl>             <int>       <dbl>       <dbl>       <dbl>   <dbl>   <dbl> <int>
#>  1 1995-12-21T18:00     42.9     -125.                 0        12.4       NA          NA     0.0001  0.0001     1
#>  2 1995-12-22T00:00     42.9     -125.                 0        12.4        4.24      -35.2   0       0          1
#>  3 1995-12-22T06:00     42.8     -125.                 0        12.4       -7.8       -38.7   0.0002  0.0001     1
#>  4 1995-12-22T12:00     42.7     -125.                 0        12.4      -12.7       -23.1   0.0001  0.0001     1
#>  5 1995-12-22T18:00     42.7     -125.                 0        12.4      -15.1       -13.7   0       0          1
#>  6 1995-12-23T00:00     42.7     -125.                 0        12.3      -24.1        -9.15  0.0001  0.0001     1
#>  7 1995-12-23T06:00     42.7     -125.                 0        12.3      -38.4         0.65  0.0001  0.0001     1
#>  8 1995-12-23T12:00     42.7     -125.                 0        12.3      -37.2        15.8   0       0          1
#>  9 1995-12-23T18:00     42.7     -125.                 0        12.3      -25.4        29.6   0.0001  0.0001     1
#> 10 1995-12-24T00:00     42.8     -125.                 0        12.4      -18.5        35.1   0.0002  0.0002     1
#> # … with 182 more rows
…
```r
pg_list_identifiers(from = Sys.Date() - 2, until = Sys.Date())
```

### List sets


```r
pg_list_sets()
```

```
#> # A tibble: 282 x 2
#>    setSpec   setName                                        
#>    <chr>     <chr>                                          
#>  1 ACD       PANGAEA set / keyword 'ACD' (2 data sets)      
#>  2 ASPS      PANGAEA set / keyword 'ASPS' (59 data sets)    
#>  3 AWIXRFraw PANGAEA set / keyword 'AWIXRFraw' (1 data sets)
#>  4 BAH1960   PANGAEA set / keyword 'BAH1960' (2 data sets)  
#>  5 BAH1961   PANGAEA set / keyword 'BAH1961' (2 data sets)  
#>  6 BAH1962   PANGAEA set / keyword 'BAH1962' (7 data sets)  
#>  7 BAH1963   PANGAEA set / keyword 'BAH1963' (7 data sets)  
#>  8 BAH1964   PANGAEA set / keyword 'BAH1964' (7 data sets)  
#>  9 BAH1965   PANGAEA set / keyword 'BAH1965' (7 data sets)  
#> 10 BAH1966   PANGAEA set / keyword 'BAH1966' (6 data sets)  
#> # … with 272 more rows
```
…
