…
```r
library(europepmc)
```

## Search Europe PMC

The search covers both metadata (e.g. abstracts or title) and full texts. To
build your query, please refer to the comprehensive guidance on how to search
Europe PMC: <https://europepmc.org/help>. Provide your query in the Europe
PMC search syntax to `epmc_search()`. 


```r
europepmc::epmc_search(query = '"2019-nCoV" OR "2019nCoV"')
#> # A tibble: 100 × 29
#>    id       source pmid     doi   title authorString journalTitle issue journalVolume
#>    <chr>    <chr>  <chr>    <chr> <chr> <chr>        <chr>        <chr> <chr>        
#>  1 33406042 MED    33406042 10.1… 2019… Xiao M, Liu… IEEE/ACM Tr… 4     18           
#>  2 34059225 MED    34059225 10.1… Livi… Santillan-G… Med Intensi… 5     45           
#>  3 34181072 MED    34181072 10.1… Self… Varghese JJ… Support Car… <NA>  <NA>         
#>  4 34108756 MED    34108756 10.2… COVI… Gabarron E,… Bull World … 6     99           
#>  5 33197230 MED    33197230 10.2… Sear… Lazarus JV,… J Med Inter… 11    22           
#>  6 33181701 MED    33181701 10.1… The … Kim YJ, Qia… Medicine (B… 46    99           
#>  7 34291001 MED    34291001 10.4… How … Moradi G, G… Med J Islam… <NA>  35           
#>  8 33521188 MED    33521188 10.1… Tota… Chen AZ, Sh… Arthroplast… <NA>  8            
#>  9 33009914 MED    33009914 10.1… A da… Zhu Z, Meng… Database (O… <NA>  2020         
#> 10 32341597 MED    32341597 10.1… Obes… Carretero G… Rev Clin Es… 6     220          
#> # … with 90 more rows, and 20 more variables: pubYear <chr>, journalIssn <chr>,
#> #   pageInfo <chr>, pubType <chr>, isOpenAccess <chr>, inEPMC <chr>,
#> #   inPMC <chr>, hasPDF <chr>, hasBook <chr>, hasSuppl <chr>,
#> #   citedByCount <int>, hasReferences <chr>, hasTextMinedTerms <chr>,
#> #   hasDbCrossReferences <chr>, hasLabsLinks <chr>,
#> #   hasTMAccessionNumbers <chr>, firstIndexDate <chr>,
#> #   firstPublicationDate <chr>, pmcid <chr>, versionNumber <int>
```
…
By default, `epmc_search()` returns 100 records. To adjust the limit, simply use
the `limit` parameter.

See vignette [Introducing europepmc, an R interface to Europe PMC RESTful API](https://docs.ropensci.org/europepmc/articles/introducing-europepmc.html) for a long-form documentation about how to search Europe PMC with this client.

## Creating proper review graphs with `epmc_hits_trend()`

There is also a nice function allowing you to easily create review graphs like described in Maëlle
Salmon's [blog post](https://masalmon.eu/2017/05/14/evergreenreviewgraph/):


```r
tt_oa <- europepmc::epmc_hits_trend("Malaria", period = 1995:2019, synonym = FALSE)
tt_oa
#> # A tibble: 25 × 3
#>     year all_hits query_hits
#>    <int>    <dbl>      <dbl>
#>  1  1995   449064       1495
#>  2  1996   458526       1572
#>  3  1997   456744       1873
#>  4  1998   474613       1762
#>  5  1999   493745       1947
#>  6  2000   532019       2092
#>  7  2001   545674       2187
#>  8  2002   561425       2378
#>  9  2003   588572       2612
#> 10  2004   628141       2845
#> # … with 15 more rows
…
