…
The `$summary` slot has the number of taxa in the dataset


```r
res$summary
#> $spp
#> [1] 602
```

The `$by_rank` slot has the breakdown of taxa within each rank category, as a count and percentage.


```r
res$by_rank
#> # A tibble: 22 x 3
#>    rank      count percent
#>    <chr>     <int>   <dbl>
#>  1 genus       124      21
#>  2 species     112      19
#>  3 family       73      12
#>  4 clade        72      12
#>  5 tribe        58      10
#>  6 subfamily    45       7
#>  7 order        41       7
#>  8 subtribe     18       3
#>  9 class        12       2
#> 10 suborder      9       1
#> # … with 12 more rows
```

The `$by_rank_name` slot has the breakdown of taxa ...


```r
res$by_rank_name
#> # A tibble: 602 x 4
#>    name                     rank      count percent
#>    <chr>                    <chr>     <int>   <dbl>
#>  1 50 kb inversion clade    clade         1       0
#>  2 Abrodictyum              genus         1       0
#>  3 Abrodictyum asae-grayi   species       1       0
#>  4 Acacia                   genus         1       0
#>  5 Acacia jonesii           species       1       0
#>  6 Acacieae                 tribe         1       0
#>  7 Acalypheae               tribe         1       0
#>  8 Acalyphoideae            subfamily     1       0
#>  9 Acridocarpus             genus         1       0
#> 10 Acridocarpus spectabilis species       1       0
#> # … with 592 more rows
```

The `$by_within_rank` slot has the breakdown of number of records within each taxon within each rank grouping.


```r
res$by_within_rank[1:2]
#> $clade
#> # A tibble: 72 x 3
#>    name                         count percent
#>    <chr>                        <int>   <dbl>
#>  1 50 kb inversion clade            1       1
#>  2 Amniota                          1       1
#>  3 apioid superclade                1       1
#>  4 Archelosauria                    1       1
#>  5 Archosauria                      1       1
#>  6 asterids                         1       1
#>  7 Bacteroidetes/Chlorobi group     1       1
#>  8 Bifurcata                        1       1
#>  9 Bilateria                        1       1
#> 10 BOP clade                        1       1
#> # … with 62 more rows
#> 
#> $genus
#> # A tibble: 124 x 3
#>    name          count percent
#>    <chr>         <int>   <dbl>
#>  1 Abrodictyum       1       1
#>  2 Acacia            1       1
#>  3 Acridocarpus      1       1
#>  4 Adiantum          1       1
#>  5 Agapetes          1       1
#>  6 Aglaia            1       1
#>  7 Aiouea            1       1
#>  8 Alepidea          1       1
#>  9 Allium            1       1
#> 10 Allocasuarina     1       1
#> # … with 114 more rows
```
…
