…
## Using B.C. Geographic Warehouse (BCGW) layer names

If you are familiar with the [B.C. Geographic Warehouse (BCGW)](https://www2.gov.bc.ca/gov/content/data/geographic-data-services/bc-spatial-data-infrastructure/bc-geographic-warehouse),
you may already know the name of a layer that you want from the BCGW.
`bcdc_query_geodata()` (as well as all other related functions)
supports supplying that name directly. For example, the
[record for the B.C. airports layer](https://catalogue.data.gov.bc.ca/dataset/bc-airports#object-description)
shows that the object name is `WHSE_IMAGERY_AND_BASE_MAPS.GSR_AIRPORTS_SVW`, and
we can use that in `bcdc_query_geodata()`:


```r
# Look at the columns available:
bcdc_describe_feature("WHSE_IMAGERY_AND_BASE_MAPS.GSR_AIRPORTS_SVW")
#> # A tibble: 42 × 5
#>    col_name                      sticky remote_col_type local_col_type column_comments              
#>    <chr>                         <lgl>  <chr>           <chr>          <chr>                        
#>  1 id                            TRUE   xsd:string      character      <NA>                         
#>  2 CUSTODIAN_ORG_DESCRIPTION     TRUE   xsd:string      character      CUSTODIAN_ORG_DESCRIPTION co…
#>  3 BUSINESS_CATEGORY_CLASS       TRUE   xsd:string      character      BUSINESS_CATEGORY_CLASS desi…
#>  4 BUSINESS_CATEGORY_DESCRIPTION TRUE   xsd:string      character      BUSINESS_CATEGORY_DESCRIPTIO…
#>  5 OCCUPANT_TYPE_DESCRIPTION     TRUE   xsd:string      character      OCCUPANT_TYPE_DESCRIPTION co…
#>  6 SOURCE_DATA_ID                TRUE   xsd:string      character      SOURCE_DATA_ID is a unique o…
#>  7 SUPPLIED_SOURCE_ID_IND        TRUE   xsd:string      character      SUPPLIED_SOURCE_ID_IND is an…
#>  8 AIRPORT_NAME                  TRUE   xsd:string      character      AIRPORT_NAME is a business n…
#>  9 DESCRIPTION                   FALSE  xsd:string      character      DESCRIPTION describes the Oc…
#> 10 PHYSICAL_ADDRESS              FALSE  xsd:string      character      PHYSICAL_ADDRESS contains th…
#> # … with 32 more rows
…
### `bcdc_get_data()`

Once you have located the B.C. Data Catalogue record with the data you want, you can use `bcdata::bcdc_get_data()` to download and read the data from the record.  You can use the record name, permanent ID or the result from `bcdc_get_record()`. Let's look at the B.C. Highway Web Cameras data:


```r
## Get the data resource for the `bc-highway-cams` catalogue record
bcdc_get_data("bc-highway-cams")
#> # A tibble: 917 × 19
#>    links_bchighwaycam  links_imageDisplay links_imageThumbn… links_replayTheDay    id highway_number
#>    <chr>               <chr>              <chr>              <chr>              <dbl> <chr>         
#>  1 http://images.driv… http://images.dri… http://images.dri… http://images.dri…     2 5             
#>  2 http://images.driv… http://images.dri… http://images.dri… http://images.dri…     5 3             
#>  3 http://images.driv… http://images.dri… http://images.dri… http://images.dri…     6 16            
#>  4 http://images.driv… http://images.dri… http://images.dri… http://images.dri…     7 1             
#>  5 http://images.driv… http://images.dri… http://images.dri… http://images.dri…     8 1             
#>  6 http://images.driv… http://images.dri… http://images.dri… http://images.dri…     9 19            
#>  7 http://images.driv… http://images.dri… http://images.dri… http://images.dri…    10 97            
#>  8 http://images.driv… http://images.dri… http://images.dri… http://images.dri…    11 1             
#>  9 http://images.driv… http://images.dri… http://images.dri… http://images.dri…    12 1             
#> 10 http://images.driv… http://images.dri… http://images.dri… http://images.dri…    13 99            
#> # … with 907 more rows, and 13 more variables: highway_locationDescription <chr>, camName <chr>,
#> #   caption <chr>, credit <chr>, orientation <chr>, latitude <dbl>, longitude <dbl>,
#> #   imageStats_updatePeriodMean <chr>, imageStats_updatePeriodStdDev <dbl>, markedDelayed <dbl>,
#> #   updatePeriodMean <dbl>, updatePeriodStdDev <dbl>, fetchMean <dbl>

## OR use the permanent ID, which is better for scripts or non-interactive use
bcdc_get_data("6b39a910-6c77-476f-ac96-7b4f18849b1c")
#> # A tibble: 917 × 19
#>    links_bchighwaycam  links_imageDisplay links_imageThumbn… links_replayTheDay    id highway_number
#>    <chr>               <chr>              <chr>              <chr>              <dbl> <chr>         
#>  1 http://images.driv… http://images.dri… http://images.dri… http://images.dri…     2 5             
#>  2 http://images.driv… http://images.dri… http://images.dri… http://images.dri…     5 3             
#>  3 http://images.driv… http://images.dri… http://images.dri… http://images.dri…     6 16            
#>  4 http://images.driv… http://images.dri… http://images.dri… http://images.dri…     7 1             
#>  5 http://images.driv… http://images.dri… http://images.dri… http://images.dri…     8 1             
#>  6 http://images.driv… http://images.dri… http://images.dri… http://images.dri…     9 19            
#>  7 http://images.driv… http://images.dri… http://images.dri… http://images.dri…    10 97            
#>  8 http://images.driv… http://images.dri… http://images.dri… http://images.dri…    11 1             
#>  9 http://images.driv… http://images.dri… http://images.dri… http://images.dri…    12 1             
#> 10 http://images.driv… http://images.dri… http://images.dri… http://images.dri…    13 99            
#> # … with 907 more rows, and 13 more variables: highway_locationDescription <chr>, camName <chr>,
#> #   caption <chr>, credit <chr>, orientation <chr>, latitude <dbl>, longitude <dbl>,
#> #   imageStats_updatePeriodMean <chr>, imageStats_updatePeriodStdDev <dbl>, markedDelayed <dbl>,
#> #   updatePeriodMean <dbl>, updatePeriodStdDev <dbl>, fetchMean <dbl>

## OR use the result from bcdc_get_record()
my_record <- bcdc_get_record("6b39a910-6c77-476f-ac96-7b4f18849b1c")
bcdc_get_data(my_record)
#> # A tibble: 917 × 19
#>    links_bchighwaycam  links_imageDisplay links_imageThumbn… links_replayTheDay    id highway_number
#>    <chr>               <chr>              <chr>              <chr>              <dbl> <chr>         
#>  1 http://images.driv… http://images.dri… http://images.dri… http://images.dri…     2 5             
#>  2 http://images.driv… http://images.dri… http://images.dri… http://images.dri…     5 3             
#>  3 http://images.driv… http://images.dri… http://images.dri… http://images.dri…     6 16            
#>  4 http://images.driv… http://images.dri… http://images.dri… http://images.dri…     7 1             
#>  5 http://images.driv… http://images.dri… http://images.dri… http://images.dri…     8 1             
#>  6 http://images.driv… http://images.dri… http://images.dri… http://images.dri…     9 19            
#>  7 http://images.driv… http://images.dri… http://images.dri… http://images.dri…    10 97            
#>  8 http://images.driv… http://images.dri… http://images.dri… http://images.dri…    11 1             
#>  9 http://images.driv… http://images.dri… http://images.dri… http://images.dri…    12 1             
#> 10 http://images.driv… http://images.dri… http://images.dri… http://images.dri…    13 99            
#> # … with 907 more rows, and 13 more variables: highway_locationDescription <chr>, camName <chr>,
#> #   caption <chr>, credit <chr>, orientation <chr>, latitude <dbl>, longitude <dbl>,
#> #   imageStats_updatePeriodMean <chr>, imageStats_updatePeriodStdDev <dbl>, markedDelayed <dbl>,
#> #   updatePeriodMean <dbl>, updatePeriodStdDev <dbl>, fetchMean <dbl>
```
…
We see there are two data files or resources available in this record, so we need to tell `bcdc_get_data()` which one we want. When used interactively, `bcdc_get_data()` will prompt you with the list of available resources through `bcdata` and ask you to select the resource you want. The resource ID for each data set is available _in_ the metadata record ☝️:


```r
## Get the txt data resource from the `bc-schools-programs-offered-in-schools`
## catalogue record
bcdc_get_data("b1f27d1c-244a-410e-a361-931fac62a524", resource = 'a393f8cf-51ec-42c6-8449-4cea4c75385c')
#> # A tibble: 16,152 × 24
#>    `Data Level` `School Year` `Facility Type` `Public Or Independ… `District Numbe… `District Name` 
#>    <chr>        <chr>         <chr>           <chr>                <chr>            <chr>           
#>  1 SCHOOL LEVEL 2005/2006     STANDARD        BC Public School     005              Southeast Koote…
#>  2 SCHOOL LEVEL 2006/2007     STANDARD        BC Public School     005              Southeast Koote…
#>  3 SCHOOL LEVEL 2007/2008     STANDARD        BC Public School     005              Southeast Koote…
#>  4 SCHOOL LEVEL 2005/2006     STANDARD        BC Public School     005              Southeast Koote…
#>  5 SCHOOL LEVEL 2006/2007     STANDARD        BC Public School     005              Southeast Koote…
#>  6 SCHOOL LEVEL 2007/2008     STANDARD        BC Public School     005              Southeast Koote…
#>  7 SCHOOL LEVEL 2008/2009     STANDARD        BC Public School     005              Southeast Koote…
#>  8 SCHOOL LEVEL 2009/2010     STANDARD        BC Public School     005              Southeast Koote…
#>  9 SCHOOL LEVEL 2010/2011     STANDARD        BC Public School     005              Southeast Koote…
#> 10 SCHOOL LEVEL 2011/2012     STANDARD        BC Public School     005              Southeast Koote…
#> # … with 16,142 more rows, and 18 more variables: School Number <chr>, School Name <chr>,
#> #   Has Eng Lang Learner Prog <lgl>, Has Core French <lgl>, Has Early French Immersion <lgl>,
#> #   Has Late French Immersion <lgl>, Has Prog Francophone <lgl>,
#> #   Has Any French Immersion Prog <lgl>, Has Any French Prog <lgl>, Has Aborig Supp Services <lgl>,
#> #   Has Other Appr Aborig Prog <lgl>, Has Aborig Lang And Cult <lgl>, Has Continuing Ed Prog <lgl>,
#> #   Has Distributed Learn Prog <lgl>, Has Career Prep Prog <lgl>, Has Coop Prog <lgl>,
#> #   Has Apprenticeship Prog <lgl>, Has Career Technical Prog <lgl>
```
…
## Get the metadata for the B.C. Regional Districts catalogue record
bc_regional_districts_metadata <- bcdc_get_record("d1aff64e-dbfe-45a6-af97-582b7f6418b9")

## We can see in the search results, and in the metadata record, that this record has a `"wms"`
## resource format, indicating that it is available as a Web Feature Service and thus
## we can query it using `bcdc_query_geodata()`

## Have a quick look at the geospatial columns to help with filter or select
bcdc_describe_feature(bc_regional_districts_metadata)
#> # A tibble: 21 × 5
#>    col_name                 sticky remote_col_type local_col_type column_comments                   
#>    <chr>                    <lgl>  <chr>           <chr>          <chr>                             
#>  1 id                       TRUE   xsd:string      character       <NA>                             
#>  2 LGL_ADMIN_AREA_ID        TRUE   xsd:decimal     numeric        "An operationally-generated uniqu…
#>  3 ADMIN_AREA_NAME          FALSE  xsd:string      character      "The authoritative, officially ap…
#>  4 ADMIN_AREA_ABBREVIATION  FALSE  xsd:string      character      "A short form or commonly-known a…
#>  5 ADMIN_AREA_BOUNDARY_TYPE FALSE  xsd:string      character      "BOUNDARY TYPE is a high-level gr…
#>  6 ADMIN_AREA_GROUP_NAME    FALSE  xsd:string      character      "The name given to the larger adm…
#>  7 CHANGE_REQUESTED_ORG     FALSE  xsd:string      character      "The government acronym of the Mi…
#>  8 UPDATE_TYPE              FALSE  xsd:string      character      "A short description of the lates…
#>  9 WHEN_UPDATED             FALSE  xsd:date        date           "The date and time the record was…
#> 10 MAP_STATUS               FALSE  xsd:string      character      "That the digital map has been ap…
#> # … with 11 more rows
…
