…
## Searching

You may want to start with `dc_dois()`.


```r
dc_dois(query = "climate change")
#> datacite: dois
#> found: 85075, pages: 400, page: 1
#> slots: data, meta, links
#> $data
#> # A tibble: 25 x 4
#>    id    type  attributes$doi $identifiers $creators $titles $publisher
#>    <chr> <chr> <chr>          <list>       <list>    <list>  <chr>     
#>  1 10.1… dois  10.15786/20.5… <list [0]>   <df[,6] … <df[,1… Mountain …
#>  2 10.2… dois  10.25675/1021… <list [0]>   <df[,3] … <df[,2… Mountain …
#>  3 10.2… dois  10.25675/1021… <list [0]>   <df[,3] … <df[,2… Mountain …
#>  4 10.2… dois  10.25675/1021… <list [0]>   <df[,3] … <df[,2… Mountain …
#>  5 10.2… dois  10.25675/1021… <list [0]>   <df[,3] … <df[,2… Mountain …
#>  6 10.2… dois  10.25676/1112… <list [0]>   <df[,6] … <df[,1… Mountain …
#>  7 10.2… dois  10.25676/1112… <list [0]>   <df[,6] … <df[,1… Mountain …
#>  8 10.2… dois  10.25675/1021… <list [0]>   <df[,6] … <df[,2… Mountain …
#>  9 10.2… dois  10.25675/1021… <list [0]>   <df[,6] … <df[,1… Mountain …
#> 10 10.2… dois  10.25675/1021… <list [0]>   <df[,6] … <df[,1… Mountain …
#> # … with 15 more rows, and 42 more variables: $container <df[,0]>,
#> #   $publicationYear <int>, $subjects <list>, $contributors <list>,
#> #   $dates <list>, $language <chr>, $types$ris <chr>, $$bibtex <chr>,
#> #   $$citeproc <chr>, $$schemaOrg <chr>, $$resourceType <chr>,
#> #   $$resourceTypeGeneral <chr>, $relatedIdentifiers <list>, $sizes <list>,
#> #   $formats <list>, $version <lgl>, $rightsList <list>, $descriptions <list>,
#> #   $geoLocations <list>, $fundingReferences <list>, $url <chr>,
#> #   $contentUrl <lgl>, $metadataVersion <int>, $schemaVersion <chr>,
#> #   $source <chr>, $isActive <lgl>, $state <chr>, $reason <lgl>,
…
