…
Once you have your `station_id`(s) you can download weather data:

``` r
kam <- weather_dl(station_ids = 51423, start = "2018-02-01", end = "2018-04-15")
```

    ## As of weathercan v0.3.0 time display is either local time or UTC
    ## See Details under ?weather_dl for more information.
    ## This message is shown once per session

``` r
kam
```

    ## # A tibble: 1,776 × 37
    ##    station_name station_id station_operator prov    lat   lon  elev climate_id WMO_id TC_id date       time                year  month day   hour  weather  hmdx
    ##    <chr>             <dbl> <lgl>            <chr> <dbl> <dbl> <dbl> <chr>      <chr>  <chr> <date>     <dttm>              <chr> <chr> <chr> <chr> <chr>   <dbl>
    ##  1 KAMLOOPS A        51423 NA               BC     50.7 -120.  345. 1163781    71887  YKA   2018-02-01 2018-02-01 00:00:00 2018  02    01    00:00 <NA>       NA
    ##  2 KAMLOOPS A        51423 NA               BC     50.7 -120.  345. 1163781    71887  YKA   2018-02-01 2018-02-01 01:00:00 2018  02    01    01:00 Snow       NA
    ##  3 KAMLOOPS A        51423 NA               BC     50.7 -120.  345. 1163781    71887  YKA   2018-02-01 2018-02-01 02:00:00 2018  02    01    02:00 <NA>       NA
    ##  4 KAMLOOPS A        51423 NA               BC     50.7 -120.  345. 1163781    71887  YKA   2018-02-01 2018-02-01 03:00:00 2018  02    01    03:00 <NA>       NA
    ##  5 KAMLOOPS A        51423 NA               BC     50.7 -120.  345. 1163781    71887  YKA   2018-02-01 2018-02-01 04:00:00 2018  02    01    04:00 Cloudy     NA
    ##  6 KAMLOOPS A        51423 NA               BC     50.7 -120.  345. 1163781    71887  YKA   2018-02-01 2018-02-01 05:00:00 2018  02    01    05:00 <NA>       NA
    ##  7 KAMLOOPS A        51423 NA               BC     50.7 -120.  345. 1163781    71887  YKA   2018-02-01 2018-02-01 06:00:00 2018  02    01    06:00 <NA>       NA
    ##  8 KAMLOOPS A        51423 NA               BC     50.7 -120.  345. 1163781    71887  YKA   2018-02-01 2018-02-01 07:00:00 2018  02    01    07:00 Cloudy     NA
    ##  9 KAMLOOPS A        51423 NA               BC     50.7 -120.  345. 1163781    71887  YKA   2018-02-01 2018-02-01 08:00:00 2018  02    01    08:00 <NA>       NA
    ## 10 KAMLOOPS A        51423 NA               BC     50.7 -120.  345. 1163781    71887  YKA   2018-02-01 2018-02-01 09:00:00 2018  02    01    09:00 <NA>       NA
    ## # … with 1,766 more rows
…
